<?xml version="1.0" encoding="utf-8" standalone="no"?>
<!DOCTYPE svg PUBLIC "-//W3C//DTD SVG 1.1//EN"
  "http://www.w3.org/Graphics/SVG/1.1/DTD/svg11.dtd">
<!-- Created with matplotlib (https://matplotlib.org/) -->
<svg height="407.866484pt" version="1.1" viewBox="0 0 635.461875 407.866484" width="635.461875pt" xmlns="http://www.w3.org/2000/svg" xmlns:xlink="http://www.w3.org/1999/xlink">
 <defs>
  <style type="text/css">
*{stroke-linecap:butt;stroke-linejoin:round;white-space:pre;}
  </style>
 </defs>
 <g id="figure_1">
  <g id="patch_1">
   <path d="M 0 407.866484 
L 635.461875 407.866484 
L 635.461875 0 
L 0 0 
z
" style="fill:#ffffff;"/>
  </g>
  <g id="axes_1">
   <g id="patch_2">
    <path d="M 70.261875 287.507812 
L 628.261875 287.507812 
L 628.261875 15.707813 
L 70.261875 15.707813 
z
" style="fill:#ffffff;"/>
   </g>
   <g id="matplotlib.axis_1">
    <g id="xtick_1">
     <g id="line2d_1">
      <path clip-path="url(#pd15c5e3881)" d="M 87.170966 287.507812 
L 87.170966 15.707813 
" style="fill:none;stroke:#cccccc;stroke-dasharray:3.7,1.6;stroke-dashoffset:0;"/>
     </g>
     <g id="line2d_2">
      <defs>
       <path d="M 0 0 
L 0 6 
" id="ma7581f97a3" style="stroke:#262626;stroke-width:1.25;"/>
      </defs>
      <g>
       <use style="fill:#262626;stroke:#262626;stroke-width:1.25;" x="87.170966" xlink:href="#ma7581f97a3" y="287.507812"/>
      </g>
     </g>
     <g id="text_1">
      <!-- ATP -->
      <defs>
       <path d="M -0.140625 0 
L 27.34375 71.578125 
L 37.546875 71.578125 
L 66.84375 0 
L 56.0625 0 
L 47.703125 21.6875 
L 17.78125 21.6875 
L 9.90625 0 
z
M 20.515625 29.390625 
L 44.78125 29.390625 
L 37.3125 49.21875 
Q 33.890625 58.25 32.234375 64.0625 
Q 30.859375 57.171875 28.375 50.390625 
z
" id="ArialMT-65"/>
       <path d="M 25.921875 0 
L 25.921875 63.140625 
L 2.34375 63.140625 
L 2.34375 71.578125 
L 59.078125 71.578125 
L 59.078125 63.140625 
L 35.40625 63.140625 
L 35.40625 0 
z
" id="ArialMT-84"/>
       <path d="M 7.71875 0 
L 7.71875 71.578125 
L 34.71875 71.578125 
Q 41.84375 71.578125 45.609375 70.90625 
Q 50.875 70.015625 54.4375 67.546875 
Q 58.015625 65.09375 60.1875 60.640625 
Q 62.359375 56.203125 62.359375 50.875 
Q 62.359375 41.75 56.546875 35.421875 
Q 50.734375 29.109375 35.546875 29.109375 
L 17.1875 29.109375 
L 17.1875 0 
z
M 17.1875 37.546875 
L 35.6875 37.546875 
Q 44.875 37.546875 48.734375 40.96875 
Q 52.59375 44.390625 52.59375 50.59375 
Q 52.59375 55.078125 50.3125 58.265625 
Q 48.046875 61.46875 44.34375 62.5 
Q 41.9375 63.140625 35.5 63.140625 
L 17.1875 63.140625 
z
" id="ArialMT-80"/>
      </defs>
      <g style="fill:#262626;" transform="translate(91.436474 329.079687)rotate(-90)scale(0.165 -0.165)">
       <use xlink:href="#ArialMT-65"/>
       <use x="66.589844" xlink:href="#ArialMT-84"/>
       <use x="127.673828" xlink:href="#ArialMT-80"/>
      </g>
     </g>
    </g>
    <g id="xtick_2">
     <g id="line2d_3">
      <path clip-path="url(#pd15c5e3881)" d="M 104.080057 287.507812 
L 104.080057 15.707813 
" style="fill:none;stroke:#cccccc;stroke-dasharray:3.7,1.6;stroke-dashoffset:0;"/>
     </g>
     <g id="line2d_4">
      <g>
       <use style="fill:#262626;stroke:#262626;stroke-width:1.25;" x="104.080057" xlink:href="#ma7581f97a3" y="287.507812"/>
      </g>
     </g>
     <g id="text_2">
      <!-- Water -->
      <defs>
       <path d="M 20.21875 0 
L 1.21875 71.578125 
L 10.9375 71.578125 
L 21.828125 24.65625 
Q 23.578125 17.28125 24.859375 10.015625 
Q 27.59375 21.484375 28.078125 23.25 
L 41.703125 71.578125 
L 53.125 71.578125 
L 63.375 35.359375 
Q 67.234375 21.875 68.953125 10.015625 
Q 70.3125 16.796875 72.515625 25.59375 
L 83.734375 71.578125 
L 93.265625 71.578125 
L 73.640625 0 
L 64.5 0 
L 49.421875 54.546875 
Q 47.515625 61.375 47.171875 62.9375 
Q 46.046875 58.015625 45.0625 54.546875 
L 29.890625 0 
z
" id="ArialMT-87"/>
       <path d="M 40.4375 6.390625 
Q 35.546875 2.25 31.03125 0.53125 
Q 26.515625 -1.171875 21.34375 -1.171875 
Q 12.796875 -1.171875 8.203125 3 
Q 3.609375 7.171875 3.609375 13.671875 
Q 3.609375 17.484375 5.34375 20.625 
Q 7.078125 23.78125 9.890625 25.6875 
Q 12.703125 27.59375 16.21875 28.5625 
Q 18.796875 29.25 24.03125 29.890625 
Q 34.671875 31.15625 39.703125 32.90625 
Q 39.75 34.71875 39.75 35.203125 
Q 39.75 40.578125 37.25 42.78125 
Q 33.890625 45.75 27.25 45.75 
Q 21.046875 45.75 18.09375 43.578125 
Q 15.140625 41.40625 13.71875 35.890625 
L 5.125 37.0625 
Q 6.296875 42.578125 8.984375 45.96875 
Q 11.671875 49.359375 16.75 51.1875 
Q 21.828125 53.03125 28.515625 53.03125 
Q 35.15625 53.03125 39.296875 51.46875 
Q 43.453125 49.90625 45.40625 47.53125 
Q 47.359375 45.171875 48.140625 41.546875 
Q 48.578125 39.3125 48.578125 33.453125 
L 48.578125 21.734375 
Q 48.578125 9.46875 49.140625 6.21875 
Q 49.703125 2.984375 51.375 0 
L 42.1875 0 
Q 40.828125 2.734375 40.4375 6.390625 
z
M 39.703125 26.03125 
Q 34.90625 24.078125 25.34375 22.703125 
Q 19.921875 21.921875 17.671875 20.9375 
Q 15.4375 19.96875 14.203125 18.09375 
Q 12.984375 16.21875 12.984375 13.921875 
Q 12.984375 10.40625 15.640625 8.0625 
Q 18.3125 5.71875 23.4375 5.71875 
Q 28.515625 5.71875 32.46875 7.9375 
Q 36.421875 10.15625 38.28125 14.015625 
Q 39.703125 17 39.703125 22.796875 
z
" id="ArialMT-97"/>
       <path d="M 25.78125 7.859375 
L 27.046875 0.09375 
Q 23.34375 -0.6875 20.40625 -0.6875 
Q 15.625 -0.6875 12.984375 0.828125 
Q 10.359375 2.34375 9.28125 4.8125 
Q 8.203125 7.28125 8.203125 15.1875 
L 8.203125 45.015625 
L 1.765625 45.015625 
L 1.765625 51.859375 
L 8.203125 51.859375 
L 8.203125 64.703125 
L 16.9375 69.96875 
L 16.9375 51.859375 
L 25.78125 51.859375 
L 25.78125 45.015625 
L 16.9375 45.015625 
L 16.9375 14.703125 
Q 16.9375 10.9375 17.40625 9.859375 
Q 17.875 8.796875 18.921875 8.15625 
Q 19.96875 7.515625 21.921875 7.515625 
Q 23.390625 7.515625 25.78125 7.859375 
z
" id="ArialMT-116"/>
       <path d="M 42.09375 16.703125 
L 51.171875 15.578125 
Q 49.03125 7.625 43.21875 3.21875 
Q 37.40625 -1.171875 28.375 -1.171875 
Q 17 -1.171875 10.328125 5.828125 
Q 3.65625 12.84375 3.65625 25.484375 
Q 3.65625 38.578125 10.390625 45.796875 
Q 17.140625 53.03125 27.875 53.03125 
Q 38.28125 53.03125 44.875 45.953125 
Q 51.46875 38.875 51.46875 26.03125 
Q 51.46875 25.25 51.421875 23.6875 
L 12.75 23.6875 
Q 13.234375 15.140625 17.578125 10.59375 
Q 21.921875 6.0625 28.421875 6.0625 
Q 33.25 6.0625 36.671875 8.59375 
Q 40.09375 11.140625 42.09375 16.703125 
z
M 13.234375 30.90625 
L 42.1875 30.90625 
Q 41.609375 37.453125 38.875 40.71875 
Q 34.671875 45.796875 27.984375 45.796875 
Q 21.921875 45.796875 17.796875 41.75 
Q 13.671875 37.703125 13.234375 30.90625 
z
" id="ArialMT-101"/>
       <path d="M 6.5 0 
L 6.5 51.859375 
L 14.40625 51.859375 
L 14.40625 44 
Q 17.4375 49.515625 20 51.265625 
Q 22.5625 53.03125 25.640625 53.03125 
Q 30.078125 53.03125 34.671875 50.203125 
L 31.640625 42.046875 
Q 28.421875 43.953125 25.203125 43.953125 
Q 22.3125 43.953125 20.015625 42.21875 
Q 17.71875 40.484375 16.75 37.40625 
Q 15.28125 32.71875 15.28125 27.15625 
L 15.28125 0 
z
" id="ArialMT-114"/>
      </defs>
      <g style="fill:#262626;" transform="translate(108.345565 341.003516)rotate(-90)scale(0.165 -0.165)">
       <use xlink:href="#ArialMT-87"/>
       <use x="94.337891" xlink:href="#ArialMT-97"/>
       <use x="149.953125" xlink:href="#ArialMT-116"/>
       <use x="177.736328" xlink:href="#ArialMT-101"/>
       <use x="233.351562" xlink:href="#ArialMT-114"/>
      </g>
     </g>
    </g>
    <g id="xtick_3">
     <g id="line2d_5">
      <path clip-path="url(#pd15c5e3881)" d="M 120.989148 287.507812 
L 120.989148 15.707813 
" style="fill:none;stroke:#cccccc;stroke-dasharray:3.7,1.6;stroke-dashoffset:0;"/>
     </g>
     <g id="line2d_6">
      <g>
       <use style="fill:#262626;stroke:#262626;stroke-width:1.25;" x="120.989148" xlink:href="#ma7581f97a3" y="287.507812"/>
      </g>
     </g>
     <g id="text_3">
      <!-- PC -->
      <defs>
       <path d="M 58.796875 25.09375 
L 68.265625 22.703125 
Q 65.28125 11.03125 57.546875 4.90625 
Q 49.8125 -1.21875 38.625 -1.21875 
Q 27.046875 -1.21875 19.796875 3.484375 
Q 12.546875 8.203125 8.765625 17.140625 
Q 4.984375 26.078125 4.984375 36.328125 
Q 4.984375 47.515625 9.25 55.828125 
Q 13.53125 64.15625 21.40625 68.46875 
Q 29.296875 72.796875 38.765625 72.796875 
Q 49.515625 72.796875 56.828125 67.328125 
Q 64.15625 61.859375 67.046875 51.953125 
L 57.71875 49.75 
Q 55.21875 57.5625 50.484375 61.125 
Q 45.75 64.703125 38.578125 64.703125 
Q 30.328125 64.703125 24.78125 60.734375 
Q 19.234375 56.78125 16.984375 50.109375 
Q 14.75 43.453125 14.75 36.375 
Q 14.75 27.25 17.40625 20.4375 
Q 20.0625 13.625 25.671875 10.25 
Q 31.296875 6.890625 37.84375 6.890625 
Q 45.796875 6.890625 51.3125 11.46875 
Q 56.84375 16.0625 58.796875 25.09375 
z
" id="ArialMT-67"/>
      </defs>
      <g style="fill:#262626;" transform="translate(125.254656 319.929922)rotate(-90)scale(0.165 -0.165)">
       <use xlink:href="#ArialMT-80"/>
       <use x="66.699219" xlink:href="#ArialMT-67"/>
      </g>
     </g>
    </g>
    <g id="xtick_4">
     <g id="line2d_7">
      <path clip-path="url(#pd15c5e3881)" d="M 137.898239 287.507812 
L 137.898239 15.707813 
" style="fill:none;stroke:#cccccc;stroke-dasharray:3.7,1.6;stroke-dashoffset:0;"/>
     </g>
     <g id="line2d_8">
      <g>
       <use style="fill:#262626;stroke:#262626;stroke-width:1.25;" x="137.898239" xlink:href="#ma7581f97a3" y="287.507812"/>
      </g>
     </g>
     <g id="text_4">
      <!-- Alanine -->
      <defs>
       <path d="M 6.390625 0 
L 6.390625 71.578125 
L 15.1875 71.578125 
L 15.1875 0 
z
" id="ArialMT-108"/>
       <path d="M 6.59375 0 
L 6.59375 51.859375 
L 14.5 51.859375 
L 14.5 44.484375 
Q 20.21875 53.03125 31 53.03125 
Q 35.6875 53.03125 39.625 51.34375 
Q 43.5625 49.65625 45.515625 46.921875 
Q 47.46875 44.1875 48.25 40.4375 
Q 48.734375 37.984375 48.734375 31.890625 
L 48.734375 0 
L 39.9375 0 
L 39.9375 31.546875 
Q 39.9375 36.921875 38.90625 39.578125 
Q 37.890625 42.234375 35.28125 43.8125 
Q 32.671875 45.40625 29.15625 45.40625 
Q 23.53125 45.40625 19.453125 41.84375 
Q 15.375 38.28125 15.375 28.328125 
L 15.375 0 
z
" id="ArialMT-110"/>
       <path d="M 6.640625 61.46875 
L 6.640625 71.578125 
L 15.4375 71.578125 
L 15.4375 61.46875 
z
M 6.640625 0 
L 6.640625 51.859375 
L 15.4375 51.859375 
L 15.4375 0 
z
" id="ArialMT-105"/>
      </defs>
      <g style="fill:#262626;" transform="translate(142.163746 352.048203)rotate(-90)scale(0.165 -0.165)">
       <use xlink:href="#ArialMT-65"/>
       <use x="66.699219" xlink:href="#ArialMT-108"/>
       <use x="88.916016" xlink:href="#ArialMT-97"/>
       <use x="144.53125" xlink:href="#ArialMT-110"/>
       <use x="200.146484" xlink:href="#ArialMT-105"/>
       <use x="222.363281" xlink:href="#ArialMT-110"/>
       <use x="277.978516" xlink:href="#ArialMT-101"/>
      </g>
     </g>
    </g>
    <g id="xtick_5">
     <g id="line2d_9">
      <path clip-path="url(#pd15c5e3881)" d="M 154.80733 287.507812 
L 154.80733 15.707813 
" style="fill:none;stroke:#cccccc;stroke-dasharray:3.7,1.6;stroke-dashoffset:0;"/>
     </g>
     <g id="line2d_10">
      <g>
       <use style="fill:#262626;stroke:#262626;stroke-width:1.25;" x="154.80733" xlink:href="#ma7581f97a3" y="287.507812"/>
      </g>
     </g>
     <g id="text_5">
      <!-- Glutamate -->
      <defs>
       <path d="M 41.21875 28.078125 
L 41.21875 36.46875 
L 71.53125 36.53125 
L 71.53125 9.96875 
Q 64.546875 4.390625 57.125 1.578125 
Q 49.703125 -1.21875 41.890625 -1.21875 
Q 31.34375 -1.21875 22.71875 3.296875 
Q 14.109375 7.8125 9.71875 16.359375 
Q 5.328125 24.90625 5.328125 35.453125 
Q 5.328125 45.90625 9.6875 54.953125 
Q 14.0625 64.015625 22.265625 68.40625 
Q 30.46875 72.796875 41.15625 72.796875 
Q 48.921875 72.796875 55.1875 70.28125 
Q 61.46875 67.78125 65.03125 63.28125 
Q 68.609375 58.796875 70.453125 51.5625 
L 61.921875 49.21875 
Q 60.296875 54.6875 57.90625 57.8125 
Q 55.515625 60.9375 51.0625 62.8125 
Q 46.625 64.703125 41.21875 64.703125 
Q 34.71875 64.703125 29.984375 62.71875 
Q 25.25 60.75 22.34375 57.515625 
Q 19.4375 54.296875 17.828125 50.4375 
Q 15.09375 43.796875 15.09375 36.03125 
Q 15.09375 26.46875 18.390625 20.015625 
Q 21.6875 13.578125 27.984375 10.453125 
Q 34.28125 7.328125 41.359375 7.328125 
Q 47.515625 7.328125 53.375 9.6875 
Q 59.234375 12.0625 62.25 14.75 
L 62.25 28.078125 
z
" id="ArialMT-71"/>
       <path d="M 40.578125 0 
L 40.578125 7.625 
Q 34.515625 -1.171875 24.125 -1.171875 
Q 19.53125 -1.171875 15.546875 0.578125 
Q 11.578125 2.34375 9.640625 5 
Q 7.71875 7.671875 6.9375 11.53125 
Q 6.390625 14.109375 6.390625 19.734375 
L 6.390625 51.859375 
L 15.1875 51.859375 
L 15.1875 23.09375 
Q 15.1875 16.21875 15.71875 13.8125 
Q 16.546875 10.359375 19.234375 8.375 
Q 21.921875 6.390625 25.875 6.390625 
Q 29.828125 6.390625 33.296875 8.421875 
Q 36.765625 10.453125 38.203125 13.9375 
Q 39.65625 17.4375 39.65625 24.078125 
L 39.65625 51.859375 
L 48.4375 51.859375 
L 48.4375 0 
z
" id="ArialMT-117"/>
       <path d="M 6.59375 0 
L 6.59375 51.859375 
L 14.453125 51.859375 
L 14.453125 44.578125 
Q 16.890625 48.390625 20.9375 50.703125 
Q 25 53.03125 30.171875 53.03125 
Q 35.9375 53.03125 39.625 50.640625 
Q 43.3125 48.25 44.828125 43.953125 
Q 50.984375 53.03125 60.84375 53.03125 
Q 68.5625 53.03125 72.703125 48.75 
Q 76.859375 44.484375 76.859375 35.59375 
L 76.859375 0 
L 68.109375 0 
L 68.109375 32.671875 
Q 68.109375 37.9375 67.25 40.25 
Q 66.40625 42.578125 64.15625 43.984375 
Q 61.921875 45.40625 58.890625 45.40625 
Q 53.421875 45.40625 49.796875 41.765625 
Q 46.1875 38.140625 46.1875 30.125 
L 46.1875 0 
L 37.40625 0 
L 37.40625 33.6875 
Q 37.40625 39.546875 35.25 42.46875 
Q 33.109375 45.40625 28.21875 45.40625 
Q 24.515625 45.40625 21.359375 43.453125 
Q 18.21875 41.5 16.796875 37.734375 
Q 15.375 33.984375 15.375 26.90625 
L 15.375 0 
z
" id="ArialMT-109"/>
      </defs>
      <g style="fill:#262626;" transform="translate(159.072837 373.121797)rotate(-90)scale(0.165 -0.165)">
       <use xlink:href="#ArialMT-71"/>
       <use x="77.783203" xlink:href="#ArialMT-108"/>
       <use x="100" xlink:href="#ArialMT-117"/>
       <use x="155.615234" xlink:href="#ArialMT-116"/>
       <use x="183.398438" xlink:href="#ArialMT-97"/>
       <use x="239.013672" xlink:href="#ArialMT-109"/>
       <use x="322.314453" xlink:href="#ArialMT-97"/>
       <use x="377.929688" xlink:href="#ArialMT-116"/>
       <use x="405.712891" xlink:href="#ArialMT-101"/>
      </g>
     </g>
    </g>
    <g id="xtick_6">
     <g id="line2d_11">
      <path clip-path="url(#pd15c5e3881)" d="M 171.71642 287.507812 
L 171.71642 15.707813 
" style="fill:none;stroke:#cccccc;stroke-dasharray:3.7,1.6;stroke-dashoffset:0;"/>
     </g>
     <g id="line2d_12">
      <g>
       <use style="fill:#262626;stroke:#262626;stroke-width:1.25;" x="171.71642" xlink:href="#ma7581f97a3" y="287.507812"/>
      </g>
     </g>
     <g id="text_6">
      <!-- Aspartate -->
      <defs>
       <path d="M 3.078125 15.484375 
L 11.765625 16.84375 
Q 12.5 11.625 15.84375 8.84375 
Q 19.1875 6.0625 25.203125 6.0625 
Q 31.25 6.0625 34.171875 8.515625 
Q 37.109375 10.984375 37.109375 14.3125 
Q 37.109375 17.28125 34.515625 19 
Q 32.71875 20.171875 25.53125 21.96875 
Q 15.875 24.421875 12.140625 26.203125 
Q 8.40625 27.984375 6.46875 31.125 
Q 4.546875 34.28125 4.546875 38.09375 
Q 4.546875 41.546875 6.125 44.5 
Q 7.71875 47.46875 10.453125 49.421875 
Q 12.5 50.921875 16.03125 51.96875 
Q 19.578125 53.03125 23.640625 53.03125 
Q 29.734375 53.03125 34.34375 51.265625 
Q 38.96875 49.515625 41.15625 46.5 
Q 43.359375 43.5 44.1875 38.484375 
L 35.59375 37.3125 
Q 35.015625 41.3125 32.203125 43.546875 
Q 29.390625 45.796875 24.265625 45.796875 
Q 18.21875 45.796875 15.625 43.796875 
Q 13.03125 41.796875 13.03125 39.109375 
Q 13.03125 37.40625 14.109375 36.03125 
Q 15.1875 34.625 17.484375 33.6875 
Q 18.796875 33.203125 25.25 31.453125 
Q 34.578125 28.953125 38.25 27.359375 
Q 41.9375 25.78125 44.03125 22.75 
Q 46.140625 19.734375 46.140625 15.234375 
Q 46.140625 10.84375 43.578125 6.953125 
Q 41.015625 3.078125 36.171875 0.953125 
Q 31.34375 -1.171875 25.25 -1.171875 
Q 15.140625 -1.171875 9.84375 3.03125 
Q 4.546875 7.234375 3.078125 15.484375 
z
" id="ArialMT-115"/>
       <path d="M 6.59375 -19.875 
L 6.59375 51.859375 
L 14.59375 51.859375 
L 14.59375 45.125 
Q 17.4375 49.078125 21 51.046875 
Q 24.5625 53.03125 29.640625 53.03125 
Q 36.28125 53.03125 41.359375 49.609375 
Q 46.4375 46.1875 49.015625 39.953125 
Q 51.609375 33.734375 51.609375 26.3125 
Q 51.609375 18.359375 48.75 11.984375 
Q 45.90625 5.609375 40.453125 2.21875 
Q 35.015625 -1.171875 29 -1.171875 
Q 24.609375 -1.171875 21.109375 0.6875 
Q 17.625 2.546875 15.375 5.375 
L 15.375 -19.875 
z
M 14.546875 25.640625 
Q 14.546875 15.625 18.59375 10.84375 
Q 22.65625 6.0625 28.421875 6.0625 
Q 34.28125 6.0625 38.453125 11.015625 
Q 42.625 15.96875 42.625 26.375 
Q 42.625 36.28125 38.546875 41.203125 
Q 34.46875 46.140625 28.8125 46.140625 
Q 23.1875 46.140625 18.859375 40.890625 
Q 14.546875 35.640625 14.546875 25.640625 
z
" id="ArialMT-112"/>
      </defs>
      <g style="fill:#262626;" transform="translate(175.981928 367.627813)rotate(-90)scale(0.165 -0.165)">
       <use xlink:href="#ArialMT-65"/>
       <use x="66.699219" xlink:href="#ArialMT-115"/>
       <use x="116.699219" xlink:href="#ArialMT-112"/>
       <use x="172.314453" xlink:href="#ArialMT-97"/>
       <use x="227.929688" xlink:href="#ArialMT-114"/>
       <use x="261.230469" xlink:href="#ArialMT-116"/>
       <use x="289.013672" xlink:href="#ArialMT-97"/>
       <use x="344.628906" xlink:href="#ArialMT-116"/>
       <use x="372.412109" xlink:href="#ArialMT-101"/>
      </g>
     </g>
    </g>
    <g id="xtick_7">
     <g id="line2d_13">
      <path clip-path="url(#pd15c5e3881)" d="M 188.625511 287.507812 
L 188.625511 15.707813 
" style="fill:none;stroke:#cccccc;stroke-dasharray:3.7,1.6;stroke-dashoffset:0;"/>
     </g>
     <g id="line2d_14">
      <g>
       <use style="fill:#262626;stroke:#262626;stroke-width:1.25;" x="188.625511" xlink:href="#ma7581f97a3" y="287.507812"/>
      </g>
     </g>
     <g id="text_7">
      <!-- Leucine -->
      <defs>
       <path d="M 7.328125 0 
L 7.328125 71.578125 
L 16.796875 71.578125 
L 16.796875 8.453125 
L 52.046875 8.453125 
L 52.046875 0 
z
" id="ArialMT-76"/>
       <path d="M 40.4375 19 
L 49.078125 17.875 
Q 47.65625 8.9375 41.8125 3.875 
Q 35.984375 -1.171875 27.484375 -1.171875 
Q 16.84375 -1.171875 10.375 5.78125 
Q 3.90625 12.75 3.90625 25.734375 
Q 3.90625 34.125 6.6875 40.421875 
Q 9.46875 46.734375 15.15625 49.875 
Q 20.84375 53.03125 27.546875 53.03125 
Q 35.984375 53.03125 41.359375 48.75 
Q 46.734375 44.484375 48.25 36.625 
L 39.703125 35.296875 
Q 38.484375 40.53125 35.375 43.15625 
Q 32.28125 45.796875 27.875 45.796875 
Q 21.234375 45.796875 17.078125 41.03125 
Q 12.9375 36.28125 12.9375 25.984375 
Q 12.9375 15.53125 16.9375 10.796875 
Q 20.953125 6.0625 27.390625 6.0625 
Q 32.5625 6.0625 36.03125 9.234375 
Q 39.5 12.40625 40.4375 19 
z
" id="ArialMT-99"/>
      </defs>
      <g style="fill:#262626;" transform="translate(192.891019 354.801641)rotate(-90)scale(0.165 -0.165)">
       <use xlink:href="#ArialMT-76"/>
       <use x="55.615234" xlink:href="#ArialMT-101"/>
       <use x="111.230469" xlink:href="#ArialMT-117"/>
       <use x="166.845703" xlink:href="#ArialMT-99"/>
       <use x="216.845703" xlink:href="#ArialMT-105"/>
       <use x="239.0625" xlink:href="#ArialMT-110"/>
       <use x="294.677734" xlink:href="#ArialMT-101"/>
      </g>
     </g>
    </g>
    <g id="xtick_8">
     <g id="line2d_15">
      <path clip-path="url(#pd15c5e3881)" d="M 205.534602 287.507812 
L 205.534602 15.707813 
" style="fill:none;stroke:#cccccc;stroke-dasharray:3.7,1.6;stroke-dashoffset:0;"/>
     </g>
     <g id="line2d_16">
      <g>
       <use style="fill:#262626;stroke:#262626;stroke-width:1.25;" x="205.534602" xlink:href="#ma7581f97a3" y="287.507812"/>
      </g>
     </g>
     <g id="text_8">
      <!-- Glycine -->
      <defs>
       <path d="M 6.203125 -19.96875 
L 5.21875 -11.71875 
Q 8.109375 -12.5 10.25 -12.5 
Q 13.1875 -12.5 14.9375 -11.515625 
Q 16.703125 -10.546875 17.828125 -8.796875 
Q 18.65625 -7.46875 20.515625 -2.25 
Q 20.75 -1.515625 21.296875 -0.09375 
L 1.609375 51.859375 
L 11.078125 51.859375 
L 21.875 21.828125 
Q 23.96875 16.109375 25.640625 9.8125 
Q 27.15625 15.875 29.25 21.625 
L 40.328125 51.859375 
L 49.125 51.859375 
L 29.390625 -0.875 
Q 26.21875 -9.421875 24.46875 -12.640625 
Q 22.125 -17 19.09375 -19.015625 
Q 16.0625 -21.046875 11.859375 -21.046875 
Q 9.328125 -21.046875 6.203125 -19.96875 
z
" id="ArialMT-121"/>
      </defs>
      <g style="fill:#262626;" transform="translate(209.803977 352.025)rotate(-90)scale(0.165 -0.165)">
       <use xlink:href="#ArialMT-71"/>
       <use x="77.783203" xlink:href="#ArialMT-108"/>
       <use x="100" xlink:href="#ArialMT-121"/>
       <use x="150" xlink:href="#ArialMT-99"/>
       <use x="200" xlink:href="#ArialMT-105"/>
       <use x="222.216797" xlink:href="#ArialMT-110"/>
       <use x="277.832031" xlink:href="#ArialMT-101"/>
      </g>
     </g>
    </g>
    <g id="xtick_9">
     <g id="line2d_17">
      <path clip-path="url(#pd15c5e3881)" d="M 222.443693 287.507812 
L 222.443693 15.707813 
" style="fill:none;stroke:#cccccc;stroke-dasharray:3.7,1.6;stroke-dashoffset:0;"/>
     </g>
     <g id="line2d_18">
      <g>
       <use style="fill:#262626;stroke:#262626;stroke-width:1.25;" x="222.443693" xlink:href="#ma7581f97a3" y="287.507812"/>
      </g>
     </g>
     <g id="text_9">
      <!-- Lysine -->
      <g style="fill:#262626;" transform="translate(226.612521 344.692812)rotate(-90)scale(0.165 -0.165)">
       <use xlink:href="#ArialMT-76"/>
       <use x="55.568359" xlink:href="#ArialMT-121"/>
       <use x="105.568359" xlink:href="#ArialMT-115"/>
       <use x="155.568359" xlink:href="#ArialMT-105"/>
       <use x="177.785156" xlink:href="#ArialMT-110"/>
       <use x="233.400391" xlink:href="#ArialMT-101"/>
      </g>
     </g>
    </g>
    <g id="xtick_10">
     <g id="line2d_19">
      <path clip-path="url(#pd15c5e3881)" d="M 239.352784 287.507812 
L 239.352784 15.707813 
" style="fill:none;stroke:#cccccc;stroke-dasharray:3.7,1.6;stroke-dashoffset:0;"/>
     </g>
     <g id="line2d_20">
      <g>
       <use style="fill:#262626;stroke:#262626;stroke-width:1.25;" x="239.352784" xlink:href="#ma7581f97a3" y="287.507812"/>
      </g>
     </g>
     <g id="text_10">
      <!-- Valine -->
      <defs>
       <path d="M 28.171875 0 
L 0.4375 71.578125 
L 10.6875 71.578125 
L 29.296875 19.578125 
Q 31.546875 13.328125 33.0625 7.859375 
Q 34.71875 13.71875 36.921875 19.578125 
L 56.25 71.578125 
L 65.921875 71.578125 
L 37.890625 0 
z
" id="ArialMT-86"/>
      </defs>
      <g style="fill:#262626;" transform="translate(243.618292 342.854609)rotate(-90)scale(0.165 -0.165)">
       <use xlink:href="#ArialMT-86"/>
       <use x="66.589844" xlink:href="#ArialMT-97"/>
       <use x="122.205078" xlink:href="#ArialMT-108"/>
       <use x="144.421875" xlink:href="#ArialMT-105"/>
       <use x="166.638672" xlink:href="#ArialMT-110"/>
       <use x="222.253906" xlink:href="#ArialMT-101"/>
      </g>
     </g>
    </g>
    <g id="xtick_11">
     <g id="line2d_21">
      <path clip-path="url(#pd15c5e3881)" d="M 256.261875 287.507812 
L 256.261875 15.707813 
" style="fill:none;stroke:#cccccc;stroke-dasharray:3.7,1.6;stroke-dashoffset:0;"/>
     </g>
     <g id="line2d_22">
      <g>
       <use style="fill:#262626;stroke:#262626;stroke-width:1.25;" x="256.261875" xlink:href="#ma7581f97a3" y="287.507812"/>
      </g>
     </g>
     <g id="text_11">
      <!-- Isoleucine -->
      <defs>
       <path d="M 9.328125 0 
L 9.328125 71.578125 
L 18.796875 71.578125 
L 18.796875 0 
z
" id="ArialMT-73"/>
       <path d="M 3.328125 25.921875 
Q 3.328125 40.328125 11.328125 47.265625 
Q 18.015625 53.03125 27.640625 53.03125 
Q 38.328125 53.03125 45.109375 46.015625 
Q 51.90625 39.015625 51.90625 26.65625 
Q 51.90625 16.65625 48.90625 10.90625 
Q 45.90625 5.171875 40.15625 2 
Q 34.421875 -1.171875 27.640625 -1.171875 
Q 16.75 -1.171875 10.03125 5.8125 
Q 3.328125 12.796875 3.328125 25.921875 
z
M 12.359375 25.921875 
Q 12.359375 15.96875 16.703125 11.015625 
Q 21.046875 6.0625 27.640625 6.0625 
Q 34.1875 6.0625 38.53125 11.03125 
Q 42.875 16.015625 42.875 26.21875 
Q 42.875 35.84375 38.5 40.796875 
Q 34.125 45.75 27.640625 45.75 
Q 21.046875 45.75 16.703125 40.8125 
Q 12.359375 35.890625 12.359375 25.921875 
z
" id="ArialMT-111"/>
      </defs>
      <g style="fill:#262626;" transform="translate(260.527383 371.301641)rotate(-90)scale(0.165 -0.165)">
       <use xlink:href="#ArialMT-73"/>
       <use x="27.783203" xlink:href="#ArialMT-115"/>
       <use x="77.783203" xlink:href="#ArialMT-111"/>
       <use x="133.398438" xlink:href="#ArialMT-108"/>
       <use x="155.615234" xlink:href="#ArialMT-101"/>
       <use x="211.230469" xlink:href="#ArialMT-117"/>
       <use x="266.845703" xlink:href="#ArialMT-99"/>
       <use x="316.845703" xlink:href="#ArialMT-105"/>
       <use x="339.0625" xlink:href="#ArialMT-110"/>
       <use x="394.677734" xlink:href="#ArialMT-101"/>
      </g>
     </g>
    </g>
    <g id="xtick_12">
     <g id="line2d_23">
      <path clip-path="url(#pd15c5e3881)" d="M 273.170966 287.507812 
L 273.170966 15.707813 
" style="fill:none;stroke:#cccccc;stroke-dasharray:3.7,1.6;stroke-dashoffset:0;"/>
     </g>
     <g id="line2d_24">
      <g>
       <use style="fill:#262626;stroke:#262626;stroke-width:1.25;" x="273.170966" xlink:href="#ma7581f97a3" y="287.507812"/>
      </g>
     </g>
     <g id="text_12">
      <!-- Threonine -->
      <defs>
       <path d="M 6.59375 0 
L 6.59375 71.578125 
L 15.375 71.578125 
L 15.375 45.90625 
Q 21.53125 53.03125 30.90625 53.03125 
Q 36.671875 53.03125 40.921875 50.75 
Q 45.171875 48.484375 47 44.484375 
Q 48.828125 40.484375 48.828125 32.859375 
L 48.828125 0 
L 40.046875 0 
L 40.046875 32.859375 
Q 40.046875 39.453125 37.1875 42.453125 
Q 34.328125 45.453125 29.109375 45.453125 
Q 25.203125 45.453125 21.75 43.421875 
Q 18.3125 41.40625 16.84375 37.9375 
Q 15.375 34.46875 15.375 28.375 
L 15.375 0 
z
" id="ArialMT-104"/>
      </defs>
      <g style="fill:#262626;" transform="translate(277.436474 371.299062)rotate(-90)scale(0.165 -0.165)">
       <use xlink:href="#ArialMT-84"/>
       <use x="61.083984" xlink:href="#ArialMT-104"/>
       <use x="116.699219" xlink:href="#ArialMT-114"/>
       <use x="150" xlink:href="#ArialMT-101"/>
       <use x="205.615234" xlink:href="#ArialMT-111"/>
       <use x="261.230469" xlink:href="#ArialMT-110"/>
       <use x="316.845703" xlink:href="#ArialMT-105"/>
       <use x="339.0625" xlink:href="#ArialMT-110"/>
       <use x="394.677734" xlink:href="#ArialMT-101"/>
      </g>
     </g>
    </g>
    <g id="xtick_13">
     <g id="line2d_25">
      <path clip-path="url(#pd15c5e3881)" d="M 290.080057 287.507812 
L 290.080057 15.707813 
" style="fill:none;stroke:#cccccc;stroke-dasharray:3.7,1.6;stroke-dashoffset:0;"/>
     </g>
     <g id="line2d_26">
      <g>
       <use style="fill:#262626;stroke:#262626;stroke-width:1.25;" x="290.080057" xlink:href="#ma7581f97a3" y="287.507812"/>
      </g>
     </g>
     <g id="text_13">
      <!-- Serine -->
      <defs>
       <path d="M 4.5 23 
L 13.421875 23.78125 
Q 14.0625 18.40625 16.375 14.96875 
Q 18.703125 11.53125 23.578125 9.40625 
Q 28.46875 7.28125 34.578125 7.28125 
Q 39.984375 7.28125 44.140625 8.890625 
Q 48.296875 10.5 50.3125 13.296875 
Q 52.34375 16.109375 52.34375 19.4375 
Q 52.34375 22.796875 50.390625 25.3125 
Q 48.4375 27.828125 43.953125 29.546875 
Q 41.0625 30.671875 31.203125 33.03125 
Q 21.34375 35.40625 17.390625 37.5 
Q 12.25 40.1875 9.734375 44.15625 
Q 7.234375 48.140625 7.234375 53.078125 
Q 7.234375 58.5 10.296875 63.203125 
Q 13.375 67.921875 19.28125 70.359375 
Q 25.203125 72.796875 32.421875 72.796875 
Q 40.375 72.796875 46.453125 70.234375 
Q 52.546875 67.671875 55.8125 62.6875 
Q 59.078125 57.71875 59.328125 51.421875 
L 50.25 50.734375 
Q 49.515625 57.515625 45.28125 60.984375 
Q 41.0625 64.453125 32.8125 64.453125 
Q 24.21875 64.453125 20.28125 61.296875 
Q 16.359375 58.15625 16.359375 53.71875 
Q 16.359375 49.859375 19.140625 47.359375 
Q 21.875 44.875 33.421875 42.265625 
Q 44.96875 39.65625 49.265625 37.703125 
Q 55.515625 34.8125 58.484375 30.390625 
Q 61.46875 25.984375 61.46875 20.21875 
Q 61.46875 14.5 58.203125 9.4375 
Q 54.9375 4.390625 48.796875 1.578125 
Q 42.671875 -1.21875 35.015625 -1.21875 
Q 25.296875 -1.21875 18.71875 1.609375 
Q 12.15625 4.4375 8.421875 10.125 
Q 4.6875 15.828125 4.5 23 
z
" id="ArialMT-83"/>
      </defs>
      <g style="fill:#262626;" transform="translate(294.345565 344.700547)rotate(-90)scale(0.165 -0.165)">
       <use xlink:href="#ArialMT-83"/>
       <use x="66.699219" xlink:href="#ArialMT-101"/>
       <use x="122.314453" xlink:href="#ArialMT-114"/>
       <use x="155.615234" xlink:href="#ArialMT-105"/>
       <use x="177.832031" xlink:href="#ArialMT-110"/>
       <use x="233.447266" xlink:href="#ArialMT-101"/>
      </g>
     </g>
    </g>
    <g id="xtick_14">
     <g id="line2d_27">
      <path clip-path="url(#pd15c5e3881)" d="M 306.989148 287.507812 
L 306.989148 15.707813 
" style="fill:none;stroke:#cccccc;stroke-dasharray:3.7,1.6;stroke-dashoffset:0;"/>
     </g>
     <g id="line2d_28">
      <g>
       <use style="fill:#262626;stroke:#262626;stroke-width:1.25;" x="306.989148" xlink:href="#ma7581f97a3" y="287.507812"/>
      </g>
     </g>
     <g id="text_14">
      <!-- Proline -->
      <g style="fill:#262626;" transform="translate(311.254656 348.366641)rotate(-90)scale(0.165 -0.165)">
       <use xlink:href="#ArialMT-80"/>
       <use x="66.699219" xlink:href="#ArialMT-114"/>
       <use x="100" xlink:href="#ArialMT-111"/>
       <use x="155.615234" xlink:href="#ArialMT-108"/>
       <use x="177.832031" xlink:href="#ArialMT-105"/>
       <use x="200.048828" xlink:href="#ArialMT-110"/>
       <use x="255.664062" xlink:href="#ArialMT-101"/>
      </g>
     </g>
    </g>
    <g id="xtick_15">
     <g id="line2d_29">
      <path clip-path="url(#pd15c5e3881)" d="M 323.898239 287.507812 
L 323.898239 15.707813 
" style="fill:none;stroke:#cccccc;stroke-dasharray:3.7,1.6;stroke-dashoffset:0;"/>
     </g>
     <g id="line2d_30">
      <g>
       <use style="fill:#262626;stroke:#262626;stroke-width:1.25;" x="323.898239" xlink:href="#ma7581f97a3" y="287.507812"/>
      </g>
     </g>
     <g id="text_15">
      <!-- Arginine -->
      <defs>
       <path d="M 4.984375 -4.296875 
L 13.53125 -5.5625 
Q 14.0625 -9.515625 16.5 -11.328125 
Q 19.78125 -13.765625 25.4375 -13.765625 
Q 31.546875 -13.765625 34.859375 -11.328125 
Q 38.1875 -8.890625 39.359375 -4.5 
Q 40.046875 -1.8125 39.984375 6.78125 
Q 34.234375 0 25.640625 0 
Q 14.9375 0 9.078125 7.71875 
Q 3.21875 15.4375 3.21875 26.21875 
Q 3.21875 33.640625 5.90625 39.90625 
Q 8.59375 46.1875 13.6875 49.609375 
Q 18.796875 53.03125 25.6875 53.03125 
Q 34.859375 53.03125 40.828125 45.609375 
L 40.828125 51.859375 
L 48.921875 51.859375 
L 48.921875 7.03125 
Q 48.921875 -5.078125 46.453125 -10.125 
Q 44 -15.1875 38.640625 -18.109375 
Q 33.296875 -21.046875 25.484375 -21.046875 
Q 16.21875 -21.046875 10.5 -16.875 
Q 4.78125 -12.703125 4.984375 -4.296875 
z
M 12.25 26.859375 
Q 12.25 16.65625 16.296875 11.96875 
Q 20.359375 7.28125 26.46875 7.28125 
Q 32.515625 7.28125 36.609375 11.9375 
Q 40.71875 16.609375 40.71875 26.5625 
Q 40.71875 36.078125 36.5 40.90625 
Q 32.28125 45.75 26.3125 45.75 
Q 20.453125 45.75 16.34375 40.984375 
Q 12.25 36.234375 12.25 26.859375 
z
" id="ArialMT-103"/>
      </defs>
      <g style="fill:#262626;" transform="translate(328.067067 357.542187)rotate(-90)scale(0.165 -0.165)">
       <use xlink:href="#ArialMT-65"/>
       <use x="66.699219" xlink:href="#ArialMT-114"/>
       <use x="100" xlink:href="#ArialMT-103"/>
       <use x="155.615234" xlink:href="#ArialMT-105"/>
       <use x="177.832031" xlink:href="#ArialMT-110"/>
       <use x="233.447266" xlink:href="#ArialMT-105"/>
       <use x="255.664062" xlink:href="#ArialMT-110"/>
       <use x="311.279297" xlink:href="#ArialMT-101"/>
      </g>
     </g>
    </g>
    <g id="xtick_16">
     <g id="line2d_31">
      <path clip-path="url(#pd15c5e3881)" d="M 340.80733 287.507812 
L 340.80733 15.707813 
" style="fill:none;stroke:#cccccc;stroke-dasharray:3.7,1.6;stroke-dashoffset:0;"/>
     </g>
     <g id="line2d_32">
      <g>
       <use style="fill:#262626;stroke:#262626;stroke-width:1.25;" x="340.80733" xlink:href="#ma7581f97a3" y="287.507812"/>
      </g>
     </g>
     <g id="text_16">
      <!-- Phenylalanine -->
      <g style="fill:#262626;" transform="translate(344.976158 400.666484)rotate(-90)scale(0.165 -0.165)">
       <use xlink:href="#ArialMT-80"/>
       <use x="66.699219" xlink:href="#ArialMT-104"/>
       <use x="122.314453" xlink:href="#ArialMT-101"/>
       <use x="177.929688" xlink:href="#ArialMT-110"/>
       <use x="233.544922" xlink:href="#ArialMT-121"/>
       <use x="283.544922" xlink:href="#ArialMT-108"/>
       <use x="305.761719" xlink:href="#ArialMT-97"/>
       <use x="361.376953" xlink:href="#ArialMT-108"/>
       <use x="383.59375" xlink:href="#ArialMT-97"/>
       <use x="439.208984" xlink:href="#ArialMT-110"/>
       <use x="494.824219" xlink:href="#ArialMT-105"/>
       <use x="517.041016" xlink:href="#ArialMT-110"/>
       <use x="572.65625" xlink:href="#ArialMT-101"/>
      </g>
     </g>
    </g>
    <g id="xtick_17">
     <g id="line2d_33">
      <path clip-path="url(#pd15c5e3881)" d="M 357.71642 287.507812 
L 357.71642 15.707813 
" style="fill:none;stroke:#cccccc;stroke-dasharray:3.7,1.6;stroke-dashoffset:0;"/>
     </g>
     <g id="line2d_34">
      <g>
       <use style="fill:#262626;stroke:#262626;stroke-width:1.25;" x="357.71642" xlink:href="#ma7581f97a3" y="287.507812"/>
      </g>
     </g>
     <g id="text_17">
      <!-- Glutamine -->
      <g style="fill:#262626;" transform="translate(361.981928 372.203984)rotate(-90)scale(0.165 -0.165)">
       <use xlink:href="#ArialMT-71"/>
       <use x="77.783203" xlink:href="#ArialMT-108"/>
       <use x="100" xlink:href="#ArialMT-117"/>
       <use x="155.615234" xlink:href="#ArialMT-116"/>
       <use x="183.398438" xlink:href="#ArialMT-97"/>
       <use x="239.013672" xlink:href="#ArialMT-109"/>
       <use x="322.314453" xlink:href="#ArialMT-105"/>
       <use x="344.53125" xlink:href="#ArialMT-110"/>
       <use x="400.146484" xlink:href="#ArialMT-101"/>
      </g>
     </g>
    </g>
    <g id="xtick_18">
     <g id="line2d_35">
      <path clip-path="url(#pd15c5e3881)" d="M 374.625511 287.507812 
L 374.625511 15.707813 
" style="fill:none;stroke:#cccccc;stroke-dasharray:3.7,1.6;stroke-dashoffset:0;"/>
     </g>
     <g id="line2d_36">
      <g>
       <use style="fill:#262626;stroke:#262626;stroke-width:1.25;" x="374.625511" xlink:href="#ma7581f97a3" y="287.507812"/>
      </g>
     </g>
     <g id="text_18">
      <!-- Tyrosine -->
      <g style="fill:#262626;" transform="translate(378.794339 360.259531)rotate(-90)scale(0.165 -0.165)">
       <use xlink:href="#ArialMT-84"/>
       <use x="61.005859" xlink:href="#ArialMT-121"/>
       <use x="111.005859" xlink:href="#ArialMT-114"/>
       <use x="144.306641" xlink:href="#ArialMT-111"/>
       <use x="199.921875" xlink:href="#ArialMT-115"/>
       <use x="249.921875" xlink:href="#ArialMT-105"/>
       <use x="272.138672" xlink:href="#ArialMT-110"/>
       <use x="327.753906" xlink:href="#ArialMT-101"/>
      </g>
     </g>
    </g>
    <g id="xtick_19">
     <g id="line2d_37">
      <path clip-path="url(#pd15c5e3881)" d="M 391.534602 287.507812 
L 391.534602 15.707813 
" style="fill:none;stroke:#cccccc;stroke-dasharray:3.7,1.6;stroke-dashoffset:0;"/>
     </g>
     <g id="line2d_38">
      <g>
       <use style="fill:#262626;stroke:#262626;stroke-width:1.25;" x="391.534602" xlink:href="#ma7581f97a3" y="287.507812"/>
      </g>
     </g>
     <g id="text_19">
      <!-- Asparagine -->
      <g style="fill:#262626;" transform="translate(395.70343 380.477187)rotate(-90)scale(0.165 -0.165)">
       <use xlink:href="#ArialMT-65"/>
       <use x="66.699219" xlink:href="#ArialMT-115"/>
       <use x="116.699219" xlink:href="#ArialMT-112"/>
       <use x="172.314453" xlink:href="#ArialMT-97"/>
       <use x="227.929688" xlink:href="#ArialMT-114"/>
       <use x="261.230469" xlink:href="#ArialMT-97"/>
       <use x="316.845703" xlink:href="#ArialMT-103"/>
       <use x="372.460938" xlink:href="#ArialMT-105"/>
       <use x="394.677734" xlink:href="#ArialMT-110"/>
       <use x="450.292969" xlink:href="#ArialMT-101"/>
      </g>
     </g>
    </g>
    <g id="xtick_20">
     <g id="line2d_39">
      <path clip-path="url(#pd15c5e3881)" d="M 408.443693 287.507812 
L 408.443693 15.707813 
" style="fill:none;stroke:#cccccc;stroke-dasharray:3.7,1.6;stroke-dashoffset:0;"/>
     </g>
     <g id="line2d_40">
      <g>
       <use style="fill:#262626;stroke:#262626;stroke-width:1.25;" x="408.443693" xlink:href="#ma7581f97a3" y="287.507812"/>
      </g>
     </g>
     <g id="text_20">
      <!-- Histidine -->
      <defs>
       <path d="M 8.015625 0 
L 8.015625 71.578125 
L 17.484375 71.578125 
L 17.484375 42.1875 
L 54.6875 42.1875 
L 54.6875 71.578125 
L 64.15625 71.578125 
L 64.15625 0 
L 54.6875 0 
L 54.6875 33.734375 
L 17.484375 33.734375 
L 17.484375 0 
z
" id="ArialMT-72"/>
       <path d="M 40.234375 0 
L 40.234375 6.546875 
Q 35.296875 -1.171875 25.734375 -1.171875 
Q 19.53125 -1.171875 14.328125 2.25 
Q 9.125 5.671875 6.265625 11.796875 
Q 3.421875 17.921875 3.421875 25.875 
Q 3.421875 33.640625 6 39.96875 
Q 8.59375 46.296875 13.765625 49.65625 
Q 18.953125 53.03125 25.34375 53.03125 
Q 30.03125 53.03125 33.6875 51.046875 
Q 37.359375 49.078125 39.65625 45.90625 
L 39.65625 71.578125 
L 48.390625 71.578125 
L 48.390625 0 
z
M 12.453125 25.875 
Q 12.453125 15.921875 16.640625 10.984375 
Q 20.84375 6.0625 26.5625 6.0625 
Q 32.328125 6.0625 36.34375 10.765625 
Q 40.375 15.484375 40.375 25.140625 
Q 40.375 35.796875 36.265625 40.765625 
Q 32.171875 45.75 26.171875 45.75 
Q 20.3125 45.75 16.375 40.96875 
Q 12.453125 36.1875 12.453125 25.875 
z
" id="ArialMT-100"/>
      </defs>
      <g style="fill:#262626;" transform="translate(412.709201 360.282734)rotate(-90)scale(0.165 -0.165)">
       <use xlink:href="#ArialMT-72"/>
       <use x="72.216797" xlink:href="#ArialMT-105"/>
       <use x="94.433594" xlink:href="#ArialMT-115"/>
       <use x="144.433594" xlink:href="#ArialMT-116"/>
       <use x="172.216797" xlink:href="#ArialMT-105"/>
       <use x="194.433594" xlink:href="#ArialMT-100"/>
       <use x="250.048828" xlink:href="#ArialMT-105"/>
       <use x="272.265625" xlink:href="#ArialMT-110"/>
       <use x="327.880859" xlink:href="#ArialMT-101"/>
      </g>
     </g>
    </g>
    <g id="xtick_21">
     <g id="line2d_41">
      <path clip-path="url(#pd15c5e3881)" d="M 425.352784 287.507812 
L 425.352784 15.707813 
" style="fill:none;stroke:#cccccc;stroke-dasharray:3.7,1.6;stroke-dashoffset:0;"/>
     </g>
     <g id="line2d_42">
      <g>
       <use style="fill:#262626;stroke:#262626;stroke-width:1.25;" x="425.352784" xlink:href="#ma7581f97a3" y="287.507812"/>
      </g>
     </g>
     <g id="text_21">
      <!-- Methionine -->
      <defs>
       <path d="M 7.421875 0 
L 7.421875 71.578125 
L 21.6875 71.578125 
L 38.625 20.90625 
Q 40.96875 13.8125 42.046875 10.296875 
Q 43.265625 14.203125 45.84375 21.78125 
L 62.984375 71.578125 
L 75.734375 71.578125 
L 75.734375 0 
L 66.609375 0 
L 66.609375 59.90625 
L 45.796875 0 
L 37.25 0 
L 16.546875 60.9375 
L 16.546875 0 
z
" id="ArialMT-77"/>
      </defs>
      <g style="fill:#262626;" transform="translate(429.618292 377.721172)rotate(-90)scale(0.165 -0.165)">
       <use xlink:href="#ArialMT-77"/>
       <use x="83.300781" xlink:href="#ArialMT-101"/>
       <use x="138.916016" xlink:href="#ArialMT-116"/>
       <use x="166.699219" xlink:href="#ArialMT-104"/>
       <use x="222.314453" xlink:href="#ArialMT-105"/>
       <use x="244.53125" xlink:href="#ArialMT-111"/>
       <use x="300.146484" xlink:href="#ArialMT-110"/>
       <use x="355.761719" xlink:href="#ArialMT-105"/>
       <use x="377.978516" xlink:href="#ArialMT-110"/>
       <use x="433.59375" xlink:href="#ArialMT-101"/>
      </g>
     </g>
    </g>
    <g id="xtick_22">
     <g id="line2d_43">
      <path clip-path="url(#pd15c5e3881)" d="M 442.261875 287.507812 
L 442.261875 15.707813 
" style="fill:none;stroke:#cccccc;stroke-dasharray:3.7,1.6;stroke-dashoffset:0;"/>
     </g>
     <g id="line2d_44">
      <g>
       <use style="fill:#262626;stroke:#262626;stroke-width:1.25;" x="442.261875" xlink:href="#ma7581f97a3" y="287.507812"/>
      </g>
     </g>
     <g id="text_22">
      <!-- Glycogen -->
      <g style="fill:#262626;" transform="translate(446.53125 366.71)rotate(-90)scale(0.165 -0.165)">
       <use xlink:href="#ArialMT-71"/>
       <use x="77.783203" xlink:href="#ArialMT-108"/>
       <use x="100" xlink:href="#ArialMT-121"/>
       <use x="150" xlink:href="#ArialMT-99"/>
       <use x="200" xlink:href="#ArialMT-111"/>
       <use x="255.615234" xlink:href="#ArialMT-103"/>
       <use x="311.230469" xlink:href="#ArialMT-101"/>
       <use x="366.845703" xlink:href="#ArialMT-110"/>
      </g>
     </g>
    </g>
    <g id="xtick_23">
     <g id="line2d_45">
      <path clip-path="url(#pd15c5e3881)" d="M 459.170966 287.507812 
L 459.170966 15.707813 
" style="fill:none;stroke:#cccccc;stroke-dasharray:3.7,1.6;stroke-dashoffset:0;"/>
     </g>
     <g id="line2d_46">
      <g>
       <use style="fill:#262626;stroke:#262626;stroke-width:1.25;" x="459.170966" xlink:href="#ma7581f97a3" y="287.507812"/>
      </g>
     </g>
     <g id="text_23">
      <!-- Tryptophan -->
      <g style="fill:#262626;" transform="translate(463.339794 380.459141)rotate(-90)scale(0.165 -0.165)">
       <use xlink:href="#ArialMT-84"/>
       <use x="61.037109" xlink:href="#ArialMT-114"/>
       <use x="94.337891" xlink:href="#ArialMT-121"/>
       <use x="144.337891" xlink:href="#ArialMT-112"/>
       <use x="199.953125" xlink:href="#ArialMT-116"/>
       <use x="227.736328" xlink:href="#ArialMT-111"/>
       <use x="283.351562" xlink:href="#ArialMT-112"/>
       <use x="338.966797" xlink:href="#ArialMT-104"/>
       <use x="394.582031" xlink:href="#ArialMT-97"/>
       <use x="450.197266" xlink:href="#ArialMT-110"/>
      </g>
     </g>
    </g>
    <g id="xtick_24">
     <g id="line2d_47">
      <path clip-path="url(#pd15c5e3881)" d="M 476.080057 287.507812 
L 476.080057 15.707813 
" style="fill:none;stroke:#cccccc;stroke-dasharray:3.7,1.6;stroke-dashoffset:0;"/>
     </g>
     <g id="line2d_48">
      <g>
       <use style="fill:#262626;stroke:#262626;stroke-width:1.25;" x="476.080057" xlink:href="#ma7581f97a3" y="287.507812"/>
      </g>
     </g>
     <g id="text_24">
      <!-- Cysteine -->
      <g style="fill:#262626;" transform="translate(480.349432 361.200547)rotate(-90)scale(0.165 -0.165)">
       <use xlink:href="#ArialMT-67"/>
       <use x="72.216797" xlink:href="#ArialMT-121"/>
       <use x="122.216797" xlink:href="#ArialMT-115"/>
       <use x="172.216797" xlink:href="#ArialMT-116"/>
       <use x="200" xlink:href="#ArialMT-101"/>
       <use x="255.615234" xlink:href="#ArialMT-105"/>
       <use x="277.832031" xlink:href="#ArialMT-110"/>
       <use x="333.447266" xlink:href="#ArialMT-101"/>
      </g>
     </g>
    </g>
    <g id="xtick_25">
     <g id="line2d_49">
      <path clip-path="url(#pd15c5e3881)" d="M 492.989148 287.507812 
L 492.989148 15.707813 
" style="fill:none;stroke:#cccccc;stroke-dasharray:3.7,1.6;stroke-dashoffset:0;"/>
     </g>
     <g id="line2d_50">
      <g>
       <use style="fill:#262626;stroke:#262626;stroke-width:1.25;" x="492.989148" xlink:href="#ma7581f97a3" y="287.507812"/>
      </g>
     </g>
     <g id="text_25">
      <!-- CTP -->
      <g style="fill:#262626;" transform="translate(497.254656 330.007812)rotate(-90)scale(0.165 -0.165)">
       <use xlink:href="#ArialMT-67"/>
       <use x="72.216797" xlink:href="#ArialMT-84"/>
       <use x="133.300781" xlink:href="#ArialMT-80"/>
      </g>
     </g>
    </g>
    <g id="xtick_26">
     <g id="line2d_51">
      <path clip-path="url(#pd15c5e3881)" d="M 509.898239 287.507812 
L 509.898239 15.707813 
" style="fill:none;stroke:#cccccc;stroke-dasharray:3.7,1.6;stroke-dashoffset:0;"/>
     </g>
     <g id="line2d_52">
      <g>
       <use style="fill:#262626;stroke:#262626;stroke-width:1.25;" x="509.898239" xlink:href="#ma7581f97a3" y="287.507812"/>
      </g>
     </g>
     <g id="text_26">
      <!-- ATP -->
      <g style="fill:#262626;" transform="translate(514.163746 329.079687)rotate(-90)scale(0.165 -0.165)">
       <use xlink:href="#ArialMT-65"/>
       <use x="66.589844" xlink:href="#ArialMT-84"/>
       <use x="127.673828" xlink:href="#ArialMT-80"/>
      </g>
     </g>
    </g>
    <g id="xtick_27">
     <g id="line2d_53">
      <path clip-path="url(#pd15c5e3881)" d="M 526.80733 287.507812 
L 526.80733 15.707813 
" style="fill:none;stroke:#cccccc;stroke-dasharray:3.7,1.6;stroke-dashoffset:0;"/>
     </g>
     <g id="line2d_54">
      <g>
       <use style="fill:#262626;stroke:#262626;stroke-width:1.25;" x="526.80733" xlink:href="#ma7581f97a3" y="287.507812"/>
      </g>
     </g>
     <g id="text_27">
      <!-- UTP -->
      <defs>
       <path d="M 54.6875 71.578125 
L 64.15625 71.578125 
L 64.15625 30.21875 
Q 64.15625 19.4375 61.71875 13.078125 
Q 59.28125 6.734375 52.90625 2.75 
Q 46.53125 -1.21875 36.1875 -1.21875 
Q 26.125 -1.21875 19.71875 2.25 
Q 13.328125 5.71875 10.59375 12.28125 
Q 7.859375 18.84375 7.859375 30.21875 
L 7.859375 71.578125 
L 17.328125 71.578125 
L 17.328125 30.28125 
Q 17.328125 20.953125 19.0625 16.53125 
Q 20.796875 12.109375 25.015625 9.71875 
Q 29.25 7.328125 35.359375 7.328125 
Q 45.796875 7.328125 50.234375 12.0625 
Q 54.6875 16.796875 54.6875 30.28125 
z
" id="ArialMT-85"/>
      </defs>
      <g style="fill:#262626;" transform="translate(531.072837 330.007812)rotate(-90)scale(0.165 -0.165)">
       <use xlink:href="#ArialMT-85"/>
       <use x="72.216797" xlink:href="#ArialMT-84"/>
       <use x="133.300781" xlink:href="#ArialMT-80"/>
      </g>
     </g>
    </g>
    <g id="xtick_28">
     <g id="line2d_55">
      <path clip-path="url(#pd15c5e3881)" d="M 543.71642 287.507812 
L 543.71642 15.707813 
" style="fill:none;stroke:#cccccc;stroke-dasharray:3.7,1.6;stroke-dashoffset:0;"/>
     </g>
     <g id="line2d_56">
      <g>
       <use style="fill:#262626;stroke:#262626;stroke-width:1.25;" x="543.71642" xlink:href="#ma7581f97a3" y="287.507812"/>
      </g>
     </g>
     <g id="text_28">
      <!-- GTP -->
      <g style="fill:#262626;" transform="translate(547.981928 330.925625)rotate(-90)scale(0.165 -0.165)">
       <use xlink:href="#ArialMT-71"/>
       <use x="77.783203" xlink:href="#ArialMT-84"/>
       <use x="138.867188" xlink:href="#ArialMT-80"/>
      </g>
     </g>
    </g>
    <g id="xtick_29">
     <g id="line2d_57">
      <path clip-path="url(#pd15c5e3881)" d="M 560.625511 287.507812 
L 560.625511 15.707813 
" style="fill:none;stroke:#cccccc;stroke-dasharray:3.7,1.6;stroke-dashoffset:0;"/>
     </g>
     <g id="line2d_58">
      <g>
       <use style="fill:#262626;stroke:#262626;stroke-width:1.25;" x="560.625511" xlink:href="#ma7581f97a3" y="287.507812"/>
      </g>
     </g>
     <g id="text_29">
      <!-- dATP -->
      <g style="fill:#262626;" transform="translate(564.891019 338.255234)rotate(-90)scale(0.165 -0.165)">
       <use xlink:href="#ArialMT-100"/>
       <use x="55.615234" xlink:href="#ArialMT-65"/>
       <use x="122.205078" xlink:href="#ArialMT-84"/>
       <use x="183.289062" xlink:href="#ArialMT-80"/>
      </g>
     </g>
    </g>
    <g id="xtick_30">
     <g id="line2d_59">
      <path clip-path="url(#pd15c5e3881)" d="M 577.534602 287.507812 
L 577.534602 15.707813 
" style="fill:none;stroke:#cccccc;stroke-dasharray:3.7,1.6;stroke-dashoffset:0;"/>
     </g>
     <g id="line2d_60">
      <g>
       <use style="fill:#262626;stroke:#262626;stroke-width:1.25;" x="577.534602" xlink:href="#ma7581f97a3" y="287.507812"/>
      </g>
     </g>
     <g id="text_30">
      <!-- dTTP -->
      <g style="fill:#262626;" transform="translate(581.80011 337.345156)rotate(-90)scale(0.165 -0.165)">
       <use xlink:href="#ArialMT-100"/>
       <use x="55.615234" xlink:href="#ArialMT-84"/>
       <use x="116.699219" xlink:href="#ArialMT-84"/>
       <use x="177.783203" xlink:href="#ArialMT-80"/>
      </g>
     </g>
    </g>
    <g id="xtick_31">
     <g id="line2d_61">
      <path clip-path="url(#pd15c5e3881)" d="M 594.443693 287.507812 
L 594.443693 15.707813 
" style="fill:none;stroke:#cccccc;stroke-dasharray:3.7,1.6;stroke-dashoffset:0;"/>
     </g>
     <g id="line2d_62">
      <g>
       <use style="fill:#262626;stroke:#262626;stroke-width:1.25;" x="594.443693" xlink:href="#ma7581f97a3" y="287.507812"/>
      </g>
     </g>
     <g id="text_31">
      <!-- dCTP -->
      <g style="fill:#262626;" transform="translate(598.709201 339.183359)rotate(-90)scale(0.165 -0.165)">
       <use xlink:href="#ArialMT-100"/>
       <use x="55.615234" xlink:href="#ArialMT-67"/>
       <use x="127.832031" xlink:href="#ArialMT-84"/>
       <use x="188.916016" xlink:href="#ArialMT-80"/>
      </g>
     </g>
    </g>
    <g id="xtick_32">
     <g id="line2d_63">
      <path clip-path="url(#pd15c5e3881)" d="M 611.352784 287.507812 
L 611.352784 15.707813 
" style="fill:none;stroke:#cccccc;stroke-dasharray:3.7,1.6;stroke-dashoffset:0;"/>
     </g>
     <g id="line2d_64">
      <g>
       <use style="fill:#262626;stroke:#262626;stroke-width:1.25;" x="611.352784" xlink:href="#ma7581f97a3" y="287.507812"/>
      </g>
     </g>
     <g id="text_32">
      <!-- dGTP -->
      <g style="fill:#262626;" transform="translate(615.618292 340.101172)rotate(-90)scale(0.165 -0.165)">
       <use xlink:href="#ArialMT-100"/>
       <use x="55.615234" xlink:href="#ArialMT-71"/>
       <use x="133.398438" xlink:href="#ArialMT-84"/>
       <use x="194.482422" xlink:href="#ArialMT-80"/>
      </g>
     </g>
    </g>
   </g>
   <g id="matplotlib.axis_2">
    <g id="ytick_1">
     <g id="line2d_65">
      <path clip-path="url(#pd15c5e3881)" d="M 70.261875 287.507812 
L 628.261875 287.507812 
" style="fill:none;stroke:#cccccc;stroke-dasharray:3.7,1.6;stroke-dashoffset:0;"/>
     </g>
     <g id="line2d_66">
      <defs>
       <path d="M 0 0 
L -6 0 
" id="m1f2382e5d8" style="stroke:#262626;stroke-width:1.25;"/>
      </defs>
      <g>
       <use style="fill:#262626;stroke:#262626;stroke-width:1.25;" x="70.261875" xlink:href="#m1f2382e5d8" y="287.507812"/>
      </g>
     </g>
     <g id="text_33">
      <!-- $\mathdefault{10^{-4}}$ -->
      <defs>
       <path d="M 37.25 0 
L 28.46875 0 
L 28.46875 56 
Q 25.296875 52.984375 20.140625 49.953125 
Q 14.984375 46.921875 10.890625 45.40625 
L 10.890625 53.90625 
Q 18.265625 57.375 23.78125 62.296875 
Q 29.296875 67.234375 31.59375 71.875 
L 37.25 71.875 
z
" id="ArialMT-49"/>
       <path d="M 4.15625 35.296875 
Q 4.15625 48 6.765625 55.734375 
Q 9.375 63.484375 14.515625 67.671875 
Q 19.671875 71.875 27.484375 71.875 
Q 33.25 71.875 37.59375 69.546875 
Q 41.9375 67.234375 44.765625 62.859375 
Q 47.609375 58.5 49.21875 52.21875 
Q 50.828125 45.953125 50.828125 35.296875 
Q 50.828125 22.703125 48.234375 14.96875 
Q 45.65625 7.234375 40.5 3 
Q 35.359375 -1.21875 27.484375 -1.21875 
Q 17.140625 -1.21875 11.234375 6.203125 
Q 4.15625 15.140625 4.15625 35.296875 
z
M 13.1875 35.296875 
Q 13.1875 17.671875 17.3125 11.828125 
Q 21.4375 6 27.484375 6 
Q 33.546875 6 37.671875 11.859375 
Q 41.796875 17.71875 41.796875 35.296875 
Q 41.796875 52.984375 37.671875 58.78125 
Q 33.546875 64.59375 27.390625 64.59375 
Q 21.34375 64.59375 17.71875 59.46875 
Q 13.1875 52.9375 13.1875 35.296875 
z
" id="ArialMT-48"/>
       <path d="M 52.828125 31.203125 
L 5.5625 31.203125 
L 5.5625 39.40625 
L 52.828125 39.40625 
z
" id="ArialMT-8722"/>
       <path d="M 32.328125 0 
L 32.328125 17.140625 
L 1.265625 17.140625 
L 1.265625 25.203125 
L 33.9375 71.578125 
L 41.109375 71.578125 
L 41.109375 25.203125 
L 50.78125 25.203125 
L 50.78125 17.140625 
L 41.109375 17.140625 
L 41.109375 0 
z
M 32.328125 25.203125 
L 32.328125 57.46875 
L 9.90625 25.203125 
z
" id="ArialMT-52"/>
      </defs>
      <g style="fill:#262626;" transform="translate(28.091875 295.933125)scale(0.165 -0.165)">
       <use transform="translate(0 0.201563)" xlink:href="#ArialMT-49"/>
       <use transform="translate(55.615234 0.201563)" xlink:href="#ArialMT-48"/>
       <use transform="translate(112.972813 69.895313)scale(0.7)" xlink:href="#ArialMT-8722"/>
       <use transform="translate(153.851719 69.895313)scale(0.7)" xlink:href="#ArialMT-52"/>
      </g>
     </g>
    </g>
    <g id="ytick_2">
     <g id="line2d_67">
      <path clip-path="url(#pd15c5e3881)" d="M 70.261875 242.207812 
L 628.261875 242.207812 
" style="fill:none;stroke:#cccccc;stroke-dasharray:3.7,1.6;stroke-dashoffset:0;"/>
     </g>
     <g id="line2d_68">
      <g>
       <use style="fill:#262626;stroke:#262626;stroke-width:1.25;" x="70.261875" xlink:href="#m1f2382e5d8" y="242.207812"/>
      </g>
     </g>
     <g id="text_34">
      <!-- $\mathdefault{10^{-3}}$ -->
      <defs>
       <path d="M 4.203125 18.890625 
L 12.984375 20.0625 
Q 14.5 12.59375 18.140625 9.296875 
Q 21.78125 6 27 6 
Q 33.203125 6 37.46875 10.296875 
Q 41.75 14.59375 41.75 20.953125 
Q 41.75 27 37.796875 30.921875 
Q 33.84375 34.859375 27.734375 34.859375 
Q 25.25 34.859375 21.53125 33.890625 
L 22.515625 41.609375 
Q 23.390625 41.5 23.921875 41.5 
Q 29.546875 41.5 34.03125 44.421875 
Q 38.53125 47.359375 38.53125 53.46875 
Q 38.53125 58.296875 35.25 61.46875 
Q 31.984375 64.65625 26.8125 64.65625 
Q 21.6875 64.65625 18.265625 61.421875 
Q 14.84375 58.203125 13.875 51.765625 
L 5.078125 53.328125 
Q 6.6875 62.15625 12.390625 67.015625 
Q 18.109375 71.875 26.609375 71.875 
Q 32.46875 71.875 37.390625 69.359375 
Q 42.328125 66.84375 44.9375 62.5 
Q 47.5625 58.15625 47.5625 53.265625 
Q 47.5625 48.640625 45.0625 44.828125 
Q 42.578125 41.015625 37.703125 38.765625 
Q 44.046875 37.3125 47.5625 32.6875 
Q 51.078125 28.078125 51.078125 21.140625 
Q 51.078125 11.765625 44.234375 5.25 
Q 37.40625 -1.265625 26.953125 -1.265625 
Q 17.53125 -1.265625 11.296875 4.34375 
Q 5.078125 9.96875 4.203125 18.890625 
z
" id="ArialMT-51"/>
      </defs>
      <g style="fill:#262626;" transform="translate(28.091875 250.715625)scale(0.165 -0.165)">
       <use transform="translate(0 0.99375)" xlink:href="#ArialMT-49"/>
       <use transform="translate(55.615234 0.99375)" xlink:href="#ArialMT-48"/>
       <use transform="translate(112.972813 70.6875)scale(0.7)" xlink:href="#ArialMT-8722"/>
       <use transform="translate(153.851719 70.6875)scale(0.7)" xlink:href="#ArialMT-51"/>
      </g>
     </g>
    </g>
    <g id="ytick_3">
     <g id="line2d_69">
      <path clip-path="url(#pd15c5e3881)" d="M 70.261875 196.907812 
L 628.261875 196.907812 
" style="fill:none;stroke:#cccccc;stroke-dasharray:3.7,1.6;stroke-dashoffset:0;"/>
     </g>
     <g id="line2d_70">
      <g>
       <use style="fill:#262626;stroke:#262626;stroke-width:1.25;" x="70.261875" xlink:href="#m1f2382e5d8" y="196.907812"/>
      </g>
     </g>
     <g id="text_35">
      <!-- $\mathdefault{10^{-2}}$ -->
      <defs>
       <path d="M 50.34375 8.453125 
L 50.34375 0 
L 3.03125 0 
Q 2.9375 3.171875 4.046875 6.109375 
Q 5.859375 10.9375 9.828125 15.625 
Q 13.8125 20.3125 21.34375 26.46875 
Q 33.015625 36.03125 37.109375 41.625 
Q 41.21875 47.21875 41.21875 52.203125 
Q 41.21875 57.421875 37.46875 61 
Q 33.734375 64.59375 27.734375 64.59375 
Q 21.390625 64.59375 17.578125 60.78125 
Q 13.765625 56.984375 13.71875 50.25 
L 4.6875 51.171875 
Q 5.609375 61.28125 11.65625 66.578125 
Q 17.71875 71.875 27.9375 71.875 
Q 38.234375 71.875 44.234375 66.15625 
Q 50.25 60.453125 50.25 52 
Q 50.25 47.703125 48.484375 43.546875 
Q 46.734375 39.40625 42.65625 34.8125 
Q 38.578125 30.21875 29.109375 22.21875 
Q 21.1875 15.578125 18.9375 13.203125 
Q 16.703125 10.84375 15.234375 8.453125 
z
" id="ArialMT-50"/>
      </defs>
      <g style="fill:#262626;" transform="translate(28.091875 205.415625)scale(0.165 -0.165)">
       <use transform="translate(0 0.99375)" xlink:href="#ArialMT-49"/>
       <use transform="translate(55.615234 0.99375)" xlink:href="#ArialMT-48"/>
       <use transform="translate(112.972813 70.6875)scale(0.7)" xlink:href="#ArialMT-8722"/>
       <use transform="translate(153.851719 70.6875)scale(0.7)" xlink:href="#ArialMT-50"/>
      </g>
     </g>
    </g>
    <g id="ytick_4">
     <g id="line2d_71">
      <path clip-path="url(#pd15c5e3881)" d="M 70.261875 151.607812 
L 628.261875 151.607812 
" style="fill:none;stroke:#cccccc;stroke-dasharray:3.7,1.6;stroke-dashoffset:0;"/>
     </g>
     <g id="line2d_72">
      <g>
       <use style="fill:#262626;stroke:#262626;stroke-width:1.25;" x="70.261875" xlink:href="#m1f2382e5d8" y="151.607812"/>
      </g>
     </g>
     <g id="text_36">
      <!-- $\mathdefault{10^{-1}}$ -->
      <g style="fill:#262626;" transform="translate(28.091875 160.115625)scale(0.165 -0.165)">
       <use transform="translate(0 0.99375)" xlink:href="#ArialMT-49"/>
       <use transform="translate(55.615234 0.99375)" xlink:href="#ArialMT-48"/>
       <use transform="translate(112.972813 70.6875)scale(0.7)" xlink:href="#ArialMT-8722"/>
       <use transform="translate(153.851719 70.6875)scale(0.7)" xlink:href="#ArialMT-49"/>
      </g>
     </g>
    </g>
    <g id="ytick_5">
     <g id="line2d_73">
      <path clip-path="url(#pd15c5e3881)" d="M 70.261875 106.307813 
L 628.261875 106.307813 
" style="fill:none;stroke:#cccccc;stroke-dasharray:3.7,1.6;stroke-dashoffset:0;"/>
     </g>
     <g id="line2d_74">
      <g>
       <use style="fill:#262626;stroke:#262626;stroke-width:1.25;" x="70.261875" xlink:href="#m1f2382e5d8" y="106.307813"/>
      </g>
     </g>
     <g id="text_37">
      <!-- $\mathdefault{10^{0}}$ -->
      <g style="fill:#262626;" transform="translate(34.856875 114.815625)scale(0.165 -0.165)">
       <use transform="translate(0 0.99375)" xlink:href="#ArialMT-49"/>
       <use transform="translate(55.615234 0.99375)" xlink:href="#ArialMT-48"/>
       <use transform="translate(112.972813 70.6875)scale(0.7)" xlink:href="#ArialMT-48"/>
      </g>
     </g>
    </g>
    <g id="ytick_6">
     <g id="line2d_75">
      <path clip-path="url(#pd15c5e3881)" d="M 70.261875 61.007813 
L 628.261875 61.007813 
" style="fill:none;stroke:#cccccc;stroke-dasharray:3.7,1.6;stroke-dashoffset:0;"/>
     </g>
     <g id="line2d_76">
      <g>
       <use style="fill:#262626;stroke:#262626;stroke-width:1.25;" x="70.261875" xlink:href="#m1f2382e5d8" y="61.007813"/>
      </g>
     </g>
     <g id="text_38">
      <!-- $\mathdefault{10^{1}}$ -->
      <g style="fill:#262626;" transform="translate(34.856875 69.515625)scale(0.165 -0.165)">
       <use transform="translate(0 0.99375)" xlink:href="#ArialMT-49"/>
       <use transform="translate(55.615234 0.99375)" xlink:href="#ArialMT-48"/>
       <use transform="translate(112.972813 70.6875)scale(0.7)" xlink:href="#ArialMT-49"/>
      </g>
     </g>
    </g>
    <g id="ytick_7">
     <g id="line2d_77">
      <path clip-path="url(#pd15c5e3881)" d="M 70.261875 15.707813 
L 628.261875 15.707813 
" style="fill:none;stroke:#cccccc;stroke-dasharray:3.7,1.6;stroke-dashoffset:0;"/>
     </g>
     <g id="line2d_78">
      <g>
       <use style="fill:#262626;stroke:#262626;stroke-width:1.25;" x="70.261875" xlink:href="#m1f2382e5d8" y="15.707813"/>
      </g>
     </g>
     <g id="text_39">
      <!-- $\mathdefault{10^{2}}$ -->
      <g style="fill:#262626;" transform="translate(34.856875 24.215625)scale(0.165 -0.165)">
       <use transform="translate(0 0.99375)" xlink:href="#ArialMT-49"/>
       <use transform="translate(55.615234 0.99375)" xlink:href="#ArialMT-48"/>
       <use transform="translate(112.972813 70.6875)scale(0.7)" xlink:href="#ArialMT-50"/>
      </g>
     </g>
    </g>
    <g id="ytick_8">
     <g id="line2d_79">
      <defs>
       <path d="M 0 0 
L -4 0 
" id="m7bc49e16db" style="stroke:#262626;"/>
      </defs>
      <g>
       <use style="fill:#262626;stroke:#262626;" x="70.261875" xlink:href="#m7bc49e16db" y="273.871154"/>
      </g>
     </g>
    </g>
    <g id="ytick_9">
     <g id="line2d_80">
      <g>
       <use style="fill:#262626;stroke:#262626;" x="70.261875" xlink:href="#m7bc49e16db" y="265.89422"/>
      </g>
     </g>
    </g>
    <g id="ytick_10">
     <g id="line2d_81">
      <g>
       <use style="fill:#262626;stroke:#262626;" x="70.261875" xlink:href="#m7bc49e16db" y="260.234495"/>
      </g>
     </g>
    </g>
    <g id="ytick_11">
     <g id="line2d_82">
      <g>
       <use style="fill:#262626;stroke:#262626;" x="70.261875" xlink:href="#m7bc49e16db" y="255.844471"/>
      </g>
     </g>
    </g>
    <g id="ytick_12">
     <g id="line2d_83">
      <g>
       <use style="fill:#262626;stroke:#262626;" x="70.261875" xlink:href="#m7bc49e16db" y="252.257561"/>
      </g>
     </g>
    </g>
    <g id="ytick_13">
     <g id="line2d_84">
      <g>
       <use style="fill:#262626;stroke:#262626;" x="70.261875" xlink:href="#m7bc49e16db" y="249.224871"/>
      </g>
     </g>
    </g>
    <g id="ytick_14">
     <g id="line2d_85">
      <g>
       <use style="fill:#262626;stroke:#262626;" x="70.261875" xlink:href="#m7bc49e16db" y="246.597836"/>
      </g>
     </g>
    </g>
    <g id="ytick_15">
     <g id="line2d_86">
      <g>
       <use style="fill:#262626;stroke:#262626;" x="70.261875" xlink:href="#m7bc49e16db" y="244.280627"/>
      </g>
     </g>
    </g>
    <g id="ytick_16">
     <g id="line2d_87">
      <g>
       <use style="fill:#262626;stroke:#262626;" x="70.261875" xlink:href="#m7bc49e16db" y="228.571154"/>
      </g>
     </g>
    </g>
    <g id="ytick_17">
     <g id="line2d_88">
      <g>
       <use style="fill:#262626;stroke:#262626;" x="70.261875" xlink:href="#m7bc49e16db" y="220.59422"/>
      </g>
     </g>
    </g>
    <g id="ytick_18">
     <g id="line2d_89">
      <g>
       <use style="fill:#262626;stroke:#262626;" x="70.261875" xlink:href="#m7bc49e16db" y="214.934495"/>
      </g>
     </g>
    </g>
    <g id="ytick_19">
     <g id="line2d_90">
      <g>
       <use style="fill:#262626;stroke:#262626;" x="70.261875" xlink:href="#m7bc49e16db" y="210.544471"/>
      </g>
     </g>
    </g>
    <g id="ytick_20">
     <g id="line2d_91">
      <g>
       <use style="fill:#262626;stroke:#262626;" x="70.261875" xlink:href="#m7bc49e16db" y="206.957561"/>
      </g>
     </g>
    </g>
    <g id="ytick_21">
     <g id="line2d_92">
      <g>
       <use style="fill:#262626;stroke:#262626;" x="70.261875" xlink:href="#m7bc49e16db" y="203.924871"/>
      </g>
     </g>
    </g>
    <g id="ytick_22">
     <g id="line2d_93">
      <g>
       <use style="fill:#262626;stroke:#262626;" x="70.261875" xlink:href="#m7bc49e16db" y="201.297836"/>
      </g>
     </g>
    </g>
    <g id="ytick_23">
     <g id="line2d_94">
      <g>
       <use style="fill:#262626;stroke:#262626;" x="70.261875" xlink:href="#m7bc49e16db" y="198.980627"/>
      </g>
     </g>
    </g>
    <g id="ytick_24">
     <g id="line2d_95">
      <g>
       <use style="fill:#262626;stroke:#262626;" x="70.261875" xlink:href="#m7bc49e16db" y="183.271154"/>
      </g>
     </g>
    </g>
    <g id="ytick_25">
     <g id="line2d_96">
      <g>
       <use style="fill:#262626;stroke:#262626;" x="70.261875" xlink:href="#m7bc49e16db" y="175.29422"/>
      </g>
     </g>
    </g>
    <g id="ytick_26">
     <g id="line2d_97">
      <g>
       <use style="fill:#262626;stroke:#262626;" x="70.261875" xlink:href="#m7bc49e16db" y="169.634495"/>
      </g>
     </g>
    </g>
    <g id="ytick_27">
     <g id="line2d_98">
      <g>
       <use style="fill:#262626;stroke:#262626;" x="70.261875" xlink:href="#m7bc49e16db" y="165.244471"/>
      </g>
     </g>
    </g>
    <g id="ytick_28">
     <g id="line2d_99">
      <g>
       <use style="fill:#262626;stroke:#262626;" x="70.261875" xlink:href="#m7bc49e16db" y="161.657561"/>
      </g>
     </g>
    </g>
    <g id="ytick_29">
     <g id="line2d_100">
      <g>
       <use style="fill:#262626;stroke:#262626;" x="70.261875" xlink:href="#m7bc49e16db" y="158.624871"/>
      </g>
     </g>
    </g>
    <g id="ytick_30">
     <g id="line2d_101">
      <g>
       <use style="fill:#262626;stroke:#262626;" x="70.261875" xlink:href="#m7bc49e16db" y="155.997836"/>
      </g>
     </g>
    </g>
    <g id="ytick_31">
     <g id="line2d_102">
      <g>
       <use style="fill:#262626;stroke:#262626;" x="70.261875" xlink:href="#m7bc49e16db" y="153.680627"/>
      </g>
     </g>
    </g>
    <g id="ytick_32">
     <g id="line2d_103">
      <g>
       <use style="fill:#262626;stroke:#262626;" x="70.261875" xlink:href="#m7bc49e16db" y="137.971154"/>
      </g>
     </g>
    </g>
    <g id="ytick_33">
     <g id="line2d_104">
      <g>
       <use style="fill:#262626;stroke:#262626;" x="70.261875" xlink:href="#m7bc49e16db" y="129.99422"/>
      </g>
     </g>
    </g>
    <g id="ytick_34">
     <g id="line2d_105">
      <g>
       <use style="fill:#262626;stroke:#262626;" x="70.261875" xlink:href="#m7bc49e16db" y="124.334495"/>
      </g>
     </g>
    </g>
    <g id="ytick_35">
     <g id="line2d_106">
      <g>
       <use style="fill:#262626;stroke:#262626;" x="70.261875" xlink:href="#m7bc49e16db" y="119.944471"/>
      </g>
     </g>
    </g>
    <g id="ytick_36">
     <g id="line2d_107">
      <g>
       <use style="fill:#262626;stroke:#262626;" x="70.261875" xlink:href="#m7bc49e16db" y="116.357561"/>
      </g>
     </g>
    </g>
    <g id="ytick_37">
     <g id="line2d_108">
      <g>
       <use style="fill:#262626;stroke:#262626;" x="70.261875" xlink:href="#m7bc49e16db" y="113.324871"/>
      </g>
     </g>
    </g>
    <g id="ytick_38">
     <g id="line2d_109">
      <g>
       <use style="fill:#262626;stroke:#262626;" x="70.261875" xlink:href="#m7bc49e16db" y="110.697836"/>
      </g>
     </g>
    </g>
    <g id="ytick_39">
     <g id="line2d_110">
      <g>
       <use style="fill:#262626;stroke:#262626;" x="70.261875" xlink:href="#m7bc49e16db" y="108.380627"/>
      </g>
     </g>
    </g>
    <g id="ytick_40">
     <g id="line2d_111">
      <g>
       <use style="fill:#262626;stroke:#262626;" x="70.261875" xlink:href="#m7bc49e16db" y="92.671154"/>
      </g>
     </g>
    </g>
    <g id="ytick_41">
     <g id="line2d_112">
      <g>
       <use style="fill:#262626;stroke:#262626;" x="70.261875" xlink:href="#m7bc49e16db" y="84.69422"/>
      </g>
     </g>
    </g>
    <g id="ytick_42">
     <g id="line2d_113">
      <g>
       <use style="fill:#262626;stroke:#262626;" x="70.261875" xlink:href="#m7bc49e16db" y="79.034495"/>
      </g>
     </g>
    </g>
    <g id="ytick_43">
     <g id="line2d_114">
      <g>
       <use style="fill:#262626;stroke:#262626;" x="70.261875" xlink:href="#m7bc49e16db" y="74.644471"/>
      </g>
     </g>
    </g>
    <g id="ytick_44">
     <g id="line2d_115">
      <g>
       <use style="fill:#262626;stroke:#262626;" x="70.261875" xlink:href="#m7bc49e16db" y="71.057561"/>
      </g>
     </g>
    </g>
    <g id="ytick_45">
     <g id="line2d_116">
      <g>
       <use style="fill:#262626;stroke:#262626;" x="70.261875" xlink:href="#m7bc49e16db" y="68.024871"/>
      </g>
     </g>
    </g>
    <g id="ytick_46">
     <g id="line2d_117">
      <g>
       <use style="fill:#262626;stroke:#262626;" x="70.261875" xlink:href="#m7bc49e16db" y="65.397836"/>
      </g>
     </g>
    </g>
    <g id="ytick_47">
     <g id="line2d_118">
      <g>
       <use style="fill:#262626;stroke:#262626;" x="70.261875" xlink:href="#m7bc49e16db" y="63.080627"/>
      </g>
     </g>
    </g>
    <g id="ytick_48">
     <g id="line2d_119">
      <g>
       <use style="fill:#262626;stroke:#262626;" x="70.261875" xlink:href="#m7bc49e16db" y="47.371154"/>
      </g>
     </g>
    </g>
    <g id="ytick_49">
     <g id="line2d_120">
      <g>
       <use style="fill:#262626;stroke:#262626;" x="70.261875" xlink:href="#m7bc49e16db" y="39.39422"/>
      </g>
     </g>
    </g>
    <g id="ytick_50">
     <g id="line2d_121">
      <g>
       <use style="fill:#262626;stroke:#262626;" x="70.261875" xlink:href="#m7bc49e16db" y="33.734495"/>
      </g>
     </g>
    </g>
    <g id="ytick_51">
     <g id="line2d_122">
      <g>
       <use style="fill:#262626;stroke:#262626;" x="70.261875" xlink:href="#m7bc49e16db" y="29.344471"/>
      </g>
     </g>
    </g>
    <g id="ytick_52">
     <g id="line2d_123">
      <g>
       <use style="fill:#262626;stroke:#262626;" x="70.261875" xlink:href="#m7bc49e16db" y="25.757561"/>
      </g>
     </g>
    </g>
    <g id="ytick_53">
     <g id="line2d_124">
      <g>
       <use style="fill:#262626;stroke:#262626;" x="70.261875" xlink:href="#m7bc49e16db" y="22.724871"/>
      </g>
     </g>
    </g>
    <g id="ytick_54">
     <g id="line2d_125">
      <g>
       <use style="fill:#262626;stroke:#262626;" x="70.261875" xlink:href="#m7bc49e16db" y="20.097836"/>
      </g>
     </g>
    </g>
    <g id="ytick_55">
     <g id="line2d_126">
      <g>
       <use style="fill:#262626;stroke:#262626;" x="70.261875" xlink:href="#m7bc49e16db" y="17.780627"/>
      </g>
     </g>
    </g>
    <g id="text_40">
     <!-- Biomass coefficient (mmol / gDW) -->
     <defs>
      <path d="M 7.328125 0 
L 7.328125 71.578125 
L 34.1875 71.578125 
Q 42.390625 71.578125 47.34375 69.40625 
Q 52.296875 67.234375 55.09375 62.71875 
Q 57.90625 58.203125 57.90625 53.265625 
Q 57.90625 48.6875 55.421875 44.625 
Q 52.9375 40.578125 47.90625 38.09375 
Q 54.390625 36.1875 57.875 31.59375 
Q 61.375 27 61.375 20.75 
Q 61.375 15.71875 59.25 11.390625 
Q 57.125 7.078125 54 4.734375 
Q 50.875 2.390625 46.15625 1.1875 
Q 41.453125 0 34.625 0 
z
M 16.796875 41.5 
L 32.28125 41.5 
Q 38.578125 41.5 41.3125 42.328125 
Q 44.921875 43.40625 46.75 45.890625 
Q 48.578125 48.390625 48.578125 52.15625 
Q 48.578125 55.71875 46.875 58.421875 
Q 45.171875 61.140625 41.984375 62.140625 
Q 38.8125 63.140625 31.109375 63.140625 
L 16.796875 63.140625 
z
M 16.796875 8.453125 
L 34.625 8.453125 
Q 39.203125 8.453125 41.0625 8.796875 
Q 44.34375 9.375 46.53125 10.734375 
Q 48.734375 12.109375 50.140625 14.71875 
Q 51.5625 17.328125 51.5625 20.75 
Q 51.5625 24.75 49.515625 27.703125 
Q 47.46875 30.671875 43.828125 31.859375 
Q 40.1875 33.0625 33.34375 33.0625 
L 16.796875 33.0625 
z
" id="ArialMT-66"/>
      <path id="ArialMT-32"/>
      <path d="M 8.6875 0 
L 8.6875 45.015625 
L 0.921875 45.015625 
L 0.921875 51.859375 
L 8.6875 51.859375 
L 8.6875 57.375 
Q 8.6875 62.59375 9.625 65.140625 
Q 10.890625 68.5625 14.078125 70.671875 
Q 17.28125 72.796875 23.046875 72.796875 
Q 26.765625 72.796875 31.25 71.921875 
L 29.9375 64.265625 
Q 27.203125 64.75 24.75 64.75 
Q 20.75 64.75 19.09375 63.03125 
Q 17.4375 61.328125 17.4375 56.640625 
L 17.4375 51.859375 
L 27.546875 51.859375 
L 27.546875 45.015625 
L 17.4375 45.015625 
L 17.4375 0 
z
" id="ArialMT-102"/>
      <path d="M 23.390625 -21.046875 
Q 16.109375 -11.859375 11.078125 0.4375 
Q 6.0625 12.75 6.0625 25.921875 
Q 6.0625 37.546875 9.8125 48.1875 
Q 14.203125 60.546875 23.390625 72.796875 
L 29.6875 72.796875 
Q 23.78125 62.640625 21.875 58.296875 
Q 18.890625 51.5625 17.1875 44.234375 
Q 15.09375 35.109375 15.09375 25.875 
Q 15.09375 2.390625 29.6875 -21.046875 
z
" id="ArialMT-40"/>
      <path d="M 0 -1.21875 
L 20.75 72.796875 
L 27.78125 72.796875 
L 7.078125 -1.21875 
z
" id="ArialMT-47"/>
      <path d="M 7.71875 0 
L 7.71875 71.578125 
L 32.375 71.578125 
Q 40.71875 71.578125 45.125 70.5625 
Q 51.265625 69.140625 55.609375 65.4375 
Q 61.28125 60.640625 64.078125 53.1875 
Q 66.890625 45.75 66.890625 36.1875 
Q 66.890625 28.03125 64.984375 21.734375 
Q 63.09375 15.4375 60.109375 11.296875 
Q 57.125 7.171875 53.578125 4.796875 
Q 50.046875 2.4375 45.046875 1.21875 
Q 40.046875 0 33.546875 0 
z
M 17.1875 8.453125 
L 32.46875 8.453125 
Q 39.546875 8.453125 43.578125 9.765625 
Q 47.609375 11.078125 50 13.484375 
Q 53.375 16.84375 55.25 22.53125 
Q 57.125 28.21875 57.125 36.328125 
Q 57.125 47.5625 53.4375 53.59375 
Q 49.75 59.625 44.484375 61.671875 
Q 40.671875 63.140625 32.234375 63.140625 
L 17.1875 63.140625 
z
" id="ArialMT-68"/>
      <path d="M 12.359375 -21.046875 
L 6.0625 -21.046875 
Q 20.65625 2.390625 20.65625 25.875 
Q 20.65625 35.0625 18.5625 44.09375 
Q 16.890625 51.421875 13.921875 58.15625 
Q 12.015625 62.546875 6.0625 72.796875 
L 12.359375 72.796875 
Q 21.53125 60.546875 25.921875 48.1875 
Q 29.6875 37.546875 29.6875 25.921875 
Q 29.6875 12.75 24.625 0.4375 
Q 19.578125 -11.859375 12.359375 -21.046875 
z
" id="ArialMT-41"/>
     </defs>
     <g style="fill:#262626;" transform="translate(20.303437 287.128125)rotate(-90)scale(0.18 -0.18)">
      <use xlink:href="#ArialMT-66"/>
      <use x="66.699219" xlink:href="#ArialMT-105"/>
      <use x="88.916016" xlink:href="#ArialMT-111"/>
      <use x="144.53125" xlink:href="#ArialMT-109"/>
      <use x="227.832031" xlink:href="#ArialMT-97"/>
      <use x="283.447266" xlink:href="#ArialMT-115"/>
      <use x="333.447266" xlink:href="#ArialMT-115"/>
      <use x="383.447266" xlink:href="#ArialMT-32"/>
      <use x="411.230469" xlink:href="#ArialMT-99"/>
      <use x="461.230469" xlink:href="#ArialMT-111"/>
      <use x="516.845703" xlink:href="#ArialMT-101"/>
      <use x="572.460938" xlink:href="#ArialMT-102"/>
      <use x="600.228516" xlink:href="#ArialMT-102"/>
      <use x="628.011719" xlink:href="#ArialMT-105"/>
      <use x="650.228516" xlink:href="#ArialMT-99"/>
      <use x="700.228516" xlink:href="#ArialMT-105"/>
      <use x="722.445312" xlink:href="#ArialMT-101"/>
      <use x="778.060547" xlink:href="#ArialMT-110"/>
      <use x="833.675781" xlink:href="#ArialMT-116"/>
      <use x="861.458984" xlink:href="#ArialMT-32"/>
      <use x="889.242188" xlink:href="#ArialMT-40"/>
      <use x="922.542969" xlink:href="#ArialMT-109"/>
      <use x="1005.84375" xlink:href="#ArialMT-109"/>
      <use x="1089.144531" xlink:href="#ArialMT-111"/>
      <use x="1144.759766" xlink:href="#ArialMT-108"/>
      <use x="1166.976562" xlink:href="#ArialMT-32"/>
      <use x="1194.759766" xlink:href="#ArialMT-47"/>
      <use x="1222.542969" xlink:href="#ArialMT-32"/>
      <use x="1250.326172" xlink:href="#ArialMT-103"/>
      <use x="1305.941406" xlink:href="#ArialMT-68"/>
      <use x="1378.158203" xlink:href="#ArialMT-87"/>
      <use x="1472.542969" xlink:href="#ArialMT-41"/>
     </g>
    </g>
   </g>
   <g id="PathCollection_1">
    <defs>
     <path d="M 0 7.071068 
C 1.875269 7.071068 3.673985 6.326016 5 5 
C 6.326016 3.673985 7.071068 1.875269 7.071068 0 
C 7.071068 -1.875269 6.326016 -3.673985 5 -5 
C 3.673985 -6.326016 1.875269 -7.071068 0 -7.071068 
C -1.875269 -7.071068 -3.673985 -6.326016 -5 -5 
C -6.326016 -3.673985 -7.071068 -1.875269 -7.071068 0 
C -7.071068 1.875269 -6.326016 3.673985 -5 5 
C -3.673985 6.326016 -1.875269 7.071068 0 7.071068 
z
" id="C0_0_1751844fc9"/>
    </defs>
    <g clip-path="url(#pd15c5e3881)">
     <use style="fill:#1b9e77;stroke:#1b9e77;" x="87.170966" xlink:href="#C0_0_1751844fc9" y="48.606651"/>
    </g>
    <g clip-path="url(#pd15c5e3881)">
     <use style="fill:#1b9e77;stroke:#1b9e77;" x="104.080057" xlink:href="#C0_0_1751844fc9" y="48.606651"/>
    </g>
    <g clip-path="url(#pd15c5e3881)">
     <use style="fill:#d95f02;stroke:#d95f02;" x="120.989148" xlink:href="#C0_0_1751844fc9" y="116.616746"/>
    </g>
    <g clip-path="url(#pd15c5e3881)">
     <use style="fill:#1b9e77;stroke:#1b9e77;" x="137.898239" xlink:href="#C0_0_1751844fc9" y="120.276071"/>
    </g>
    <g clip-path="url(#pd15c5e3881)">
     <use style="fill:#1b9e77;stroke:#1b9e77;" x="154.80733" xlink:href="#C0_0_1751844fc9" y="128.491475"/>
    </g>
    <g clip-path="url(#pd15c5e3881)">
     <use style="fill:#1b9e77;stroke:#1b9e77;" x="171.71642" xlink:href="#C0_0_1751844fc9" y="128.830265"/>
    </g>
    <g clip-path="url(#pd15c5e3881)">
     <use style="fill:#1b9e77;stroke:#1b9e77;" x="188.625511" xlink:href="#C0_0_1751844fc9" y="128.903628"/>
    </g>
    <g clip-path="url(#pd15c5e3881)">
     <use style="fill:#1b9e77;stroke:#1b9e77;" x="205.534602" xlink:href="#C0_0_1751844fc9" y="129.299587"/>
    </g>
    <g clip-path="url(#pd15c5e3881)">
     <use style="fill:#1b9e77;stroke:#1b9e77;" x="222.443693" xlink:href="#C0_0_1751844fc9" y="129.576507"/>
    </g>
    <g clip-path="url(#pd15c5e3881)">
     <use style="fill:#1b9e77;stroke:#1b9e77;" x="239.352784" xlink:href="#C0_0_1751844fc9" y="131.077424"/>
    </g>
    <g clip-path="url(#pd15c5e3881)">
     <use style="fill:#1b9e77;stroke:#1b9e77;" x="256.261875" xlink:href="#C0_0_1751844fc9" y="137.301535"/>
    </g>
    <g clip-path="url(#pd15c5e3881)">
     <use style="fill:#1b9e77;stroke:#1b9e77;" x="273.170966" xlink:href="#C0_0_1751844fc9" y="137.528105"/>
    </g>
    <g clip-path="url(#pd15c5e3881)">
     <use style="fill:#1b9e77;stroke:#1b9e77;" x="290.080057" xlink:href="#C0_0_1751844fc9" y="138.145364"/>
    </g>
    <g clip-path="url(#pd15c5e3881)">
     <use style="fill:#1b9e77;stroke:#1b9e77;" x="306.989148" xlink:href="#C0_0_1751844fc9" y="140.384349"/>
    </g>
    <g clip-path="url(#pd15c5e3881)">
     <use style="fill:#1b9e77;stroke:#1b9e77;" x="323.898239" xlink:href="#C0_0_1751844fc9" y="140.873434"/>
    </g>
    <g clip-path="url(#pd15c5e3881)">
     <use style="fill:#1b9e77;stroke:#1b9e77;" x="340.80733" xlink:href="#C0_0_1751844fc9" y="144.46935"/>
    </g>
    <g clip-path="url(#pd15c5e3881)">
     <use style="fill:#1b9e77;stroke:#1b9e77;" x="357.71642" xlink:href="#C0_0_1751844fc9" y="149.28277"/>
    </g>
    <g clip-path="url(#pd15c5e3881)">
     <use style="fill:#1b9e77;stroke:#1b9e77;" x="374.625511" xlink:href="#C0_0_1751844fc9" y="149.842909"/>
    </g>
    <g clip-path="url(#pd15c5e3881)">
     <use style="fill:#1b9e77;stroke:#1b9e77;" x="391.534602" xlink:href="#C0_0_1751844fc9" y="149.842909"/>
    </g>
    <g clip-path="url(#pd15c5e3881)">
     <use style="fill:#1b9e77;stroke:#1b9e77;" x="408.443693" xlink:href="#C0_0_1751844fc9" y="158.433"/>
    </g>
    <g clip-path="url(#pd15c5e3881)">
     <use style="fill:#1b9e77;stroke:#1b9e77;" x="425.352784" xlink:href="#C0_0_1751844fc9" y="163.55072"/>
    </g>
    <g clip-path="url(#pd15c5e3881)">
     <use style="fill:#7570b3;stroke:#7570b3;" x="442.261875" xlink:href="#C0_0_1751844fc9" y="164.07357"/>
    </g>
    <g clip-path="url(#pd15c5e3881)">
     <use style="fill:#1b9e77;stroke:#1b9e77;" x="459.170966" xlink:href="#C0_0_1751844fc9" y="175.286387"/>
    </g>
    <g clip-path="url(#pd15c5e3881)">
     <use style="fill:#1b9e77;stroke:#1b9e77;" x="476.080057" xlink:href="#C0_0_1751844fc9" y="202.559705"/>
    </g>
    <g clip-path="url(#pd15c5e3881)">
     <use style="fill:#e7298a;stroke:#e7298a;" x="492.989148" xlink:href="#C0_0_1751844fc9" y="205.637828"/>
    </g>
    <g clip-path="url(#pd15c5e3881)">
     <use style="fill:#e7298a;stroke:#e7298a;" x="509.898239" xlink:href="#C0_0_1751844fc9" y="206.02416"/>
    </g>
    <g clip-path="url(#pd15c5e3881)">
     <use style="fill:#e7298a;stroke:#e7298a;" x="526.80733" xlink:href="#C0_0_1751844fc9" y="207.542241"/>
    </g>
    <g clip-path="url(#pd15c5e3881)">
     <use style="fill:#e7298a;stroke:#e7298a;" x="543.71642" xlink:href="#C0_0_1751844fc9" y="217.074293"/>
    </g>
    <g clip-path="url(#pd15c5e3881)">
     <use style="fill:#e6ab02;stroke:#e6ab02;" x="560.625511" xlink:href="#C0_0_1751844fc9" y="233.639231"/>
    </g>
    <g clip-path="url(#pd15c5e3881)">
     <use style="fill:#e6ab02;stroke:#e6ab02;" x="577.534602" xlink:href="#C0_0_1751844fc9" y="233.639231"/>
    </g>
    <g clip-path="url(#pd15c5e3881)">
     <use style="fill:#e6ab02;stroke:#e6ab02;" x="594.443693" xlink:href="#C0_0_1751844fc9" y="238.469996"/>
    </g>
    <g clip-path="url(#pd15c5e3881)">
     <use style="fill:#e6ab02;stroke:#e6ab02;" x="611.352784" xlink:href="#C0_0_1751844fc9" y="238.469996"/>
    </g>
   </g>
   <g id="patch_3">
    <path d="M 70.261875 287.507812 
L 70.261875 15.707813 
" style="fill:none;stroke:#262626;stroke-linecap:square;stroke-linejoin:miter;stroke-width:1.25;"/>
   </g>
   <g id="patch_4">
    <path d="M 628.261875 287.507812 
L 628.261875 15.707813 
" style="fill:none;stroke:#262626;stroke-linecap:square;stroke-linejoin:miter;stroke-width:1.25;"/>
   </g>
   <g id="patch_5">
    <path d="M 70.261875 287.507812 
L 628.261875 287.507812 
" style="fill:none;stroke:#262626;stroke-linecap:square;stroke-linejoin:miter;stroke-width:1.25;"/>
   </g>
   <g id="patch_6">
    <path d="M 70.261875 15.707813 
L 628.261875 15.707813 
" style="fill:none;stroke:#262626;stroke-linecap:square;stroke-linejoin:miter;stroke-width:1.25;"/>
   </g>
  </g>
 </g>
 <defs>
  <clipPath id="pd15c5e3881">
   <rect height="271.8" width="558" x="70.261875" y="15.707812"/>
  </clipPath>
 </defs>
</svg>
