<?xml version="1.0" encoding="utf-8" standalone="no"?>
<!DOCTYPE svg PUBLIC "-//W3C//DTD SVG 1.1//EN"
  "http://www.w3.org/Graphics/SVG/1.1/DTD/svg11.dtd">
<!-- Created with matplotlib (https://matplotlib.org/) -->
<svg height="202.069766pt" version="1.1" viewBox="0 0 200.723984 202.069766" width="200.723984pt" xmlns="http://www.w3.org/2000/svg" xmlns:xlink="http://www.w3.org/1999/xlink">
 <defs>
  <style type="text/css">
*{stroke-linecap:butt;stroke-linejoin:round;white-space:pre;}
  </style>
 </defs>
 <g id="figure_1">
  <g id="patch_1">
   <path d="M 0 202.069766 
L 200.723984 202.069766 
L 200.723984 0 
L 0 0 
z
" style="fill:#ffffff;"/>
  </g>
  <g id="axes_1">
   <g id="patch_2">
    <path d="M 30.443984 170.28 
L 193.523984 170.28 
L 193.523984 7.2 
L 30.443984 7.2 
z
" style="fill:#eaeaf2;"/>
   </g>
   <g id="matplotlib.axis_1">
    <g id="xtick_1">
     <g id="text_1">
      <!-- c -->
      <defs>
       <path d="M 40.4375 19 
L 49.078125 17.875 
Q 47.65625 8.9375 41.8125 3.875 
Q 35.984375 -1.171875 27.484375 -1.171875 
Q 16.84375 -1.171875 10.375 5.78125 
Q 3.90625 12.75 3.90625 25.734375 
Q 3.90625 34.125 6.6875 40.421875 
Q 9.46875 46.734375 15.15625 49.875 
Q 20.84375 53.03125 27.546875 53.03125 
Q 35.984375 53.03125 41.359375 48.75 
Q 46.734375 44.484375 48.25 36.625 
L 39.703125 35.296875 
Q 38.484375 40.53125 35.375 43.15625 
Q 32.28125 45.796875 27.875 45.796875 
Q 21.234375 45.796875 17.078125 41.03125 
Q 12.9375 36.28125 12.9375 25.984375 
Q 12.9375 15.53125 16.9375 10.796875 
Q 20.953125 6.0625 27.390625 6.0625 
Q 32.5625 6.0625 36.03125 9.234375 
Q 39.5 12.40625 40.4375 19 
z
" id="ArialMT-99"/>
      </defs>
      <g style="fill:#262626;" transform="translate(42.626984 191.590391)scale(0.165 -0.165)">
       <use xlink:href="#ArialMT-99"/>
      </g>
     </g>
    </g>
    <g id="xtick_2">
     <g id="text_2">
      <!-- m -->
      <defs>
       <path d="M 6.59375 0 
L 6.59375 51.859375 
L 14.453125 51.859375 
L 14.453125 44.578125 
Q 16.890625 48.390625 20.9375 50.703125 
Q 25 53.03125 30.171875 53.03125 
Q 35.9375 53.03125 39.625 50.640625 
Q 43.3125 48.25 44.828125 43.953125 
Q 50.984375 53.03125 60.84375 53.03125 
Q 68.5625 53.03125 72.703125 48.75 
Q 76.859375 44.484375 76.859375 35.59375 
L 76.859375 0 
L 68.109375 0 
L 68.109375 32.671875 
Q 68.109375 37.9375 67.25 40.25 
Q 66.40625 42.578125 64.15625 43.984375 
Q 61.921875 45.40625 58.890625 45.40625 
Q 53.421875 45.40625 49.796875 41.765625 
Q 46.1875 38.140625 46.1875 30.125 
L 46.1875 0 
L 37.40625 0 
L 37.40625 33.6875 
Q 37.40625 39.546875 35.25 42.46875 
Q 33.109375 45.40625 28.21875 45.40625 
Q 24.515625 45.40625 21.359375 43.453125 
Q 18.21875 41.5 16.796875 37.734375 
Q 15.375 33.984375 15.375 26.90625 
L 15.375 0 
z
" id="ArialMT-109"/>
      </defs>
      <g style="fill:#262626;" transform="translate(72.495992 191.590391)scale(0.165 -0.165)">
       <use xlink:href="#ArialMT-109"/>
      </g>
     </g>
    </g>
    <g id="xtick_3">
     <g id="text_3">
      <!-- e -->
      <defs>
       <path d="M 42.09375 16.703125 
L 51.171875 15.578125 
Q 49.03125 7.625 43.21875 3.21875 
Q 37.40625 -1.171875 28.375 -1.171875 
Q 17 -1.171875 10.328125 5.828125 
Q 3.65625 12.84375 3.65625 25.484375 
Q 3.65625 38.578125 10.390625 45.796875 
Q 17.140625 53.03125 27.875 53.03125 
Q 38.28125 53.03125 44.875 45.953125 
Q 51.46875 38.875 51.46875 26.03125 
Q 51.46875 25.25 51.421875 23.6875 
L 12.75 23.6875 
Q 13.234375 15.140625 17.578125 10.59375 
Q 21.921875 6.0625 28.421875 6.0625 
Q 33.25 6.0625 36.671875 8.59375 
Q 40.09375 11.140625 42.09375 16.703125 
z
M 13.234375 30.90625 
L 42.1875 30.90625 
Q 41.609375 37.453125 38.875 40.71875 
Q 34.671875 45.796875 27.984375 45.796875 
Q 21.921875 45.796875 17.796875 41.75 
Q 13.671875 37.703125 13.234375 30.90625 
z
" id="ArialMT-101"/>
      </defs>
      <g style="fill:#262626;" transform="translate(107.396211 191.590391)scale(0.165 -0.165)">
       <use xlink:href="#ArialMT-101"/>
      </g>
     </g>
    </g>
    <g id="xtick_4">
     <g id="text_4">
      <!-- x -->
      <defs>
       <path d="M 0.734375 0 
L 19.671875 26.953125 
L 2.15625 51.859375 
L 13.140625 51.859375 
L 21.09375 39.703125 
Q 23.34375 36.234375 24.703125 33.890625 
Q 26.859375 37.109375 28.65625 39.59375 
L 37.40625 51.859375 
L 47.90625 51.859375 
L 29.984375 27.4375 
L 49.265625 0 
L 38.484375 0 
L 27.828125 16.109375 
L 25 20.453125 
L 11.375 0 
z
" id="ArialMT-120"/>
      </defs>
      <g style="fill:#262626;" transform="translate(140.474984 191.590391)scale(0.165 -0.165)">
       <use xlink:href="#ArialMT-120"/>
      </g>
     </g>
    </g>
    <g id="xtick_5">
     <g id="text_5">
      <!-- n -->
      <defs>
       <path d="M 6.59375 0 
L 6.59375 51.859375 
L 14.5 51.859375 
L 14.5 44.484375 
Q 20.21875 53.03125 31 53.03125 
Q 35.6875 53.03125 39.625 51.34375 
Q 43.5625 49.65625 45.515625 46.921875 
Q 47.46875 44.1875 48.25 40.4375 
Q 48.734375 37.984375 48.734375 31.890625 
L 48.734375 0 
L 39.9375 0 
L 39.9375 31.546875 
Q 39.9375 36.921875 38.90625 39.578125 
Q 37.890625 42.234375 35.28125 43.8125 
Q 32.671875 45.40625 29.15625 45.40625 
Q 23.53125 45.40625 19.453125 41.84375 
Q 15.375 38.28125 15.375 28.328125 
L 15.375 0 
z
" id="ArialMT-110"/>
      </defs>
      <g style="fill:#262626;" transform="translate(172.628211 191.590391)scale(0.165 -0.165)">
       <use xlink:href="#ArialMT-110"/>
      </g>
     </g>
    </g>
   </g>
   <g id="matplotlib.axis_2">
    <g id="ytick_1">
     <g id="text_6">
      <!-- c -->
      <g style="fill:#262626;" transform="translate(12.693984 29.413195)scale(0.165 -0.165)">
       <use xlink:href="#ArialMT-99"/>
      </g>
     </g>
    </g>
    <g id="ytick_2">
     <g id="text_7">
      <!-- m -->
      <g style="fill:#262626;" transform="translate(7.2 62.029195)scale(0.165 -0.165)">
       <use xlink:href="#ArialMT-109"/>
      </g>
     </g>
    </g>
    <g id="ytick_3">
     <g id="text_8">
      <!-- e -->
      <g style="fill:#262626;" transform="translate(11.768437 94.645195)scale(0.165 -0.165)">
       <use xlink:href="#ArialMT-101"/>
      </g>
     </g>
    </g>
    <g id="ytick_4">
     <g id="text_9">
      <!-- x -->
      <g style="fill:#262626;" transform="translate(12.693984 127.261195)scale(0.165 -0.165)">
       <use xlink:href="#ArialMT-120"/>
      </g>
     </g>
    </g>
    <g id="ytick_5">
     <g id="text_10">
      <!-- n -->
      <g style="fill:#262626;" transform="translate(11.768437 159.877195)scale(0.165 -0.165)">
       <use xlink:href="#ArialMT-110"/>
      </g>
     </g>
    </g>
   </g>
   <g id="QuadMesh_1">
    <path clip-path="url(#pced34f87b7)" d="M 30.443984 7.2 
L 63.059984 7.2 
L 63.059984 39.816 
L 30.443984 39.816 
L 30.443984 7.2 
" style="fill:#00441b;"/>
    <path clip-path="url(#pced34f87b7)" d="M 63.059984 7.2 
L 95.675984 7.2 
L 95.675984 39.816 
L 63.059984 39.816 
L 63.059984 7.2 
" style="fill:#c0e6b9;"/>
    <path clip-path="url(#pced34f87b7)" d="M 95.675984 7.2 
L 128.291984 7.2 
L 128.291984 39.816 
L 95.675984 39.816 
L 95.675984 7.2 
" style="fill:#c8e9c1;"/>
    <path clip-path="url(#pced34f87b7)" d="M 128.291984 7.2 
L 160.907984 7.2 
L 160.907984 39.816 
L 128.291984 39.816 
L 128.291984 7.2 
" style="fill:#f1faee;"/>
    <path clip-path="url(#pced34f87b7)" d="M 160.907984 7.2 
L 193.523984 7.2 
L 193.523984 39.816 
L 160.907984 39.816 
L 160.907984 7.2 
" style="fill:#f4fbf2;"/>
    <path clip-path="url(#pced34f87b7)" d="M 30.443984 39.816 
L 63.059984 39.816 
L 63.059984 72.432 
L 30.443984 72.432 
L 30.443984 39.816 
" style="fill:#c0e6b9;"/>
    <path clip-path="url(#pced34f87b7)" d="M 63.059984 39.816 
L 95.675984 39.816 
L 95.675984 72.432 
L 63.059984 72.432 
L 63.059984 39.816 
" style="fill:#7dc87e;"/>
    <path clip-path="url(#pced34f87b7)" d="M 95.675984 39.816 
L 128.291984 39.816 
L 128.291984 72.432 
L 95.675984 72.432 
L 95.675984 39.816 
" style="fill:#e9f7e5;"/>
    <path clip-path="url(#pced34f87b7)" d="M 128.291984 39.816 
L 160.907984 39.816 
L 160.907984 72.432 
L 128.291984 72.432 
L 128.291984 39.816 
" style="fill:#f4fbf1;"/>
    <path clip-path="url(#pced34f87b7)" d="M 160.907984 39.816 
L 193.523984 39.816 
L 193.523984 72.432 
L 160.907984 72.432 
L 160.907984 39.816 
" style="fill:#f7fcf5;"/>
    <path clip-path="url(#pced34f87b7)" d="M 30.443984 72.432 
L 63.059984 72.432 
L 63.059984 105.048 
L 30.443984 105.048 
L 30.443984 72.432 
" style="fill:#c8e9c1;"/>
    <path clip-path="url(#pced34f87b7)" d="M 63.059984 72.432 
L 95.675984 72.432 
L 95.675984 105.048 
L 63.059984 105.048 
L 63.059984 72.432 
" style="fill:#e9f7e5;"/>
    <path clip-path="url(#pced34f87b7)" d="M 95.675984 72.432 
L 128.291984 72.432 
L 128.291984 105.048 
L 95.675984 105.048 
L 95.675984 72.432 
" style="fill:#c8e9c1;"/>
    <path clip-path="url(#pced34f87b7)" d="M 128.291984 72.432 
L 160.907984 72.432 
L 160.907984 105.048 
L 128.291984 105.048 
L 128.291984 72.432 
" style="fill:#f5fbf2;"/>
    <path clip-path="url(#pced34f87b7)" d="M 160.907984 72.432 
L 193.523984 72.432 
L 193.523984 105.048 
L 160.907984 105.048 
L 160.907984 72.432 
" style="fill:#f7fcf5;"/>
    <path clip-path="url(#pced34f87b7)" d="M 30.443984 105.048 
L 63.059984 105.048 
L 63.059984 137.664 
L 30.443984 137.664 
L 30.443984 105.048 
" style="fill:#f1faee;"/>
    <path clip-path="url(#pced34f87b7)" d="M 63.059984 105.048 
L 95.675984 105.048 
L 95.675984 137.664 
L 63.059984 137.664 
L 63.059984 105.048 
" style="fill:#f4fbf1;"/>
    <path clip-path="url(#pced34f87b7)" d="M 95.675984 105.048 
L 128.291984 105.048 
L 128.291984 137.664 
L 95.675984 137.664 
L 95.675984 105.048 
" style="fill:#f5fbf2;"/>
    <path clip-path="url(#pced34f87b7)" d="M 128.291984 105.048 
L 160.907984 105.048 
L 160.907984 137.664 
L 128.291984 137.664 
L 128.291984 105.048 
" style="fill:#f0f9ec;"/>
    <path clip-path="url(#pced34f87b7)" d="M 160.907984 105.048 
L 193.523984 105.048 
L 193.523984 137.664 
L 160.907984 137.664 
L 160.907984 105.048 
" style="fill:#f7fcf5;"/>
    <path clip-path="url(#pced34f87b7)" d="M 30.443984 137.664 
L 63.059984 137.664 
L 63.059984 170.28 
L 30.443984 170.28 
L 30.443984 137.664 
" style="fill:#f4fbf2;"/>
    <path clip-path="url(#pced34f87b7)" d="M 63.059984 137.664 
L 95.675984 137.664 
L 95.675984 170.28 
L 63.059984 170.28 
L 63.059984 137.664 
" style="fill:#f7fcf5;"/>
    <path clip-path="url(#pced34f87b7)" d="M 95.675984 137.664 
L 128.291984 137.664 
L 128.291984 170.28 
L 95.675984 170.28 
L 95.675984 137.664 
" style="fill:#f7fcf5;"/>
    <path clip-path="url(#pced34f87b7)" d="M 128.291984 137.664 
L 160.907984 137.664 
L 160.907984 170.28 
L 128.291984 170.28 
L 128.291984 137.664 
" style="fill:#f7fcf5;"/>
    <path clip-path="url(#pced34f87b7)" d="M 160.907984 137.664 
L 193.523984 137.664 
L 193.523984 170.28 
L 160.907984 170.28 
L 160.907984 137.664 
" style="fill:#f4fbf2;"/>
   </g>
   <g id="text_11">
    <!-- 295 -->
    <defs>
     <path d="M 50.34375 8.453125 
L 50.34375 0 
L 3.03125 0 
Q 2.9375 3.171875 4.046875 6.109375 
Q 5.859375 10.9375 9.828125 15.625 
Q 13.8125 20.3125 21.34375 26.46875 
Q 33.015625 36.03125 37.109375 41.625 
Q 41.21875 47.21875 41.21875 52.203125 
Q 41.21875 57.421875 37.46875 61 
Q 33.734375 64.59375 27.734375 64.59375 
Q 21.390625 64.59375 17.578125 60.78125 
Q 13.765625 56.984375 13.71875 50.25 
L 4.6875 51.171875 
Q 5.609375 61.28125 11.65625 66.578125 
Q 17.71875 71.875 27.9375 71.875 
Q 38.234375 71.875 44.234375 66.15625 
Q 50.25 60.453125 50.25 52 
Q 50.25 47.703125 48.484375 43.546875 
Q 46.734375 39.40625 42.65625 34.8125 
Q 38.578125 30.21875 29.109375 22.21875 
Q 21.1875 15.578125 18.9375 13.203125 
Q 16.703125 10.84375 15.234375 8.453125 
z
" id="ArialMT-50"/>
     <path d="M 5.46875 16.546875 
L 13.921875 17.328125 
Q 14.984375 11.375 18.015625 8.6875 
Q 21.046875 6 25.78125 6 
Q 29.828125 6 32.875 7.859375 
Q 35.9375 9.71875 37.890625 12.8125 
Q 39.84375 15.921875 41.15625 21.1875 
Q 42.484375 26.46875 42.484375 31.9375 
Q 42.484375 32.515625 42.4375 33.6875 
Q 39.796875 29.5 35.234375 26.875 
Q 30.671875 24.265625 25.34375 24.265625 
Q 16.453125 24.265625 10.296875 30.703125 
Q 4.15625 37.15625 4.15625 47.703125 
Q 4.15625 58.59375 10.578125 65.234375 
Q 17 71.875 26.65625 71.875 
Q 33.640625 71.875 39.421875 68.109375 
Q 45.21875 64.359375 48.21875 57.390625 
Q 51.21875 50.4375 51.21875 37.25 
Q 51.21875 23.53125 48.234375 15.40625 
Q 45.265625 7.28125 39.375 3.03125 
Q 33.5 -1.21875 25.59375 -1.21875 
Q 17.1875 -1.21875 11.859375 3.4375 
Q 6.546875 8.109375 5.46875 16.546875 
z
M 41.453125 48.140625 
Q 41.453125 55.71875 37.421875 60.15625 
Q 33.40625 64.59375 27.734375 64.59375 
Q 21.875 64.59375 17.53125 59.8125 
Q 13.1875 55.03125 13.1875 47.40625 
Q 13.1875 40.578125 17.3125 36.296875 
Q 21.4375 32.03125 27.484375 32.03125 
Q 33.59375 32.03125 37.515625 36.296875 
Q 41.453125 40.578125 41.453125 48.140625 
z
" id="ArialMT-57"/>
     <path d="M 4.15625 18.75 
L 13.375 19.53125 
Q 14.40625 12.796875 18.140625 9.390625 
Q 21.875 6 27.15625 6 
Q 33.5 6 37.890625 10.78125 
Q 42.28125 15.578125 42.28125 23.484375 
Q 42.28125 31 38.0625 35.34375 
Q 33.84375 39.703125 27 39.703125 
Q 22.75 39.703125 19.328125 37.765625 
Q 15.921875 35.84375 13.96875 32.765625 
L 5.71875 33.84375 
L 12.640625 70.609375 
L 48.25 70.609375 
L 48.25 62.203125 
L 19.671875 62.203125 
L 15.828125 42.96875 
Q 22.265625 47.46875 29.34375 47.46875 
Q 38.71875 47.46875 45.15625 40.96875 
Q 51.609375 34.46875 51.609375 24.265625 
Q 51.609375 14.546875 45.953125 7.46875 
Q 39.0625 -1.21875 27.15625 -1.21875 
Q 17.390625 -1.21875 11.203125 4.25 
Q 5.03125 9.71875 4.15625 18.75 
z
" id="ArialMT-53"/>
    </defs>
    <g style="fill:#ffffff;" transform="translate(31.737453 28.161281)scale(0.18 -0.18)">
     <use xlink:href="#ArialMT-50"/>
     <use x="55.615234" xlink:href="#ArialMT-57"/>
     <use x="111.230469" xlink:href="#ArialMT-53"/>
    </g>
   </g>
   <g id="text_12">
    <!-- 81 -->
    <defs>
     <path d="M 17.671875 38.8125 
Q 12.203125 40.828125 9.5625 44.53125 
Q 6.9375 48.25 6.9375 53.421875 
Q 6.9375 61.234375 12.546875 66.546875 
Q 18.171875 71.875 27.484375 71.875 
Q 36.859375 71.875 42.578125 66.421875 
Q 48.296875 60.984375 48.296875 53.171875 
Q 48.296875 48.1875 45.671875 44.5 
Q 43.0625 40.828125 37.75 38.8125 
Q 44.34375 36.671875 47.78125 31.875 
Q 51.21875 27.09375 51.21875 20.453125 
Q 51.21875 11.28125 44.71875 5.03125 
Q 38.234375 -1.21875 27.640625 -1.21875 
Q 17.046875 -1.21875 10.546875 5.046875 
Q 4.046875 11.328125 4.046875 20.703125 
Q 4.046875 27.6875 7.59375 32.390625 
Q 11.140625 37.109375 17.671875 38.8125 
z
M 15.921875 53.71875 
Q 15.921875 48.640625 19.1875 45.40625 
Q 22.46875 42.1875 27.6875 42.1875 
Q 32.765625 42.1875 36.015625 45.375 
Q 39.265625 48.578125 39.265625 53.21875 
Q 39.265625 58.0625 35.90625 61.359375 
Q 32.5625 64.65625 27.59375 64.65625 
Q 22.5625 64.65625 19.234375 61.421875 
Q 15.921875 58.203125 15.921875 53.71875 
z
M 13.09375 20.65625 
Q 13.09375 16.890625 14.875 13.375 
Q 16.65625 9.859375 20.171875 7.921875 
Q 23.6875 6 27.734375 6 
Q 34.03125 6 38.125 10.046875 
Q 42.234375 14.109375 42.234375 20.359375 
Q 42.234375 26.703125 38.015625 30.859375 
Q 33.796875 35.015625 27.4375 35.015625 
Q 21.234375 35.015625 17.15625 30.90625 
Q 13.09375 26.8125 13.09375 20.65625 
z
" id="ArialMT-56"/>
     <path d="M 37.25 0 
L 28.46875 0 
L 28.46875 56 
Q 25.296875 52.984375 20.140625 49.953125 
Q 14.984375 46.921875 10.890625 45.40625 
L 10.890625 53.90625 
Q 18.265625 57.375 23.78125 62.296875 
Q 29.296875 67.234375 31.59375 71.875 
L 37.25 71.875 
z
" id="ArialMT-49"/>
    </defs>
    <g style="fill:#262626;" transform="translate(69.358297 28.161281)scale(0.18 -0.18)">
     <use xlink:href="#ArialMT-56"/>
     <use x="55.615234" xlink:href="#ArialMT-49"/>
    </g>
   </g>
   <g id="text_13">
    <!-- 73 -->
    <defs>
     <path d="M 4.734375 62.203125 
L 4.734375 70.65625 
L 51.078125 70.65625 
L 51.078125 63.8125 
Q 44.234375 56.546875 37.515625 44.484375 
Q 30.8125 32.421875 27.15625 19.671875 
Q 24.515625 10.6875 23.78125 0 
L 14.75 0 
Q 14.890625 8.453125 18.0625 20.40625 
Q 21.234375 32.375 27.171875 43.484375 
Q 33.109375 54.59375 39.796875 62.203125 
z
" id="ArialMT-55"/>
     <path d="M 4.203125 18.890625 
L 12.984375 20.0625 
Q 14.5 12.59375 18.140625 9.296875 
Q 21.78125 6 27 6 
Q 33.203125 6 37.46875 10.296875 
Q 41.75 14.59375 41.75 20.953125 
Q 41.75 27 37.796875 30.921875 
Q 33.84375 34.859375 27.734375 34.859375 
Q 25.25 34.859375 21.53125 33.890625 
L 22.515625 41.609375 
Q 23.390625 41.5 23.921875 41.5 
Q 29.546875 41.5 34.03125 44.421875 
Q 38.53125 47.359375 38.53125 53.46875 
Q 38.53125 58.296875 35.25 61.46875 
Q 31.984375 64.65625 26.8125 64.65625 
Q 21.6875 64.65625 18.265625 61.421875 
Q 14.84375 58.203125 13.875 51.765625 
L 5.078125 53.328125 
Q 6.6875 62.15625 12.390625 67.015625 
Q 18.109375 71.875 26.609375 71.875 
Q 32.46875 71.875 37.390625 69.359375 
Q 42.328125 66.84375 44.9375 62.5 
Q 47.5625 58.15625 47.5625 53.265625 
Q 47.5625 48.640625 45.0625 44.828125 
Q 42.578125 41.015625 37.703125 38.765625 
Q 44.046875 37.3125 47.5625 32.6875 
Q 51.078125 28.078125 51.078125 21.140625 
Q 51.078125 11.765625 44.234375 5.25 
Q 37.40625 -1.265625 26.953125 -1.265625 
Q 17.53125 -1.265625 11.296875 4.34375 
Q 5.078125 9.96875 4.203125 18.890625 
z
" id="ArialMT-51"/>
    </defs>
    <g style="fill:#262626;" transform="translate(101.974297 28.161281)scale(0.18 -0.18)">
     <use xlink:href="#ArialMT-55"/>
     <use x="55.615234" xlink:href="#ArialMT-51"/>
    </g>
   </g>
   <g id="text_14">
    <!-- 12 -->
    <g style="fill:#262626;" transform="translate(134.590297 28.161281)scale(0.18 -0.18)">
     <use xlink:href="#ArialMT-49"/>
     <use x="55.615234" xlink:href="#ArialMT-50"/>
    </g>
   </g>
   <g id="text_15">
    <!-- 6 -->
    <defs>
     <path d="M 49.75 54.046875 
L 41.015625 53.375 
Q 39.84375 58.546875 37.703125 60.890625 
Q 34.125 64.65625 28.90625 64.65625 
Q 24.703125 64.65625 21.53125 62.3125 
Q 17.390625 59.28125 14.984375 53.46875 
Q 12.59375 47.65625 12.5 36.921875 
Q 15.671875 41.75 20.265625 44.09375 
Q 24.859375 46.4375 29.890625 46.4375 
Q 38.671875 46.4375 44.84375 39.96875 
Q 51.03125 33.5 51.03125 23.25 
Q 51.03125 16.5 48.125 10.71875 
Q 45.21875 4.9375 40.140625 1.859375 
Q 35.0625 -1.21875 28.609375 -1.21875 
Q 17.625 -1.21875 10.6875 6.859375 
Q 3.765625 14.9375 3.765625 33.5 
Q 3.765625 54.25 11.421875 63.671875 
Q 18.109375 71.875 29.4375 71.875 
Q 37.890625 71.875 43.28125 67.140625 
Q 48.6875 62.40625 49.75 54.046875 
z
M 13.875 23.1875 
Q 13.875 18.65625 15.796875 14.5 
Q 17.71875 10.359375 21.1875 8.171875 
Q 24.65625 6 28.46875 6 
Q 34.03125 6 38.03125 10.484375 
Q 42.046875 14.984375 42.046875 22.703125 
Q 42.046875 30.125 38.078125 34.390625 
Q 34.125 38.671875 28.125 38.671875 
Q 22.171875 38.671875 18.015625 34.390625 
Q 13.875 30.125 13.875 23.1875 
z
" id="ArialMT-54"/>
    </defs>
    <g style="fill:#262626;" transform="translate(172.211141 28.161281)scale(0.18 -0.18)">
     <use xlink:href="#ArialMT-54"/>
    </g>
   </g>
   <g id="text_16">
    <!-- 81 -->
    <g style="fill:#262626;" transform="translate(36.742297 60.777281)scale(0.18 -0.18)">
     <use xlink:href="#ArialMT-56"/>
     <use x="55.615234" xlink:href="#ArialMT-49"/>
    </g>
   </g>
   <g id="text_17">
    <!-- 140 -->
    <defs>
     <path d="M 32.328125 0 
L 32.328125 17.140625 
L 1.265625 17.140625 
L 1.265625 25.203125 
L 33.9375 71.578125 
L 41.109375 71.578125 
L 41.109375 25.203125 
L 50.78125 25.203125 
L 50.78125 17.140625 
L 41.109375 17.140625 
L 41.109375 0 
z
M 32.328125 25.203125 
L 32.328125 57.46875 
L 9.90625 25.203125 
z
" id="ArialMT-52"/>
     <path d="M 4.15625 35.296875 
Q 4.15625 48 6.765625 55.734375 
Q 9.375 63.484375 14.515625 67.671875 
Q 19.671875 71.875 27.484375 71.875 
Q 33.25 71.875 37.59375 69.546875 
Q 41.9375 67.234375 44.765625 62.859375 
Q 47.609375 58.5 49.21875 52.21875 
Q 50.828125 45.953125 50.828125 35.296875 
Q 50.828125 22.703125 48.234375 14.96875 
Q 45.65625 7.234375 40.5 3 
Q 35.359375 -1.21875 27.484375 -1.21875 
Q 17.140625 -1.21875 11.234375 6.203125 
Q 4.15625 15.140625 4.15625 35.296875 
z
M 13.1875 35.296875 
Q 13.1875 17.671875 17.3125 11.828125 
Q 21.4375 6 27.484375 6 
Q 33.546875 6 37.671875 11.859375 
Q 41.796875 17.71875 41.796875 35.296875 
Q 41.796875 52.984375 37.671875 58.78125 
Q 33.546875 64.59375 27.390625 64.59375 
Q 21.34375 64.59375 17.71875 59.46875 
Q 13.1875 52.9375 13.1875 35.296875 
z
" id="ArialMT-48"/>
    </defs>
    <g style="fill:#262626;" transform="translate(64.353453 60.777281)scale(0.18 -0.18)">
     <use xlink:href="#ArialMT-49"/>
     <use x="55.615234" xlink:href="#ArialMT-52"/>
     <use x="111.230469" xlink:href="#ArialMT-48"/>
    </g>
   </g>
   <g id="text_18">
    <!-- 28 -->
    <g style="fill:#262626;" transform="translate(101.974297 60.777281)scale(0.18 -0.18)">
     <use xlink:href="#ArialMT-50"/>
     <use x="55.615234" xlink:href="#ArialMT-56"/>
    </g>
   </g>
   <g id="text_19">
    <!-- 8 -->
    <g style="fill:#262626;" transform="translate(139.595141 60.777281)scale(0.18 -0.18)">
     <use xlink:href="#ArialMT-56"/>
    </g>
   </g>
   <g id="text_20">
    <!-- 1 -->
    <g style="fill:#262626;" transform="translate(172.211141 60.777281)scale(0.18 -0.18)">
     <use xlink:href="#ArialMT-49"/>
    </g>
   </g>
   <g id="text_21">
    <!-- 73 -->
    <g style="fill:#262626;" transform="translate(36.742297 93.393281)scale(0.18 -0.18)">
     <use xlink:href="#ArialMT-55"/>
     <use x="55.615234" xlink:href="#ArialMT-51"/>
    </g>
   </g>
   <g id="text_22">
    <!-- 28 -->
    <g style="fill:#262626;" transform="translate(69.358297 93.393281)scale(0.18 -0.18)">
     <use xlink:href="#ArialMT-50"/>
     <use x="55.615234" xlink:href="#ArialMT-56"/>
    </g>
   </g>
   <g id="text_23">
    <!-- 73 -->
    <g style="fill:#262626;" transform="translate(101.974297 93.393281)scale(0.18 -0.18)">
     <use xlink:href="#ArialMT-55"/>
     <use x="55.615234" xlink:href="#ArialMT-51"/>
    </g>
   </g>
   <g id="text_24">
    <!-- 5 -->
    <g style="fill:#262626;" transform="translate(139.595141 93.393281)scale(0.18 -0.18)">
     <use xlink:href="#ArialMT-53"/>
    </g>
   </g>
   <g id="text_25">
    <!-- 0 -->
    <g style="fill:#262626;" transform="translate(172.211141 93.393281)scale(0.18 -0.18)">
     <use xlink:href="#ArialMT-48"/>
    </g>
   </g>
   <g id="text_26">
    <!-- 12 -->
    <g style="fill:#262626;" transform="translate(36.742297 126.009281)scale(0.18 -0.18)">
     <use xlink:href="#ArialMT-49"/>
     <use x="55.615234" xlink:href="#ArialMT-50"/>
    </g>
   </g>
   <g id="text_27">
    <!-- 8 -->
    <g style="fill:#262626;" transform="translate(74.363141 126.009281)scale(0.18 -0.18)">
     <use xlink:href="#ArialMT-56"/>
    </g>
   </g>
   <g id="text_28">
    <!-- 5 -->
    <g style="fill:#262626;" transform="translate(106.979141 126.009281)scale(0.18 -0.18)">
     <use xlink:href="#ArialMT-53"/>
    </g>
   </g>
   <g id="text_29">
    <!-- 15 -->
    <g style="fill:#262626;" transform="translate(134.590297 126.009281)scale(0.18 -0.18)">
     <use xlink:href="#ArialMT-49"/>
     <use x="55.615234" xlink:href="#ArialMT-53"/>
    </g>
   </g>
   <g id="text_30">
    <!-- 0 -->
    <g style="fill:#262626;" transform="translate(172.211141 126.009281)scale(0.18 -0.18)">
     <use xlink:href="#ArialMT-48"/>
    </g>
   </g>
   <g id="text_31">
    <!-- 6 -->
    <g style="fill:#262626;" transform="translate(41.747141 158.625281)scale(0.18 -0.18)">
     <use xlink:href="#ArialMT-54"/>
    </g>
   </g>
   <g id="text_32">
    <!-- 1 -->
    <g style="fill:#262626;" transform="translate(74.363141 158.625281)scale(0.18 -0.18)">
     <use xlink:href="#ArialMT-49"/>
    </g>
   </g>
   <g id="text_33">
    <!-- 0 -->
    <g style="fill:#262626;" transform="translate(106.979141 158.625281)scale(0.18 -0.18)">
     <use xlink:href="#ArialMT-48"/>
    </g>
   </g>
   <g id="text_34">
    <!-- 0 -->
    <g style="fill:#262626;" transform="translate(139.595141 158.625281)scale(0.18 -0.18)">
     <use xlink:href="#ArialMT-48"/>
    </g>
   </g>
   <g id="text_35">
    <!-- 6 -->
    <g style="fill:#262626;" transform="translate(172.211141 158.625281)scale(0.18 -0.18)">
     <use xlink:href="#ArialMT-54"/>
    </g>
   </g>
  </g>
 </g>
 <defs>
  <clipPath id="pced34f87b7">
   <rect height="163.08" width="163.08" x="30.443984" y="7.2"/>
  </clipPath>
 </defs>
</svg>
