<?xml version="1.0" encoding="utf-8" standalone="no"?>
<!DOCTYPE svg PUBLIC "-//W3C//DTD SVG 1.1//EN"
  "http://www.w3.org/Graphics/SVG/1.1/DTD/svg11.dtd">
<!-- Created with matplotlib (https://matplotlib.org/) -->
<svg height="283.007461pt" version="1.1" viewBox="0 0 636.764063 283.007461" width="636.764063pt" xmlns="http://www.w3.org/2000/svg" xmlns:xlink="http://www.w3.org/1999/xlink">
 <defs>
  <style type="text/css">
*{stroke-linecap:butt;stroke-linejoin:round;white-space:pre;}
  </style>
 </defs>
 <g id="figure_1">
  <g id="patch_1">
   <path d="M 0 283.007461 
L 636.764063 283.007461 
L 636.764063 0 
L 0 0 
z
" style="fill:#ffffff;"/>
  </g>
  <g id="axes_1">
   <g id="patch_2">
    <path d="M 60.096563 230.545195 
L 618.096563 230.545195 
L 618.096563 13.105195 
L 60.096563 13.105195 
z
" style="fill:#ffffff;"/>
   </g>
   <g id="matplotlib.axis_1">
    <g id="xtick_1">
     <g id="line2d_1">
      <path clip-path="url(#pf09e70ef90)" d="M 65.621315 230.545195 
L 65.621315 13.105195 
" style="fill:none;stroke:#cccccc;stroke-dasharray:3.7,1.6;stroke-dashoffset:0;"/>
     </g>
     <g id="line2d_2">
      <defs>
       <path d="M 0 0 
L 0 6 
" id="m488ce15e1e" style="stroke:#262626;stroke-width:1.25;"/>
      </defs>
      <g>
       <use style="fill:#262626;stroke:#262626;stroke-width:1.25;" x="65.621315" xlink:href="#m488ce15e1e" y="230.545195"/>
      </g>
     </g>
     <g id="text_1">
      <!-- 0.0 -->
      <defs>
       <path d="M 4.15625 35.296875 
Q 4.15625 48 6.765625 55.734375 
Q 9.375 63.484375 14.515625 67.671875 
Q 19.671875 71.875 27.484375 71.875 
Q 33.25 71.875 37.59375 69.546875 
Q 41.9375 67.234375 44.765625 62.859375 
Q 47.609375 58.5 49.21875 52.21875 
Q 50.828125 45.953125 50.828125 35.296875 
Q 50.828125 22.703125 48.234375 14.96875 
Q 45.65625 7.234375 40.5 3 
Q 35.359375 -1.21875 27.484375 -1.21875 
Q 17.140625 -1.21875 11.234375 6.203125 
Q 4.15625 15.140625 4.15625 35.296875 
z
M 13.1875 35.296875 
Q 13.1875 17.671875 17.3125 11.828125 
Q 21.4375 6 27.484375 6 
Q 33.546875 6 37.671875 11.859375 
Q 41.796875 17.71875 41.796875 35.296875 
Q 41.796875 52.984375 37.671875 58.78125 
Q 33.546875 64.59375 27.390625 64.59375 
Q 21.34375 64.59375 17.71875 59.46875 
Q 13.1875 52.9375 13.1875 35.296875 
z
" id="ArialMT-48"/>
       <path d="M 9.078125 0 
L 9.078125 10.015625 
L 19.09375 10.015625 
L 19.09375 0 
z
" id="ArialMT-46"/>
      </defs>
      <g style="fill:#262626;" transform="translate(54.153815 251.855586)scale(0.165 -0.165)">
       <use xlink:href="#ArialMT-48"/>
       <use x="55.615234" xlink:href="#ArialMT-46"/>
       <use x="83.398438" xlink:href="#ArialMT-48"/>
      </g>
     </g>
    </g>
    <g id="xtick_2">
     <g id="line2d_3">
      <path clip-path="url(#pf09e70ef90)" d="M 176.116364 230.545195 
L 176.116364 13.105195 
" style="fill:none;stroke:#cccccc;stroke-dasharray:3.7,1.6;stroke-dashoffset:0;"/>
     </g>
     <g id="line2d_4">
      <g>
       <use style="fill:#262626;stroke:#262626;stroke-width:1.25;" x="176.116364" xlink:href="#m488ce15e1e" y="230.545195"/>
      </g>
     </g>
     <g id="text_2">
      <!-- 0.2 -->
      <defs>
       <path d="M 50.34375 8.453125 
L 50.34375 0 
L 3.03125 0 
Q 2.9375 3.171875 4.046875 6.109375 
Q 5.859375 10.9375 9.828125 15.625 
Q 13.8125 20.3125 21.34375 26.46875 
Q 33.015625 36.03125 37.109375 41.625 
Q 41.21875 47.21875 41.21875 52.203125 
Q 41.21875 57.421875 37.46875 61 
Q 33.734375 64.59375 27.734375 64.59375 
Q 21.390625 64.59375 17.578125 60.78125 
Q 13.765625 56.984375 13.71875 50.25 
L 4.6875 51.171875 
Q 5.609375 61.28125 11.65625 66.578125 
Q 17.71875 71.875 27.9375 71.875 
Q 38.234375 71.875 44.234375 66.15625 
Q 50.25 60.453125 50.25 52 
Q 50.25 47.703125 48.484375 43.546875 
Q 46.734375 39.40625 42.65625 34.8125 
Q 38.578125 30.21875 29.109375 22.21875 
Q 21.1875 15.578125 18.9375 13.203125 
Q 16.703125 10.84375 15.234375 8.453125 
z
" id="ArialMT-50"/>
      </defs>
      <g style="fill:#262626;" transform="translate(164.648864 251.855586)scale(0.165 -0.165)">
       <use xlink:href="#ArialMT-48"/>
       <use x="55.615234" xlink:href="#ArialMT-46"/>
       <use x="83.398438" xlink:href="#ArialMT-50"/>
      </g>
     </g>
    </g>
    <g id="xtick_3">
     <g id="line2d_5">
      <path clip-path="url(#pf09e70ef90)" d="M 286.611414 230.545195 
L 286.611414 13.105195 
" style="fill:none;stroke:#cccccc;stroke-dasharray:3.7,1.6;stroke-dashoffset:0;"/>
     </g>
     <g id="line2d_6">
      <g>
       <use style="fill:#262626;stroke:#262626;stroke-width:1.25;" x="286.611414" xlink:href="#m488ce15e1e" y="230.545195"/>
      </g>
     </g>
     <g id="text_3">
      <!-- 0.4 -->
      <defs>
       <path d="M 32.328125 0 
L 32.328125 17.140625 
L 1.265625 17.140625 
L 1.265625 25.203125 
L 33.9375 71.578125 
L 41.109375 71.578125 
L 41.109375 25.203125 
L 50.78125 25.203125 
L 50.78125 17.140625 
L 41.109375 17.140625 
L 41.109375 0 
z
M 32.328125 25.203125 
L 32.328125 57.46875 
L 9.90625 25.203125 
z
" id="ArialMT-52"/>
      </defs>
      <g style="fill:#262626;" transform="translate(275.143914 251.855586)scale(0.165 -0.165)">
       <use xlink:href="#ArialMT-48"/>
       <use x="55.615234" xlink:href="#ArialMT-46"/>
       <use x="83.398438" xlink:href="#ArialMT-52"/>
      </g>
     </g>
    </g>
    <g id="xtick_4">
     <g id="line2d_7">
      <path clip-path="url(#pf09e70ef90)" d="M 397.106463 230.545195 
L 397.106463 13.105195 
" style="fill:none;stroke:#cccccc;stroke-dasharray:3.7,1.6;stroke-dashoffset:0;"/>
     </g>
     <g id="line2d_8">
      <g>
       <use style="fill:#262626;stroke:#262626;stroke-width:1.25;" x="397.106463" xlink:href="#m488ce15e1e" y="230.545195"/>
      </g>
     </g>
     <g id="text_4">
      <!-- 0.6 -->
      <defs>
       <path d="M 49.75 54.046875 
L 41.015625 53.375 
Q 39.84375 58.546875 37.703125 60.890625 
Q 34.125 64.65625 28.90625 64.65625 
Q 24.703125 64.65625 21.53125 62.3125 
Q 17.390625 59.28125 14.984375 53.46875 
Q 12.59375 47.65625 12.5 36.921875 
Q 15.671875 41.75 20.265625 44.09375 
Q 24.859375 46.4375 29.890625 46.4375 
Q 38.671875 46.4375 44.84375 39.96875 
Q 51.03125 33.5 51.03125 23.25 
Q 51.03125 16.5 48.125 10.71875 
Q 45.21875 4.9375 40.140625 1.859375 
Q 35.0625 -1.21875 28.609375 -1.21875 
Q 17.625 -1.21875 10.6875 6.859375 
Q 3.765625 14.9375 3.765625 33.5 
Q 3.765625 54.25 11.421875 63.671875 
Q 18.109375 71.875 29.4375 71.875 
Q 37.890625 71.875 43.28125 67.140625 
Q 48.6875 62.40625 49.75 54.046875 
z
M 13.875 23.1875 
Q 13.875 18.65625 15.796875 14.5 
Q 17.71875 10.359375 21.1875 8.171875 
Q 24.65625 6 28.46875 6 
Q 34.03125 6 38.03125 10.484375 
Q 42.046875 14.984375 42.046875 22.703125 
Q 42.046875 30.125 38.078125 34.390625 
Q 34.125 38.671875 28.125 38.671875 
Q 22.171875 38.671875 18.015625 34.390625 
Q 13.875 30.125 13.875 23.1875 
z
" id="ArialMT-54"/>
      </defs>
      <g style="fill:#262626;" transform="translate(385.638963 251.855586)scale(0.165 -0.165)">
       <use xlink:href="#ArialMT-48"/>
       <use x="55.615234" xlink:href="#ArialMT-46"/>
       <use x="83.398438" xlink:href="#ArialMT-54"/>
      </g>
     </g>
    </g>
    <g id="xtick_5">
     <g id="line2d_9">
      <path clip-path="url(#pf09e70ef90)" d="M 507.601513 230.545195 
L 507.601513 13.105195 
" style="fill:none;stroke:#cccccc;stroke-dasharray:3.7,1.6;stroke-dashoffset:0;"/>
     </g>
     <g id="line2d_10">
      <g>
       <use style="fill:#262626;stroke:#262626;stroke-width:1.25;" x="507.601513" xlink:href="#m488ce15e1e" y="230.545195"/>
      </g>
     </g>
     <g id="text_5">
      <!-- 0.8 -->
      <defs>
       <path d="M 17.671875 38.8125 
Q 12.203125 40.828125 9.5625 44.53125 
Q 6.9375 48.25 6.9375 53.421875 
Q 6.9375 61.234375 12.546875 66.546875 
Q 18.171875 71.875 27.484375 71.875 
Q 36.859375 71.875 42.578125 66.421875 
Q 48.296875 60.984375 48.296875 53.171875 
Q 48.296875 48.1875 45.671875 44.5 
Q 43.0625 40.828125 37.75 38.8125 
Q 44.34375 36.671875 47.78125 31.875 
Q 51.21875 27.09375 51.21875 20.453125 
Q 51.21875 11.28125 44.71875 5.03125 
Q 38.234375 -1.21875 27.640625 -1.21875 
Q 17.046875 -1.21875 10.546875 5.046875 
Q 4.046875 11.328125 4.046875 20.703125 
Q 4.046875 27.6875 7.59375 32.390625 
Q 11.140625 37.109375 17.671875 38.8125 
z
M 15.921875 53.71875 
Q 15.921875 48.640625 19.1875 45.40625 
Q 22.46875 42.1875 27.6875 42.1875 
Q 32.765625 42.1875 36.015625 45.375 
Q 39.265625 48.578125 39.265625 53.21875 
Q 39.265625 58.0625 35.90625 61.359375 
Q 32.5625 64.65625 27.59375 64.65625 
Q 22.5625 64.65625 19.234375 61.421875 
Q 15.921875 58.203125 15.921875 53.71875 
z
M 13.09375 20.65625 
Q 13.09375 16.890625 14.875 13.375 
Q 16.65625 9.859375 20.171875 7.921875 
Q 23.6875 6 27.734375 6 
Q 34.03125 6 38.125 10.046875 
Q 42.234375 14.109375 42.234375 20.359375 
Q 42.234375 26.703125 38.015625 30.859375 
Q 33.796875 35.015625 27.4375 35.015625 
Q 21.234375 35.015625 17.15625 30.90625 
Q 13.09375 26.8125 13.09375 20.65625 
z
" id="ArialMT-56"/>
      </defs>
      <g style="fill:#262626;" transform="translate(496.134013 251.855586)scale(0.165 -0.165)">
       <use xlink:href="#ArialMT-48"/>
       <use x="55.615234" xlink:href="#ArialMT-46"/>
       <use x="83.398438" xlink:href="#ArialMT-56"/>
      </g>
     </g>
    </g>
    <g id="xtick_6">
     <g id="line2d_11">
      <path clip-path="url(#pf09e70ef90)" d="M 618.096563 230.545195 
L 618.096563 13.105195 
" style="fill:none;stroke:#cccccc;stroke-dasharray:3.7,1.6;stroke-dashoffset:0;"/>
     </g>
     <g id="line2d_12">
      <g>
       <use style="fill:#262626;stroke:#262626;stroke-width:1.25;" x="618.096563" xlink:href="#m488ce15e1e" y="230.545195"/>
      </g>
     </g>
     <g id="text_6">
      <!-- 1.0 -->
      <defs>
       <path d="M 37.25 0 
L 28.46875 0 
L 28.46875 56 
Q 25.296875 52.984375 20.140625 49.953125 
Q 14.984375 46.921875 10.890625 45.40625 
L 10.890625 53.90625 
Q 18.265625 57.375 23.78125 62.296875 
Q 29.296875 67.234375 31.59375 71.875 
L 37.25 71.875 
z
" id="ArialMT-49"/>
      </defs>
      <g style="fill:#262626;" transform="translate(606.629063 251.855586)scale(0.165 -0.165)">
       <use xlink:href="#ArialMT-49"/>
       <use x="55.615234" xlink:href="#ArialMT-46"/>
       <use x="83.398438" xlink:href="#ArialMT-48"/>
      </g>
     </g>
    </g>
    <g id="text_7">
     <!-- Relative oxygen uptake rate -->
     <defs>
      <path d="M 7.859375 0 
L 7.859375 71.578125 
L 39.59375 71.578125 
Q 49.171875 71.578125 54.140625 69.640625 
Q 59.125 67.71875 62.109375 62.828125 
Q 65.09375 57.953125 65.09375 52.046875 
Q 65.09375 44.4375 60.15625 39.203125 
Q 55.21875 33.984375 44.921875 32.5625 
Q 48.6875 30.765625 50.640625 29 
Q 54.78125 25.203125 58.5 19.484375 
L 70.953125 0 
L 59.03125 0 
L 49.5625 14.890625 
Q 45.40625 21.34375 42.71875 24.75 
Q 40.046875 28.171875 37.921875 29.53125 
Q 35.796875 30.90625 33.59375 31.453125 
Q 31.984375 31.78125 28.328125 31.78125 
L 17.328125 31.78125 
L 17.328125 0 
z
M 17.328125 39.984375 
L 37.703125 39.984375 
Q 44.1875 39.984375 47.84375 41.328125 
Q 51.515625 42.671875 53.421875 45.625 
Q 55.328125 48.578125 55.328125 52.046875 
Q 55.328125 57.125 51.640625 60.390625 
Q 47.953125 63.671875 39.984375 63.671875 
L 17.328125 63.671875 
z
" id="ArialMT-82"/>
      <path d="M 42.09375 16.703125 
L 51.171875 15.578125 
Q 49.03125 7.625 43.21875 3.21875 
Q 37.40625 -1.171875 28.375 -1.171875 
Q 17 -1.171875 10.328125 5.828125 
Q 3.65625 12.84375 3.65625 25.484375 
Q 3.65625 38.578125 10.390625 45.796875 
Q 17.140625 53.03125 27.875 53.03125 
Q 38.28125 53.03125 44.875 45.953125 
Q 51.46875 38.875 51.46875 26.03125 
Q 51.46875 25.25 51.421875 23.6875 
L 12.75 23.6875 
Q 13.234375 15.140625 17.578125 10.59375 
Q 21.921875 6.0625 28.421875 6.0625 
Q 33.25 6.0625 36.671875 8.59375 
Q 40.09375 11.140625 42.09375 16.703125 
z
M 13.234375 30.90625 
L 42.1875 30.90625 
Q 41.609375 37.453125 38.875 40.71875 
Q 34.671875 45.796875 27.984375 45.796875 
Q 21.921875 45.796875 17.796875 41.75 
Q 13.671875 37.703125 13.234375 30.90625 
z
" id="ArialMT-101"/>
      <path d="M 6.390625 0 
L 6.390625 71.578125 
L 15.1875 71.578125 
L 15.1875 0 
z
" id="ArialMT-108"/>
      <path d="M 40.4375 6.390625 
Q 35.546875 2.25 31.03125 0.53125 
Q 26.515625 -1.171875 21.34375 -1.171875 
Q 12.796875 -1.171875 8.203125 3 
Q 3.609375 7.171875 3.609375 13.671875 
Q 3.609375 17.484375 5.34375 20.625 
Q 7.078125 23.78125 9.890625 25.6875 
Q 12.703125 27.59375 16.21875 28.5625 
Q 18.796875 29.25 24.03125 29.890625 
Q 34.671875 31.15625 39.703125 32.90625 
Q 39.75 34.71875 39.75 35.203125 
Q 39.75 40.578125 37.25 42.78125 
Q 33.890625 45.75 27.25 45.75 
Q 21.046875 45.75 18.09375 43.578125 
Q 15.140625 41.40625 13.71875 35.890625 
L 5.125 37.0625 
Q 6.296875 42.578125 8.984375 45.96875 
Q 11.671875 49.359375 16.75 51.1875 
Q 21.828125 53.03125 28.515625 53.03125 
Q 35.15625 53.03125 39.296875 51.46875 
Q 43.453125 49.90625 45.40625 47.53125 
Q 47.359375 45.171875 48.140625 41.546875 
Q 48.578125 39.3125 48.578125 33.453125 
L 48.578125 21.734375 
Q 48.578125 9.46875 49.140625 6.21875 
Q 49.703125 2.984375 51.375 0 
L 42.1875 0 
Q 40.828125 2.734375 40.4375 6.390625 
z
M 39.703125 26.03125 
Q 34.90625 24.078125 25.34375 22.703125 
Q 19.921875 21.921875 17.671875 20.9375 
Q 15.4375 19.96875 14.203125 18.09375 
Q 12.984375 16.21875 12.984375 13.921875 
Q 12.984375 10.40625 15.640625 8.0625 
Q 18.3125 5.71875 23.4375 5.71875 
Q 28.515625 5.71875 32.46875 7.9375 
Q 36.421875 10.15625 38.28125 14.015625 
Q 39.703125 17 39.703125 22.796875 
z
" id="ArialMT-97"/>
      <path d="M 25.78125 7.859375 
L 27.046875 0.09375 
Q 23.34375 -0.6875 20.40625 -0.6875 
Q 15.625 -0.6875 12.984375 0.828125 
Q 10.359375 2.34375 9.28125 4.8125 
Q 8.203125 7.28125 8.203125 15.1875 
L 8.203125 45.015625 
L 1.765625 45.015625 
L 1.765625 51.859375 
L 8.203125 51.859375 
L 8.203125 64.703125 
L 16.9375 69.96875 
L 16.9375 51.859375 
L 25.78125 51.859375 
L 25.78125 45.015625 
L 16.9375 45.015625 
L 16.9375 14.703125 
Q 16.9375 10.9375 17.40625 9.859375 
Q 17.875 8.796875 18.921875 8.15625 
Q 19.96875 7.515625 21.921875 7.515625 
Q 23.390625 7.515625 25.78125 7.859375 
z
" id="ArialMT-116"/>
      <path d="M 6.640625 61.46875 
L 6.640625 71.578125 
L 15.4375 71.578125 
L 15.4375 61.46875 
z
M 6.640625 0 
L 6.640625 51.859375 
L 15.4375 51.859375 
L 15.4375 0 
z
" id="ArialMT-105"/>
      <path d="M 21 0 
L 1.265625 51.859375 
L 10.546875 51.859375 
L 21.6875 20.796875 
Q 23.484375 15.765625 25 10.359375 
Q 26.171875 14.453125 28.265625 20.21875 
L 39.796875 51.859375 
L 48.828125 51.859375 
L 29.203125 0 
z
" id="ArialMT-118"/>
      <path id="ArialMT-32"/>
      <path d="M 3.328125 25.921875 
Q 3.328125 40.328125 11.328125 47.265625 
Q 18.015625 53.03125 27.640625 53.03125 
Q 38.328125 53.03125 45.109375 46.015625 
Q 51.90625 39.015625 51.90625 26.65625 
Q 51.90625 16.65625 48.90625 10.90625 
Q 45.90625 5.171875 40.15625 2 
Q 34.421875 -1.171875 27.640625 -1.171875 
Q 16.75 -1.171875 10.03125 5.8125 
Q 3.328125 12.796875 3.328125 25.921875 
z
M 12.359375 25.921875 
Q 12.359375 15.96875 16.703125 11.015625 
Q 21.046875 6.0625 27.640625 6.0625 
Q 34.1875 6.0625 38.53125 11.03125 
Q 42.875 16.015625 42.875 26.21875 
Q 42.875 35.84375 38.5 40.796875 
Q 34.125 45.75 27.640625 45.75 
Q 21.046875 45.75 16.703125 40.8125 
Q 12.359375 35.890625 12.359375 25.921875 
z
" id="ArialMT-111"/>
      <path d="M 0.734375 0 
L 19.671875 26.953125 
L 2.15625 51.859375 
L 13.140625 51.859375 
L 21.09375 39.703125 
Q 23.34375 36.234375 24.703125 33.890625 
Q 26.859375 37.109375 28.65625 39.59375 
L 37.40625 51.859375 
L 47.90625 51.859375 
L 29.984375 27.4375 
L 49.265625 0 
L 38.484375 0 
L 27.828125 16.109375 
L 25 20.453125 
L 11.375 0 
z
" id="ArialMT-120"/>
      <path d="M 6.203125 -19.96875 
L 5.21875 -11.71875 
Q 8.109375 -12.5 10.25 -12.5 
Q 13.1875 -12.5 14.9375 -11.515625 
Q 16.703125 -10.546875 17.828125 -8.796875 
Q 18.65625 -7.46875 20.515625 -2.25 
Q 20.75 -1.515625 21.296875 -0.09375 
L 1.609375 51.859375 
L 11.078125 51.859375 
L 21.875 21.828125 
Q 23.96875 16.109375 25.640625 9.8125 
Q 27.15625 15.875 29.25 21.625 
L 40.328125 51.859375 
L 49.125 51.859375 
L 29.390625 -0.875 
Q 26.21875 -9.421875 24.46875 -12.640625 
Q 22.125 -17 19.09375 -19.015625 
Q 16.0625 -21.046875 11.859375 -21.046875 
Q 9.328125 -21.046875 6.203125 -19.96875 
z
" id="ArialMT-121"/>
      <path d="M 4.984375 -4.296875 
L 13.53125 -5.5625 
Q 14.0625 -9.515625 16.5 -11.328125 
Q 19.78125 -13.765625 25.4375 -13.765625 
Q 31.546875 -13.765625 34.859375 -11.328125 
Q 38.1875 -8.890625 39.359375 -4.5 
Q 40.046875 -1.8125 39.984375 6.78125 
Q 34.234375 0 25.640625 0 
Q 14.9375 0 9.078125 7.71875 
Q 3.21875 15.4375 3.21875 26.21875 
Q 3.21875 33.640625 5.90625 39.90625 
Q 8.59375 46.1875 13.6875 49.609375 
Q 18.796875 53.03125 25.6875 53.03125 
Q 34.859375 53.03125 40.828125 45.609375 
L 40.828125 51.859375 
L 48.921875 51.859375 
L 48.921875 7.03125 
Q 48.921875 -5.078125 46.453125 -10.125 
Q 44 -15.1875 38.640625 -18.109375 
Q 33.296875 -21.046875 25.484375 -21.046875 
Q 16.21875 -21.046875 10.5 -16.875 
Q 4.78125 -12.703125 4.984375 -4.296875 
z
M 12.25 26.859375 
Q 12.25 16.65625 16.296875 11.96875 
Q 20.359375 7.28125 26.46875 7.28125 
Q 32.515625 7.28125 36.609375 11.9375 
Q 40.71875 16.609375 40.71875 26.5625 
Q 40.71875 36.078125 36.5 40.90625 
Q 32.28125 45.75 26.3125 45.75 
Q 20.453125 45.75 16.34375 40.984375 
Q 12.25 36.234375 12.25 26.859375 
z
" id="ArialMT-103"/>
      <path d="M 6.59375 0 
L 6.59375 51.859375 
L 14.5 51.859375 
L 14.5 44.484375 
Q 20.21875 53.03125 31 53.03125 
Q 35.6875 53.03125 39.625 51.34375 
Q 43.5625 49.65625 45.515625 46.921875 
Q 47.46875 44.1875 48.25 40.4375 
Q 48.734375 37.984375 48.734375 31.890625 
L 48.734375 0 
L 39.9375 0 
L 39.9375 31.546875 
Q 39.9375 36.921875 38.90625 39.578125 
Q 37.890625 42.234375 35.28125 43.8125 
Q 32.671875 45.40625 29.15625 45.40625 
Q 23.53125 45.40625 19.453125 41.84375 
Q 15.375 38.28125 15.375 28.328125 
L 15.375 0 
z
" id="ArialMT-110"/>
      <path d="M 40.578125 0 
L 40.578125 7.625 
Q 34.515625 -1.171875 24.125 -1.171875 
Q 19.53125 -1.171875 15.546875 0.578125 
Q 11.578125 2.34375 9.640625 5 
Q 7.71875 7.671875 6.9375 11.53125 
Q 6.390625 14.109375 6.390625 19.734375 
L 6.390625 51.859375 
L 15.1875 51.859375 
L 15.1875 23.09375 
Q 15.1875 16.21875 15.71875 13.8125 
Q 16.546875 10.359375 19.234375 8.375 
Q 21.921875 6.390625 25.875 6.390625 
Q 29.828125 6.390625 33.296875 8.421875 
Q 36.765625 10.453125 38.203125 13.9375 
Q 39.65625 17.4375 39.65625 24.078125 
L 39.65625 51.859375 
L 48.4375 51.859375 
L 48.4375 0 
z
" id="ArialMT-117"/>
      <path d="M 6.59375 -19.875 
L 6.59375 51.859375 
L 14.59375 51.859375 
L 14.59375 45.125 
Q 17.4375 49.078125 21 51.046875 
Q 24.5625 53.03125 29.640625 53.03125 
Q 36.28125 53.03125 41.359375 49.609375 
Q 46.4375 46.1875 49.015625 39.953125 
Q 51.609375 33.734375 51.609375 26.3125 
Q 51.609375 18.359375 48.75 11.984375 
Q 45.90625 5.609375 40.453125 2.21875 
Q 35.015625 -1.171875 29 -1.171875 
Q 24.609375 -1.171875 21.109375 0.6875 
Q 17.625 2.546875 15.375 5.375 
L 15.375 -19.875 
z
M 14.546875 25.640625 
Q 14.546875 15.625 18.59375 10.84375 
Q 22.65625 6.0625 28.421875 6.0625 
Q 34.28125 6.0625 38.453125 11.015625 
Q 42.625 15.96875 42.625 26.375 
Q 42.625 36.28125 38.546875 41.203125 
Q 34.46875 46.140625 28.8125 46.140625 
Q 23.1875 46.140625 18.859375 40.890625 
Q 14.546875 35.640625 14.546875 25.640625 
z
" id="ArialMT-112"/>
      <path d="M 6.640625 0 
L 6.640625 71.578125 
L 15.4375 71.578125 
L 15.4375 30.765625 
L 36.234375 51.859375 
L 47.609375 51.859375 
L 27.78125 32.625 
L 49.609375 0 
L 38.765625 0 
L 21.625 26.515625 
L 15.4375 20.5625 
L 15.4375 0 
z
" id="ArialMT-107"/>
      <path d="M 6.5 0 
L 6.5 51.859375 
L 14.40625 51.859375 
L 14.40625 44 
Q 17.4375 49.515625 20 51.265625 
Q 22.5625 53.03125 25.640625 53.03125 
Q 30.078125 53.03125 34.671875 50.203125 
L 31.640625 42.046875 
Q 28.421875 43.953125 25.203125 43.953125 
Q 22.3125 43.953125 20.015625 42.21875 
Q 17.71875 40.484375 16.75 37.40625 
Q 15.28125 32.71875 15.28125 27.15625 
L 15.28125 0 
z
" id="ArialMT-114"/>
     </defs>
     <g style="fill:#262626;" transform="translate(227.535937 272.019023)scale(0.18 -0.18)">
      <use xlink:href="#ArialMT-82"/>
      <use x="72.216797" xlink:href="#ArialMT-101"/>
      <use x="127.832031" xlink:href="#ArialMT-108"/>
      <use x="150.048828" xlink:href="#ArialMT-97"/>
      <use x="205.664062" xlink:href="#ArialMT-116"/>
      <use x="233.447266" xlink:href="#ArialMT-105"/>
      <use x="255.664062" xlink:href="#ArialMT-118"/>
      <use x="305.664062" xlink:href="#ArialMT-101"/>
      <use x="361.279297" xlink:href="#ArialMT-32"/>
      <use x="389.0625" xlink:href="#ArialMT-111"/>
      <use x="444.677734" xlink:href="#ArialMT-120"/>
      <use x="494.677734" xlink:href="#ArialMT-121"/>
      <use x="544.677734" xlink:href="#ArialMT-103"/>
      <use x="600.292969" xlink:href="#ArialMT-101"/>
      <use x="655.908203" xlink:href="#ArialMT-110"/>
      <use x="711.523438" xlink:href="#ArialMT-32"/>
      <use x="739.306641" xlink:href="#ArialMT-117"/>
      <use x="794.921875" xlink:href="#ArialMT-112"/>
      <use x="850.537109" xlink:href="#ArialMT-116"/>
      <use x="878.320312" xlink:href="#ArialMT-97"/>
      <use x="933.935547" xlink:href="#ArialMT-107"/>
      <use x="983.935547" xlink:href="#ArialMT-101"/>
      <use x="1039.550781" xlink:href="#ArialMT-32"/>
      <use x="1067.333984" xlink:href="#ArialMT-114"/>
      <use x="1100.634766" xlink:href="#ArialMT-97"/>
      <use x="1156.25" xlink:href="#ArialMT-116"/>
      <use x="1184.033203" xlink:href="#ArialMT-101"/>
     </g>
    </g>
   </g>
   <g id="matplotlib.axis_2">
    <g id="ytick_1">
     <g id="line2d_13">
      <path clip-path="url(#pf09e70ef90)" d="M 60.096563 230.545195 
L 618.096563 230.545195 
" style="fill:none;stroke:#cccccc;stroke-dasharray:3.7,1.6;stroke-dashoffset:0;"/>
     </g>
     <g id="line2d_14">
      <defs>
       <path d="M 0 0 
L -6 0 
" id="m1384b13a64" style="stroke:#262626;stroke-width:1.25;"/>
      </defs>
      <g>
       <use style="fill:#262626;stroke:#262626;stroke-width:1.25;" x="60.096563" xlink:href="#m1384b13a64" y="230.545195"/>
      </g>
     </g>
     <g id="text_8">
      <!-- 0.0 -->
      <g style="fill:#262626;" transform="translate(27.661563 236.450391)scale(0.165 -0.165)">
       <use xlink:href="#ArialMT-48"/>
       <use x="55.615234" xlink:href="#ArialMT-46"/>
       <use x="83.398438" xlink:href="#ArialMT-48"/>
      </g>
     </g>
    </g>
    <g id="ytick_2">
     <g id="line2d_15">
      <path clip-path="url(#pf09e70ef90)" d="M 60.096563 187.057195 
L 618.096563 187.057195 
" style="fill:none;stroke:#cccccc;stroke-dasharray:3.7,1.6;stroke-dashoffset:0;"/>
     </g>
     <g id="line2d_16">
      <g>
       <use style="fill:#262626;stroke:#262626;stroke-width:1.25;" x="60.096563" xlink:href="#m1384b13a64" y="187.057195"/>
      </g>
     </g>
     <g id="text_9">
      <!-- 0.2 -->
      <g style="fill:#262626;" transform="translate(27.661563 192.962391)scale(0.165 -0.165)">
       <use xlink:href="#ArialMT-48"/>
       <use x="55.615234" xlink:href="#ArialMT-46"/>
       <use x="83.398438" xlink:href="#ArialMT-50"/>
      </g>
     </g>
    </g>
    <g id="ytick_3">
     <g id="line2d_17">
      <path clip-path="url(#pf09e70ef90)" d="M 60.096563 143.569195 
L 618.096563 143.569195 
" style="fill:none;stroke:#cccccc;stroke-dasharray:3.7,1.6;stroke-dashoffset:0;"/>
     </g>
     <g id="line2d_18">
      <g>
       <use style="fill:#262626;stroke:#262626;stroke-width:1.25;" x="60.096563" xlink:href="#m1384b13a64" y="143.569195"/>
      </g>
     </g>
     <g id="text_10">
      <!-- 0.4 -->
      <g style="fill:#262626;" transform="translate(27.661563 149.474391)scale(0.165 -0.165)">
       <use xlink:href="#ArialMT-48"/>
       <use x="55.615234" xlink:href="#ArialMT-46"/>
       <use x="83.398438" xlink:href="#ArialMT-52"/>
      </g>
     </g>
    </g>
    <g id="ytick_4">
     <g id="line2d_19">
      <path clip-path="url(#pf09e70ef90)" d="M 60.096563 100.081195 
L 618.096563 100.081195 
" style="fill:none;stroke:#cccccc;stroke-dasharray:3.7,1.6;stroke-dashoffset:0;"/>
     </g>
     <g id="line2d_20">
      <g>
       <use style="fill:#262626;stroke:#262626;stroke-width:1.25;" x="60.096563" xlink:href="#m1384b13a64" y="100.081195"/>
      </g>
     </g>
     <g id="text_11">
      <!-- 0.6 -->
      <g style="fill:#262626;" transform="translate(27.661563 105.986391)scale(0.165 -0.165)">
       <use xlink:href="#ArialMT-48"/>
       <use x="55.615234" xlink:href="#ArialMT-46"/>
       <use x="83.398438" xlink:href="#ArialMT-54"/>
      </g>
     </g>
    </g>
    <g id="ytick_5">
     <g id="line2d_21">
      <path clip-path="url(#pf09e70ef90)" d="M 60.096563 56.593195 
L 618.096563 56.593195 
" style="fill:none;stroke:#cccccc;stroke-dasharray:3.7,1.6;stroke-dashoffset:0;"/>
     </g>
     <g id="line2d_22">
      <g>
       <use style="fill:#262626;stroke:#262626;stroke-width:1.25;" x="60.096563" xlink:href="#m1384b13a64" y="56.593195"/>
      </g>
     </g>
     <g id="text_12">
      <!-- 0.8 -->
      <g style="fill:#262626;" transform="translate(27.661563 62.498391)scale(0.165 -0.165)">
       <use xlink:href="#ArialMT-48"/>
       <use x="55.615234" xlink:href="#ArialMT-46"/>
       <use x="83.398438" xlink:href="#ArialMT-56"/>
      </g>
     </g>
    </g>
    <g id="ytick_6">
     <g id="line2d_23">
      <path clip-path="url(#pf09e70ef90)" d="M 60.096563 13.105195 
L 618.096563 13.105195 
" style="fill:none;stroke:#cccccc;stroke-dasharray:3.7,1.6;stroke-dashoffset:0;"/>
     </g>
     <g id="line2d_24">
      <g>
       <use style="fill:#262626;stroke:#262626;stroke-width:1.25;" x="60.096563" xlink:href="#m1384b13a64" y="13.105195"/>
      </g>
     </g>
     <g id="text_13">
      <!-- 1.0 -->
      <g style="fill:#262626;" transform="translate(27.661563 19.010391)scale(0.165 -0.165)">
       <use xlink:href="#ArialMT-49"/>
       <use x="55.615234" xlink:href="#ArialMT-46"/>
       <use x="83.398438" xlink:href="#ArialMT-48"/>
      </g>
     </g>
    </g>
    <g id="text_14">
     <!-- Mean relative flux -->
     <defs>
      <path d="M 7.421875 0 
L 7.421875 71.578125 
L 21.6875 71.578125 
L 38.625 20.90625 
Q 40.96875 13.8125 42.046875 10.296875 
Q 43.265625 14.203125 45.84375 21.78125 
L 62.984375 71.578125 
L 75.734375 71.578125 
L 75.734375 0 
L 66.609375 0 
L 66.609375 59.90625 
L 45.796875 0 
L 37.25 0 
L 16.546875 60.9375 
L 16.546875 0 
z
" id="ArialMT-77"/>
      <path d="M 8.6875 0 
L 8.6875 45.015625 
L 0.921875 45.015625 
L 0.921875 51.859375 
L 8.6875 51.859375 
L 8.6875 57.375 
Q 8.6875 62.59375 9.625 65.140625 
Q 10.890625 68.5625 14.078125 70.671875 
Q 17.28125 72.796875 23.046875 72.796875 
Q 26.765625 72.796875 31.25 71.921875 
L 29.9375 64.265625 
Q 27.203125 64.75 24.75 64.75 
Q 20.75 64.75 19.09375 63.03125 
Q 17.4375 61.328125 17.4375 56.640625 
L 17.4375 51.859375 
L 27.546875 51.859375 
L 27.546875 45.015625 
L 17.4375 45.015625 
L 17.4375 0 
z
" id="ArialMT-102"/>
     </defs>
     <g style="fill:#262626;" transform="translate(20.084062 192.352852)rotate(-90)scale(0.18 -0.18)">
      <use xlink:href="#ArialMT-77"/>
      <use x="83.300781" xlink:href="#ArialMT-101"/>
      <use x="138.916016" xlink:href="#ArialMT-97"/>
      <use x="194.53125" xlink:href="#ArialMT-110"/>
      <use x="250.146484" xlink:href="#ArialMT-32"/>
      <use x="277.929688" xlink:href="#ArialMT-114"/>
      <use x="311.230469" xlink:href="#ArialMT-101"/>
      <use x="366.845703" xlink:href="#ArialMT-108"/>
      <use x="389.0625" xlink:href="#ArialMT-97"/>
      <use x="444.677734" xlink:href="#ArialMT-116"/>
      <use x="472.460938" xlink:href="#ArialMT-105"/>
      <use x="494.677734" xlink:href="#ArialMT-118"/>
      <use x="544.677734" xlink:href="#ArialMT-101"/>
      <use x="600.292969" xlink:href="#ArialMT-32"/>
      <use x="628.076172" xlink:href="#ArialMT-102"/>
      <use x="655.859375" xlink:href="#ArialMT-108"/>
      <use x="678.076172" xlink:href="#ArialMT-117"/>
      <use x="733.691406" xlink:href="#ArialMT-120"/>
     </g>
    </g>
   </g>
   <g id="line2d_25">
    <path clip-path="url(#pf09e70ef90)" d="M 65.621315 230.545195 
L 66.17379 218.02954 
L 66.256662 216.875179 
L 66.356107 215.903863 
L 66.472127 214.680967 
L 66.604721 213.457857 
L 66.753889 212.49304 
L 66.930681 211.303234 
L 67.135097 210.096608 
L 67.367137 208.882434 
L 67.63785 207.660832 
L 67.952761 206.400206 
L 68.311869 205.189228 
L 68.726226 203.863738 
L 69.206879 202.586846 
L 69.764879 201.120339 
L 70.405751 199.643011 
L 71.146067 197.962834 
L 72.002404 196.308073 
L 72.991335 194.500877 
L 74.129434 192.465031 
L 75.444325 190.450166 
L 76.969157 188.30544 
L 78.720503 186.090315 
L 80.748087 183.620138 
L 83.090582 180.912539 
L 85.797711 178.049418 
L 88.919196 174.99793 
L 92.52686 171.967004 
L 96.686998 168.635088 
L 101.499058 165.135574 
L 107.051434 161.397535 
L 113.465671 157.583157 
L 120.86884 153.935733 
L 129.421157 149.84437 
L 139.293889 145.909033 
L 150.696978 141.711556 
L 163.867988 137.495818 
L 179.072107 132.710883 
L 196.635295 127.964672 
L 216.911137 122.941255 
L 240.330563 118.011287 
L 267.368701 112.850028 
L 298.600127 107.382588 
L 334.660186 101.826806 
L 376.300246 95.632233 
L 424.387691 89.18493 
L 479.916978 82.39428 
L 544.04278 74.299821 
L 618.096563 68.12167 
" style="fill:none;stroke:#66c2a5;stroke-linecap:round;stroke-width:2;"/>
   </g>
   <g id="line2d_26">
    <path clip-path="url(#pf09e70ef90)" d="M 65.621315 230.545195 
L 66.17379 220.942253 
L 66.256662 221.123279 
L 66.356107 221.09696 
L 66.472127 220.967102 
L 66.604721 220.71198 
L 66.753889 220.468551 
L 66.930681 220.266379 
L 67.135097 220.190867 
L 67.367137 219.786773 
L 67.63785 219.951934 
L 67.952761 219.702098 
L 68.311869 219.809471 
L 68.726226 219.583532 
L 69.206879 219.390379 
L 69.764879 219.27038 
L 70.405751 219.067587 
L 71.146067 218.823878 
L 72.002404 218.688763 
L 72.991335 218.277731 
L 74.129434 218.200558 
L 75.444325 218.039047 
L 76.969157 217.515711 
L 78.720503 217.166051 
L 80.748087 216.728095 
L 83.090582 216.319554 
L 85.797711 215.782089 
L 88.919196 215.094637 
L 92.52686 214.433163 
L 96.686998 213.657598 
L 101.499058 212.673781 
L 107.051434 211.500995 
L 113.465671 209.974592 
L 120.86884 208.49587 
L 129.421157 206.658105 
L 139.293889 204.866914 
L 150.696978 202.939101 
L 163.867988 200.939786 
L 179.072107 198.925174 
L 196.635295 196.544781 
L 216.911137 194.478178 
L 240.330563 191.952651 
L 267.368701 189.485396 
L 298.600127 187.270522 
L 334.660186 184.645512 
L 376.300246 181.856543 
L 424.387691 178.28106 
L 479.916978 174.071665 
L 544.04278 168.833874 
L 618.096563 163.407435 
" style="fill:none;stroke:#fc8d62;stroke-linecap:round;stroke-width:2;"/>
   </g>
   <g id="line2d_27">
    <path clip-path="url(#pf09e70ef90)" d="M 65.621315 230.545195 
L 66.17379 199.302274 
L 66.256662 196.150826 
L 66.356107 192.989556 
L 66.472127 189.884363 
L 66.604721 186.899124 
L 66.753889 184.00747 
L 66.930681 181.460253 
L 67.135097 178.981177 
L 67.367137 176.749184 
L 67.63785 174.605099 
L 67.952761 172.591555 
L 68.311869 170.712244 
L 68.726226 169.096896 
L 69.206879 167.603228 
L 69.764879 165.784119 
L 70.405751 163.963444 
L 71.146067 162.238405 
L 72.002404 160.515371 
L 72.991335 158.398836 
L 74.129434 156.695814 
L 75.444325 155.246851 
L 76.969157 153.917894 
L 78.720503 152.24665 
L 80.748087 150.444626 
L 83.090582 148.46751 
L 85.797711 146.410943 
L 88.919196 144.074874 
L 92.52686 141.860209 
L 96.686998 139.424302 
L 101.499058 136.823926 
L 107.051434 133.954862 
L 113.465671 130.781242 
L 120.86884 127.434868 
L 129.421157 124.150618 
L 139.293889 120.512723 
L 150.696978 117.157737 
L 163.867988 113.784542 
L 179.072107 110.401069 
L 196.635295 107.353445 
L 216.911137 104.331789 
L 240.330563 101.341053 
L 267.368701 98.752586 
L 298.600127 95.808449 
L 334.660186 92.613877 
L 376.300246 89.313515 
L 424.387691 85.454774 
L 479.916978 81.321359 
L 544.04278 75.879639 
L 618.096563 71.419153 
" style="fill:none;stroke:#8da0cb;stroke-linecap:round;stroke-width:2;"/>
   </g>
   <g id="line2d_28">
    <path clip-path="url(#pf09e70ef90)" d="M 65.621315 230.545195 
L 66.17379 157.855317 
L 66.256662 153.221203 
L 66.356107 149.342555 
L 66.472127 145.530776 
L 66.604721 141.633168 
L 66.753889 138.923719 
L 66.930681 136.226466 
L 67.135097 133.847994 
L 67.367137 131.702967 
L 67.63785 129.814317 
L 67.952761 127.856828 
L 68.311869 126.997902 
L 68.726226 126.072924 
L 69.206879 125.314084 
L 69.764879 125.354724 
L 70.405751 125.392584 
L 71.146067 125.293569 
L 72.002404 125.646737 
L 72.991335 126.226283 
L 74.129434 126.917383 
L 75.444325 128.046941 
L 76.969157 129.158731 
L 78.720503 131.560804 
L 80.748087 133.002738 
L 83.090582 134.806324 
L 85.797711 136.223327 
L 88.919196 137.871814 
L 92.52686 139.739699 
L 96.686998 141.734077 
L 101.499058 143.428504 
L 107.051434 144.883876 
L 113.465671 146.00977 
L 120.86884 147.276862 
L 129.421157 148.396746 
L 139.293889 149.084186 
L 150.696978 149.830864 
L 163.867988 150.322187 
L 179.072107 151.03775 
L 196.635295 152.22798 
L 216.911137 153.005432 
L 240.330563 154.289799 
L 267.368701 154.834617 
L 298.600127 155.072834 
L 334.660186 155.148185 
L 376.300246 154.523617 
L 424.387691 154.015703 
L 479.916978 152.233719 
L 544.04278 151.282885 
L 618.096563 149.104512 
" style="fill:none;stroke:#e78ac3;stroke-linecap:round;stroke-width:2;"/>
   </g>
   <g id="line2d_29">
    <path clip-path="url(#pf09e70ef90)" d="M 65.621315 230.545195 
L 66.17379 203.997645 
L 66.256662 201.765019 
L 66.356107 199.507866 
L 66.472127 197.325563 
L 66.604721 195.175558 
L 66.753889 193.085454 
L 66.930681 191.078099 
L 67.135097 189.101977 
L 67.367137 187.283884 
L 67.63785 185.532489 
L 67.952761 183.815659 
L 68.311869 182.168726 
L 68.726226 180.576718 
L 69.206879 178.892849 
L 69.764879 177.133655 
L 70.405751 175.330117 
L 71.146067 173.451943 
L 72.002404 171.490704 
L 72.991335 169.47587 
L 74.129434 167.494938 
L 75.444325 165.363756 
L 76.969157 163.110245 
L 78.720503 160.659427 
L 80.748087 157.952885 
L 83.090582 155.027861 
L 85.797711 151.952174 
L 88.919196 148.631558 
L 92.52686 145.035175 
L 96.686998 141.107967 
L 101.499058 136.905678 
L 107.051434 132.298891 
L 113.465671 127.337552 
L 120.86884 122.131925 
L 129.421157 116.672914 
L 139.293889 110.995342 
L 150.696978 105.069497 
L 163.867988 98.910326 
L 179.072107 92.584437 
L 196.635295 86.081927 
L 216.911137 79.313951 
L 240.330563 72.423295 
L 267.368701 65.32314 
L 298.600127 58.08219 
L 334.660186 50.590687 
L 376.300246 42.962346 
L 424.387691 35.249606 
L 479.916978 27.304336 
L 544.04278 19.440598 
L 618.096563 14.389837 
" style="fill:none;stroke:#a6d854;stroke-linecap:round;stroke-width:2;"/>
   </g>
   <g id="line2d_30">
    <path clip-path="url(#pf09e70ef90)" d="M 65.621315 230.545195 
L 66.17379 147.593443 
L 66.256662 143.043846 
L 66.356107 138.570617 
L 66.472127 134.56404 
L 66.604721 130.877282 
L 66.753889 127.12933 
L 66.930681 123.618038 
L 67.135097 120.488684 
L 67.367137 117.835522 
L 67.63785 115.335471 
L 67.952761 112.928285 
L 68.311869 110.703529 
L 68.726226 108.717555 
L 69.206879 106.723949 
L 69.764879 104.913186 
L 70.405751 102.954558 
L 71.146067 101.155203 
L 72.002404 99.432533 
L 72.991335 97.96181 
L 74.129434 96.593414 
L 75.444325 95.397484 
L 76.969157 94.072163 
L 78.720503 92.802862 
L 80.748087 91.43379 
L 83.090582 90.323593 
L 85.797711 89.188128 
L 88.919196 87.94897 
L 92.52686 86.601644 
L 96.686998 85.568555 
L 101.499058 84.396758 
L 107.051434 82.976727 
L 113.465671 81.365772 
L 120.86884 79.451121 
L 129.421157 77.68851 
L 139.293889 75.96749 
L 150.696978 74.222419 
L 163.867988 72.564225 
L 179.072107 70.947679 
L 196.635295 69.021444 
L 216.911137 67.352985 
L 240.330563 65.828731 
L 267.368701 64.234163 
L 298.600127 62.730777 
L 334.660186 60.810157 
L 376.300246 58.726431 
L 424.387691 56.676228 
L 479.916978 54.445123 
L 544.04278 52.101458 
L 618.096563 50.652429 
" style="fill:none;stroke:#ffd92f;stroke-linecap:round;stroke-width:2;"/>
   </g>
   <g id="line2d_31">
    <path clip-path="url(#pf09e70ef90)" d="M 65.621315 230.545195 
L 66.17379 193.130131 
L 66.256662 190.665776 
L 66.356107 188.348282 
L 66.472127 185.214595 
L 66.604721 182.608198 
L 66.753889 180.048572 
L 66.930681 177.212579 
L 67.135097 175.485655 
L 67.367137 174.053367 
L 67.63785 172.357415 
L 67.952761 170.611166 
L 68.311869 169.376526 
L 68.726226 168.133365 
L 69.206879 167.150107 
L 69.764879 165.986889 
L 70.405751 164.055764 
L 71.146067 162.599885 
L 72.002404 161.215417 
L 72.991335 159.527247 
L 74.129434 158.208078 
L 75.444325 157.157351 
L 76.969157 156.205535 
L 78.720503 155.267782 
L 80.748087 154.46956 
L 83.090582 153.384598 
L 85.797711 152.514855 
L 88.919196 151.203963 
L 92.52686 149.209888 
L 96.686998 147.464978 
L 101.499058 145.517092 
L 107.051434 143.190342 
L 113.465671 140.004537 
L 120.86884 137.113354 
L 129.421157 134.311271 
L 139.293889 130.474176 
L 150.696978 127.112207 
L 163.867988 123.575757 
L 179.072107 119.859902 
L 196.635295 115.679649 
L 216.911137 110.711504 
L 240.330563 105.857301 
L 267.368701 100.680401 
L 298.600127 95.532005 
L 334.660186 90.186668 
L 376.300246 85.277313 
L 424.387691 80.268503 
L 479.916978 74.945026 
L 544.04278 69.302283 
L 618.096563 65.028591 
" style="fill:none;stroke:#e5c494;stroke-linecap:round;stroke-width:2;"/>
   </g>
   <g id="line2d_32">
    <path clip-path="url(#pf09e70ef90)" d="M 65.621315 230.545195 
L 66.17379 230.226778 
L 66.256662 230.283001 
L 66.356107 230.281753 
L 66.472127 230.284912 
L 66.604721 230.269706 
L 66.753889 230.264517 
L 66.930681 230.277683 
L 67.135097 230.27644 
L 67.367137 230.261589 
L 67.63785 230.26218 
L 67.952761 230.272307 
L 68.311869 230.265512 
L 68.726226 230.259551 
L 69.206879 230.258994 
L 69.764879 230.254699 
L 70.405751 230.232929 
L 71.146067 230.235873 
L 72.002404 230.226672 
L 72.991335 230.212796 
L 74.129434 230.20827 
L 75.444325 230.214541 
L 76.969157 230.202125 
L 78.720503 230.201875 
L 80.748087 230.187961 
L 83.090582 230.179062 
L 85.797711 230.153304 
L 88.919196 230.148577 
L 92.52686 230.143626 
L 96.686998 230.11511 
L 101.499058 230.0863 
L 107.051434 230.063594 
L 113.465671 230.027267 
L 120.86884 229.955363 
L 129.421157 229.874573 
L 139.293889 229.787851 
L 150.696978 229.682519 
L 163.867988 229.558033 
L 179.072107 229.396554 
L 196.635295 229.246153 
L 216.911137 229.046163 
L 240.330563 228.764636 
L 267.368701 228.428353 
L 298.600127 228.022869 
L 334.660186 227.480742 
L 376.300246 226.82923 
L 424.387691 226.087098 
L 479.916978 225.051641 
L 544.04278 223.701454 
L 618.096563 221.804212 
" style="fill:none;stroke:#b3b3b3;stroke-linecap:round;stroke-width:2;"/>
   </g>
   <g id="line2d_33"/>
   <g id="line2d_34"/>
   <g id="line2d_35"/>
   <g id="line2d_36"/>
   <g id="line2d_37"/>
   <g id="line2d_38"/>
   <g id="line2d_39"/>
   <g id="line2d_40"/>
   <g id="line2d_41">
    <path clip-path="url(#pf09e70ef90)" d="M 65.621315 230.545195 
L 66.17379 203.923325 
L 66.256662 201.671777 
L 66.356107 199.426832 
L 66.472127 197.227703 
L 66.604721 195.101451 
L 66.753889 193.00231 
L 66.930681 190.996859 
L 67.135097 189.0514 
L 67.367137 187.236886 
L 67.63785 185.451983 
L 67.952761 183.705539 
L 68.311869 182.019896 
L 68.726226 180.385401 
L 69.206879 178.69412 
L 69.764879 176.909368 
L 70.405751 175.072292 
L 71.146067 173.17043 
L 72.002404 171.209947 
L 72.991335 169.197122 
L 74.129434 167.142676 
L 75.444325 164.985978 
L 76.969157 162.703413 
L 78.720503 160.235144 
L 80.748087 157.532367 
L 83.090582 154.598012 
L 85.797711 151.483499 
L 88.919196 148.091091 
L 92.52686 144.409905 
L 96.686998 140.435595 
L 101.499058 136.180367 
L 107.051434 131.530697 
L 113.465671 126.510157 
L 120.86884 121.229899 
L 129.421157 115.740992 
L 139.293889 110.005815 
L 150.696978 104.022661 
L 163.867988 97.793452 
L 179.072107 91.410177 
L 196.635295 84.82006 
L 216.911137 78.021686 
L 240.330563 71.079282 
L 267.368701 63.971352 
L 298.600127 56.686996 
L 334.660186 49.226588 
L 376.300246 41.555545 
L 424.387691 33.765283 
L 479.916978 25.872632 
L 544.04278 18.064401 
L 618.096563 13.105195 
" style="fill:none;stroke:#1a1a1a;stroke-dasharray:7.5,15;stroke-dashoffset:0;stroke-width:1.5;"/>
   </g>
   <g id="patch_3">
    <path d="M 60.096563 230.545195 
L 60.096563 13.105195 
" style="fill:none;stroke:#262626;stroke-linecap:square;stroke-linejoin:miter;stroke-width:1.25;"/>
   </g>
   <g id="patch_4">
    <path d="M 618.096563 230.545195 
L 618.096563 13.105195 
" style="fill:none;stroke:#262626;stroke-linecap:square;stroke-linejoin:miter;stroke-width:1.25;"/>
   </g>
   <g id="patch_5">
    <path d="M 60.096563 230.545195 
L 618.096563 230.545195 
" style="fill:none;stroke:#262626;stroke-linecap:square;stroke-linejoin:miter;stroke-width:1.25;"/>
   </g>
   <g id="patch_6">
    <path d="M 60.096563 13.105195 
L 618.096563 13.105195 
" style="fill:none;stroke:#262626;stroke-linecap:square;stroke-linejoin:miter;stroke-width:1.25;"/>
   </g>
   <g id="legend_1">
    <g id="patch_7">
     <path d="M 456.195469 222.295195 
L 606.546563 222.295195 
Q 609.846563 222.295195 609.846563 218.995195 
L 609.846563 102.57457 
Q 609.846563 99.27457 606.546563 99.27457 
L 456.195469 99.27457 
Q 452.895469 99.27457 452.895469 102.57457 
L 452.895469 218.995195 
Q 452.895469 222.295195 456.195469 222.295195 
z
" style="fill:#ffffff;opacity:0.8;stroke:#cccccc;stroke-linejoin:miter;"/>
    </g>
    <g id="text_15">
     <!-- Cluster -->
     <defs>
      <path d="M 58.796875 25.09375 
L 68.265625 22.703125 
Q 65.28125 11.03125 57.546875 4.90625 
Q 49.8125 -1.21875 38.625 -1.21875 
Q 27.046875 -1.21875 19.796875 3.484375 
Q 12.546875 8.203125 8.765625 17.140625 
Q 4.984375 26.078125 4.984375 36.328125 
Q 4.984375 47.515625 9.25 55.828125 
Q 13.53125 64.15625 21.40625 68.46875 
Q 29.296875 72.796875 38.765625 72.796875 
Q 49.515625 72.796875 56.828125 67.328125 
Q 64.15625 61.859375 67.046875 51.953125 
L 57.71875 49.75 
Q 55.21875 57.5625 50.484375 61.125 
Q 45.75 64.703125 38.578125 64.703125 
Q 30.328125 64.703125 24.78125 60.734375 
Q 19.234375 56.78125 16.984375 50.109375 
Q 14.75 43.453125 14.75 36.375 
Q 14.75 27.25 17.40625 20.4375 
Q 20.0625 13.625 25.671875 10.25 
Q 31.296875 6.890625 37.84375 6.890625 
Q 45.796875 6.890625 51.3125 11.46875 
Q 56.84375 16.0625 58.796875 25.09375 
z
" id="ArialMT-67"/>
      <path d="M 3.078125 15.484375 
L 11.765625 16.84375 
Q 12.5 11.625 15.84375 8.84375 
Q 19.1875 6.0625 25.203125 6.0625 
Q 31.25 6.0625 34.171875 8.515625 
Q 37.109375 10.984375 37.109375 14.3125 
Q 37.109375 17.28125 34.515625 19 
Q 32.71875 20.171875 25.53125 21.96875 
Q 15.875 24.421875 12.140625 26.203125 
Q 8.40625 27.984375 6.46875 31.125 
Q 4.546875 34.28125 4.546875 38.09375 
Q 4.546875 41.546875 6.125 44.5 
Q 7.71875 47.46875 10.453125 49.421875 
Q 12.5 50.921875 16.03125 51.96875 
Q 19.578125 53.03125 23.640625 53.03125 
Q 29.734375 53.03125 34.34375 51.265625 
Q 38.96875 49.515625 41.15625 46.5 
Q 43.359375 43.5 44.1875 38.484375 
L 35.59375 37.3125 
Q 35.015625 41.3125 32.203125 43.546875 
Q 29.390625 45.796875 24.265625 45.796875 
Q 18.21875 45.796875 15.625 43.796875 
Q 13.03125 41.796875 13.03125 39.109375 
Q 13.03125 37.40625 14.109375 36.03125 
Q 15.1875 34.625 17.484375 33.6875 
Q 18.796875 33.203125 25.25 31.453125 
Q 34.578125 28.953125 38.25 27.359375 
Q 41.9375 25.78125 44.03125 22.75 
Q 46.140625 19.734375 46.140625 15.234375 
Q 46.140625 10.84375 43.578125 6.953125 
Q 41.015625 3.078125 36.171875 0.953125 
Q 31.34375 -1.171875 25.25 -1.171875 
Q 15.140625 -1.171875 9.84375 3.03125 
Q 4.546875 7.234375 3.078125 15.484375 
z
" id="ArialMT-115"/>
     </defs>
     <g style="fill:#262626;" transform="translate(502.864922 118.758633)scale(0.18 -0.18)">
      <use xlink:href="#ArialMT-67"/>
      <use x="72.216797" xlink:href="#ArialMT-108"/>
      <use x="94.433594" xlink:href="#ArialMT-117"/>
      <use x="150.048828" xlink:href="#ArialMT-115"/>
      <use x="200.048828" xlink:href="#ArialMT-116"/>
      <use x="227.832031" xlink:href="#ArialMT-101"/>
      <use x="283.447266" xlink:href="#ArialMT-114"/>
     </g>
    </g>
    <g id="line2d_42">
     <path d="M 459.495469 136.621523 
L 492.495469 136.621523 
" style="fill:none;stroke:#66c2a5;stroke-linecap:round;stroke-width:1.5;"/>
    </g>
    <g id="line2d_43"/>
    <g id="text_16">
     <!-- 1 -->
     <g style="fill:#262626;" transform="translate(505.695469 142.396523)scale(0.165 -0.165)">
      <use xlink:href="#ArialMT-49"/>
     </g>
    </g>
    <g id="line2d_44">
     <path d="M 459.495469 159.961289 
L 492.495469 159.961289 
" style="fill:none;stroke:#fc8d62;stroke-linecap:round;stroke-width:1.5;"/>
    </g>
    <g id="line2d_45"/>
    <g id="text_17">
     <!-- 2 -->
     <g style="fill:#262626;" transform="translate(505.695469 165.736289)scale(0.165 -0.165)">
      <use xlink:href="#ArialMT-50"/>
     </g>
    </g>
    <g id="line2d_46">
     <path d="M 459.495469 183.301055 
L 492.495469 183.301055 
" style="fill:none;stroke:#8da0cb;stroke-linecap:round;stroke-width:1.5;"/>
    </g>
    <g id="line2d_47"/>
    <g id="text_18">
     <!-- 3 -->
     <defs>
      <path d="M 4.203125 18.890625 
L 12.984375 20.0625 
Q 14.5 12.59375 18.140625 9.296875 
Q 21.78125 6 27 6 
Q 33.203125 6 37.46875 10.296875 
Q 41.75 14.59375 41.75 20.953125 
Q 41.75 27 37.796875 30.921875 
Q 33.84375 34.859375 27.734375 34.859375 
Q 25.25 34.859375 21.53125 33.890625 
L 22.515625 41.609375 
Q 23.390625 41.5 23.921875 41.5 
Q 29.546875 41.5 34.03125 44.421875 
Q 38.53125 47.359375 38.53125 53.46875 
Q 38.53125 58.296875 35.25 61.46875 
Q 31.984375 64.65625 26.8125 64.65625 
Q 21.6875 64.65625 18.265625 61.421875 
Q 14.84375 58.203125 13.875 51.765625 
L 5.078125 53.328125 
Q 6.6875 62.15625 12.390625 67.015625 
Q 18.109375 71.875 26.609375 71.875 
Q 32.46875 71.875 37.390625 69.359375 
Q 42.328125 66.84375 44.9375 62.5 
Q 47.5625 58.15625 47.5625 53.265625 
Q 47.5625 48.640625 45.0625 44.828125 
Q 42.578125 41.015625 37.703125 38.765625 
Q 44.046875 37.3125 47.5625 32.6875 
Q 51.078125 28.078125 51.078125 21.140625 
Q 51.078125 11.765625 44.234375 5.25 
Q 37.40625 -1.265625 26.953125 -1.265625 
Q 17.53125 -1.265625 11.296875 4.34375 
Q 5.078125 9.96875 4.203125 18.890625 
z
" id="ArialMT-51"/>
     </defs>
     <g style="fill:#262626;" transform="translate(505.695469 189.076055)scale(0.165 -0.165)">
      <use xlink:href="#ArialMT-51"/>
     </g>
    </g>
    <g id="line2d_48">
     <path d="M 459.495469 206.64082 
L 492.495469 206.64082 
" style="fill:none;stroke:#e78ac3;stroke-linecap:round;stroke-width:1.5;"/>
    </g>
    <g id="line2d_49"/>
    <g id="text_19">
     <!-- 4 -->
     <g style="fill:#262626;" transform="translate(505.695469 212.41582)scale(0.165 -0.165)">
      <use xlink:href="#ArialMT-52"/>
     </g>
    </g>
    <g id="line2d_50">
     <path d="M 547.871016 136.621523 
L 580.871016 136.621523 
" style="fill:none;stroke:#a6d854;stroke-linecap:round;stroke-width:1.5;"/>
    </g>
    <g id="line2d_51"/>
    <g id="text_20">
     <!-- 5 -->
     <defs>
      <path d="M 4.15625 18.75 
L 13.375 19.53125 
Q 14.40625 12.796875 18.140625 9.390625 
Q 21.875 6 27.15625 6 
Q 33.5 6 37.890625 10.78125 
Q 42.28125 15.578125 42.28125 23.484375 
Q 42.28125 31 38.0625 35.34375 
Q 33.84375 39.703125 27 39.703125 
Q 22.75 39.703125 19.328125 37.765625 
Q 15.921875 35.84375 13.96875 32.765625 
L 5.71875 33.84375 
L 12.640625 70.609375 
L 48.25 70.609375 
L 48.25 62.203125 
L 19.671875 62.203125 
L 15.828125 42.96875 
Q 22.265625 47.46875 29.34375 47.46875 
Q 38.71875 47.46875 45.15625 40.96875 
Q 51.609375 34.46875 51.609375 24.265625 
Q 51.609375 14.546875 45.953125 7.46875 
Q 39.0625 -1.21875 27.15625 -1.21875 
Q 17.390625 -1.21875 11.203125 4.25 
Q 5.03125 9.71875 4.15625 18.75 
z
" id="ArialMT-53"/>
     </defs>
     <g style="fill:#262626;" transform="translate(594.071016 142.396523)scale(0.165 -0.165)">
      <use xlink:href="#ArialMT-53"/>
     </g>
    </g>
    <g id="line2d_52">
     <path d="M 547.871016 159.961289 
L 580.871016 159.961289 
" style="fill:none;stroke:#ffd92f;stroke-linecap:round;stroke-width:1.5;"/>
    </g>
    <g id="line2d_53"/>
    <g id="text_21">
     <!-- 6 -->
     <g style="fill:#262626;" transform="translate(594.071016 165.736289)scale(0.165 -0.165)">
      <use xlink:href="#ArialMT-54"/>
     </g>
    </g>
    <g id="line2d_54">
     <path d="M 547.871016 183.301055 
L 580.871016 183.301055 
" style="fill:none;stroke:#e5c494;stroke-linecap:round;stroke-width:1.5;"/>
    </g>
    <g id="line2d_55"/>
    <g id="text_22">
     <!-- 7 -->
     <defs>
      <path d="M 4.734375 62.203125 
L 4.734375 70.65625 
L 51.078125 70.65625 
L 51.078125 63.8125 
Q 44.234375 56.546875 37.515625 44.484375 
Q 30.8125 32.421875 27.15625 19.671875 
Q 24.515625 10.6875 23.78125 0 
L 14.75 0 
Q 14.890625 8.453125 18.0625 20.40625 
Q 21.234375 32.375 27.171875 43.484375 
Q 33.109375 54.59375 39.796875 62.203125 
z
" id="ArialMT-55"/>
     </defs>
     <g style="fill:#262626;" transform="translate(594.071016 189.076055)scale(0.165 -0.165)">
      <use xlink:href="#ArialMT-55"/>
     </g>
    </g>
    <g id="line2d_56">
     <path d="M 547.871016 206.64082 
L 580.871016 206.64082 
" style="fill:none;stroke:#b3b3b3;stroke-linecap:round;stroke-width:1.5;"/>
    </g>
    <g id="line2d_57"/>
    <g id="text_23">
     <!-- 8 -->
     <g style="fill:#262626;" transform="translate(594.071016 212.41582)scale(0.165 -0.165)">
      <use xlink:href="#ArialMT-56"/>
     </g>
    </g>
   </g>
  </g>
 </g>
 <defs>
  <clipPath id="pf09e70ef90">
   <rect height="217.44" width="558" x="60.096563" y="13.105195"/>
  </clipPath>
 </defs>
</svg>
