,EX_lys__L_e,EX_val__L_e,EX_thr__L_e,EX_ile__L_e,EX_met__L_e,EX_leu__L_e,EX_phe__L_e,EX_his__L_e,EX_arg__L_e,EX_trp__L_e,EX_cys__L_e
EX_lys__L_e,0.0,0.0,0.0,0.0,0.0,0.0,0.0,0.0,0.0,0.0,0.0
EX_thr__L_e,0.0,0.0,0.0,0.0,0.0,0.0,0.0,0.0,0.0,0.0,0.0
EX_met__L_e,1.9473127861845136,1.4480846207981495,1.4125480201820073,0.34666437170891623,0.0,0.0,0.0,0.0,0.0,0.0,0.0
EX_cys__L_e,11.267927098454559,10.667161001125207,10.624396617332897,9.341723074255063,3.343707903269784,0.0,0.0,0.0,0.0,0.0,0.0
EX_trp__L_e,0.0,0.0,0.0,0.0,0.0,0.0,0.0,0.0,0.0,0.0,0.0
EX_ile__L_e,5.100371219006706,3.5096102852332085,3.396375015473293,0.0,0.0,0.0,0.0,0.0,0.0,0.0,0.0
EX_val__L_e,1.7261448430305197,0.0,0.0,0.0,0.0,0.0,0.0,0.0,0.0,0.0,0.0
EX_leu__L_e,14.573521566772987,11.802382174162236,11.605123924979408,5.688566384726021,3.76428533837448,0.0,0.0,0.0,0.0,0.0,0.0
EX_phe__L_e,12.786403076801491,10.98410478481343,10.85581163343651,7.007791004203003,5.756273865659869,2.260202096926041,0.0,0.0,0.0,0.0,0.0
EX_tyr__L_e,5.392058412837998,4.148218746536381,4.0596784026283625,1.404002193720733,0.540279098106457,0.0,0.0,0.0,0.0,0.0,0.0
EX_his__L_e,0.0,0.0,0.0,0.0,0.0,0.0,0.0,0.0,0.0,0.0,0.0
EX_arg__L_e,0.0,0.0,0.0,0.0,0.0,0.0,0.0,0.0,0.0,0.0,0.0
EX_ala__L_e,31.697908278125862,17.977038580649786,17.00034475535582,0.0,0.0,0.0,0.0,0.0,0.0,0.0,0.0
EX_asn__L_e,0.0,0.0,0.0,0.0,0.0,0.0,0.0,0.0,0.0,0.0,0.0
EX_asp__L_e,41.547496713053,39.497699711953906,39.351788839085074,34.97534284175261,33.55196243418418,1.5396047882442465,0.0,0.0,0.0,0.0,0.0
EX_gln__L_e,0.0,0.0,0.0,0.0,0.0,0.0,0.0,0.0,0.0,0.0,0.0
EX_glu__L_e,65.60131059955738,62.36478901887459,62.13440343013434,55.224225539609385,52.97678279081713,48.58032739561551,45.57343239804118,0.0,0.0,0.0,0.0
EX_gly_e,0.0,0.0,0.0,0.0,0.0,0.0,0.0,0.0,0.0,0.0,0.0
EX_ser__L_e,0.0,0.0,0.0,0.0,0.0,0.0,0.0,0.0,0.0,0.0,0.0
EX_pro__L_e,35.58763908342001,33.831879010239156,33.70689859281797,29.95823999861162,28.73903903031256,26.354033815922136,9.122138607738366,0.0,0.0,0.0,0.0
