100195133,213511272
100195133,209154760
100195133,929214130
106579465,929276230
106579465,929276228
106579465,929276232
100196460,213514334
100196460,223647408
100196460,209737564
106570652,929245032
106592678,224587804
106592678,209155940
106592678,929052591
106592678,929052589
106570897,929245742
106571977,929249759
106566158,929226189
106566158,929226187
106590260,929317378
106590260,223648704
106590260,929317376
106590260,929317374
106611042,929110132
106611042,929110130
106581777,929285123
106580447,929280252
106580447,929280254
106580202,929279288
106580202,929279286
106580202,929279284
106580202,929279282
106580202,929279290
100196235,213514534
100196235,209735534
106578367,929052043
106581773,929285105
106581773,929285103
100196233,303658688
100196233,213514194
100196233,209735522
106577031,929267178
106611056,929110195
106611056,929110197
100195141,213512670
100195141,209154786
100195141,223649242
100195141,929311207
106580683,929052140
106580683,929052138
106566382,929226840
106600163,929327720
106571975,929249751
100195147,929277471
100195147,221219674
100195147,929277473
100195147,213513618
100195147,209154812
106604524,929088078
106604524,929088076
106593545,929324490
106601014,929076053
106569657,929241436
106569657,929241438
106605855,929093076
106592454,929322642
106590278,929317447
106590278,929317445
106566383,929226846
106566383,929226844
106566383,929226842
106565054,929051560
106601015,929076057
106601015,929076055
106601015,929076059
106566385,929226856
100380562,223649180
100380562,291190849
106585920,929301414
106599083,929324009
106569416,929240579
106582613,303665613
106582613,929066113
106582613,209735178
106599099,223648324
106599099,929324801
106608092,929100443
106608092,929100441
106608092,929100439
106609182,929104058
106580430,209155154
106580430,929280179
106579442,929276139
100286487,226443406
100286487,221219806
100286487,221222292
100196687,209147767
100196687,213514314
100196688,209147904
100196688,213514476
106565287,929059859
106565287,929059849
106565287,929059861
106565287,929059851
106565287,929059863
106565287,929059853
106565287,929059855
106565287,929059857
106595731,929321851
106569882,929242151
106612591,197632387
106612591,197632231
106612591,929115803
106612591,929115801
106584842,929297147
106575080,929063421
106581512,929284199
106581512,929284197
106581512,929284201
106560813,929123935
106560813,929123937
100195121,209154718
100195121,213514082
100195121,223647846
100196692,209149931
100196692,213515164
100196692,929091978
100196450,209736436
100196450,209737500
100196450,303661461
100196450,213512731
100196450,303659761
106560816,209150416
106560816,929123945
106593318,929329791
106571950,929249668
106571950,929249670
100196214,223672701
100196214,213511040
100196214,209735384
100196214,223646840
100196215,213511196
100196215,303660927
100196215,223647142
100196215,469832352
100196215,209735398
100196215,223673015
106594657,929320241
106571948,929249664
106566120,209155644
106566120,929226101
106566120,929226099
106571947,929249658
106571947,929249660
106571947,929249662
106566363,929226752
106566363,929226750
106591143,929069293
100380340,929313224
100380340,223648100
100380340,291190274
106601239,929076864
106568307,929061057
106581504,929052168
106611031,929110087
106599274,929328798
106579029,929274454
106579029,929274456
106579029,929274452
100196266,929253603
100196266,213515072
100196266,209735850
106611485,929111757
106611485,223647764
106561977,929128429
106561977,929128431
106580495,929280442
106580495,929280444
106572871,929253211
106593728,929321187
106608078,929055894
106608078,929055892
106571543,929062251
106571543,929062253
106571543,929062249
106571543,929062247
106594812,929323453
106572868,929253205
106572868,929253203
106572868,929253201
106587295,929306898
106587295,929306896
106587295,929306902
106587295,929306900
106594821,929321504
106590221,929317238
106590221,929317236
106590221,929317234
106590221,929317232
106600595,209154586
106600595,929053111
106591313,929069354
106591313,929069352
106560893,929124236
106560893,929124238
106561984,929128449
106561984,929128453
106561984,929128451
106579015,929274368
106560636,929123093
106580000,929278364
106580000,223649432
106580000,929278366
106599047,929071781
106592407,209154560
106592407,929327190
106590467,929318213
106592895,929321107
106571767,929249042
106571767,929249048
106571767,929249044
106571767,929249046
106572614,209733054
106572614,209736534
106572614,929252320
106591566,929069450
106593741,929324868
106592890,929323349
100380763,929051085
100380763,224613508
106568363,929061081
106590230,929317276
100195398,929113501
100195398,929113499
100195398,929113505
100195398,929113503
100195398,223647680
100195398,929113507
100195398,213512863
100195398,929113497
100195398,209155748
106611220,929110756
106599053,929329972
100196487,209737776
100196487,213513890
106583703,929292893
106583705,929292908
106583705,929292919
106583705,929292906
106583705,929292916
106583705,929292904
106583705,929292914
106583705,929292902
106583705,929292912
106583705,929292900
106583705,929292910
100195397,213512690
100195397,209155742
106612554,929057469
106612554,929057467
106612554,929057471
106613885,929120889
106613885,929120887
106591329,929069358
106591329,929069360
106611469,929111710
106611469,929111712
106611469,929111714
106611469,929111716
106611469,929111708
106573701,929256243
106573943,929257068
106608299,929101138
106608299,929101143
106608299,929101141
100196489,209737786
100196489,213514212
106590001,929052479
106568356,929236554
100380798,291190668
100380798,929074751
100380798,223647884
106589258,929313355
106589258,929313361
106589258,929313357
106589258,929313359
106602756,929081241
106602756,224587121
106567023,929229531
106567023,929229533
106583951,929066703
106577060,929267316
106560874,929124169
106577298,929268195
106577298,929268197
106577298,929268199
106599064,929071814
106599064,209156032
106599064,929071816
106599064,929071804
106599064,929071806
106599064,929071808
106599064,929071810
106599064,929071812
106561705,929127370
100195168,308191492
100195168,213512290
100195168,209154878
106611232,209154348
106611232,929110812
106611232,197631999
106611232,929110814
100196494,209737806
100196494,197632131
100196494,218931246
100196494,209738612
100196494,209736114
100196492,213514732
100196492,209737796
100286671,929063591
100286671,221221824
100286671,929063589
106592432,929069728
100380546,291190710
100380546,929275933
100380546,223649126
106602764,929081263
100380782,929221313
100380782,929221315
100380782,267881844
100380782,86372253
106560865,929058304
106579862,929277682
106579862,929277690
106579862,929277688
106579862,929277684
106579862,929277686
106613069,209735878
106613069,929057707
106575022,929063399
106575022,929063405
106575022,929063407
106575022,929063401
106575022,929063403
106599478,929334060
106578535,929272558
106578535,929272568
106578535,929272566
106578535,929272560
106578535,929272570
106578535,929272564
106578535,929272562
106592840,929335486
106592840,929335488
106592840,929335490
100306802,259155142
100306802,223647530
100306805,223647538
100306805,929098424
100306805,259155148
106587015,929305557
106587015,929305555
106587015,929305553
106587015,929305551
106587015,929305549
106606778,929095517
106569828,929241917
106569828,929241919
106566799,929228438
106566799,929228440
106573080,929253878
106573080,929253876
100195300,209155378
100195300,213511344
106599000,929332894
106577431,929268523
106575257,929261342
100196879,213512993
100196879,209732922
100196879,209737858
100196879,929245552
106603271,929083319
106603271,929083309
106603271,929083321
106603271,929083311
106603271,929083323
106603271,929083313
106603271,929083325
106603271,929083315
106603271,929083327
106603271,929083317
106603271,929083307
100196874,929220754
100196874,209737516
100196874,929220756
100196874,213512035
106579858,929277671
106579858,929277673
106579858,929277675
106561094,929125062
106586173,929302264
100306814,929102994
100306814,259155166
100306814,929102996
100306814,223647592
106586175,929067520
106566785,929228372
106566785,929228370
106566785,929228374
106589688,929315238
106606305,929094251
100196629,209733304
100196629,221219562
100196629,303661700
100196629,929282436
100196629,213514080
100196629,929282438
100196629,929282440
106563274,929189868
106563274,929190695
106563274,929190330
106563274,929189983
106563274,929190267
106563274,929190024
106563274,929190612
106563274,929190128
106563274,929190675
106587025,929305631
106587025,929305629
106587025,929305627
106587025,929305625
106588118,929309250
106589447,929314257
106589447,929314259
106564367,929219479
106565215,929222567
106565215,929222569
106565215,929222571
106565215,929222573
100195992,224747157
100195992,223672821
100195992,223646958
100195992,209733756
100195992,213512026
106579841,929277589
106579841,929277585
106579841,929277587
106573060,929253791
106598166,929071096
106599499,929050718
106578992,929274275
106583908,929293566
106573069,28194978
106573069,929253832
106573069,929253830
106593947,929330190
100196601,209147524
100196601,213515414
106585093,929298067
106601062,929053258
106564352,929219452
106566775,929228346
106564354,929219454
106567863,929234373
106587277,929306836
106568718,929237854
106567627,929232112
106567627,197632385
106573293,929254757
106578501,929272403
106578501,929272401
106578501,929272399
106578501,929272397
106575476,929262012
106567609,929232062
106575231,929261240
106575231,929261242
106578507,929064539
106578507,209154764
106590208,929317189
106606760,929095492
106577413,929268480
106607850,929099457
106607850,929099459
106607850,929099461
100136353,2895763
100136353,185132749
100136353,209736482
100136353,303659625
100136353,223672649
100136353,223646792
100136353,469832574
100136353,209734222
100194675,929298625
100194675,198285457
106591778,929319474
106593955,929323026
106587284,929306850
106587284,929306848
100136358,929117836
100136358,3822405
100136358,929117834
106562165,929129140
106562165,929129134
106562165,929129138
106562165,929129136
106565671,929224306
106565671,929224316
106565671,929224308
106565671,929224312
106565671,929224304
106565671,929224314
106565671,929224310
106564349,929219440
106567858,929234348
106567858,929234346
106567858,929234358
106567858,929234353
106563498,929209757
106563498,929209747
100196663,197632201
100196663,929265723
100196663,213515202
106576152,929264104
106576152,929264102
106577245,929268063
106577008,929267075
106599437,929072568
100195336,209155526
100195336,929083125
100195336,929083127
100195336,929083129
100195336,213511530
100196665,303664490
100196665,223646776
100196665,197632253
100196665,209731290
100196665,213515560
100196665,223672631
100196665,209733066
106585270,929298793
106569863,929242054
106590862,929319548
106605645,929092453
106563087,929169893
106563087,929169997
106563087,929169977
106563087,929169811
106568771,209155010
106568771,929238110
106568771,209738520
106587214,929306598
106587214,223647428
106587214,929306596
106587214,929306594
106587214,224587654
106587214,929306592
106589637,929315043
100196674,197632485
100196674,213512270
100196674,197632483
106599441,929052949
106599441,223647060
106599441,223672929
106599441,929052945
106599441,929052947
106599441,929052943
100196673,213512098
100196673,209734702
100196673,209734060
100196673,209731480
100196673,197632449
100196673,209730470
106576140,223648876
106576140,929264039
106576140,929264037
100196671,213511756
100196671,197632413
100195109,213512056
100195109,929260533
100195109,929260535
100195109,209154668
100195109,929260531
106602385,929053687
106601296,929077087
106570841,209155444
106570841,929245615
106570841,197631865
100195346,209155554
100195346,213513453
106606505,929055215
106606505,929055213
106605416,929091521
106605416,929091523
106588790,929068540
106588790,929068538
106605417,929091525
106605417,929091527
106568761,929238040
106604323,929087411
106604323,929087405
106604323,929087403
106604323,929087409
106604323,929087407
106566584,929227538
106566584,929227536
106566584,929227534
106566584,929227532
106586135,223648844
106586135,929302095
106606986,929096182
106606986,929096184
106587468,929307543
106611092,929056913
106613275,929118546
106577463,929268673
100196883,209731036
100196883,223647070
100196883,213513738
100196883,223672939
100196883,209738366
106581960,929286014
106581960,929286016
106581960,223647696
100195559,223648108
100195559,929250139
100195559,209730434
100195559,209738646
100195559,209734520
100195559,209738562
100196648,197631795
100196648,213512688
106604536,929088164
100136388,929277382
100136388,3169106
106585052,929297847
106585052,209154408
106602595,929080722
106602595,929080720
106602595,929080718
106602595,929080716
106602595,929080714
106564150,929218967
106586143,929302122
106586143,929302124
106586143,929302130
106586143,929302132
106586143,929302120
106586143,929302126
106586143,929302128
106588324,929309989
100306829,259155198
100306829,223647664
100306829,929100021
106585298,929298908
106601268,929076985
106601268,929076983
106585057,929067112
106589416,929314162
106569847,929061618
106569847,929061616
106569847,929061622
106569847,929061620
106569847,929061614
106597270,929323203
106580620,929280908
100196419,209731272
100196419,209737200
100196419,213512420
106590406,929317973
106590406,929317971
106590406,929317969
106590406,929317967
106603694,929085142
106577215,209731630
106577215,929267970
100196657,929249811
100196657,197631987
100196657,213514188
100306833,259155206
100306833,223647674
106571906,929062395
106587249,929306756
106587249,929306754
106587249,929306764
106587249,929306762
106587249,929306760
106587249,929306758
106565239,929222658
106581942,929285882
106573363,929255005
106573363,929255007
106573363,929255009
106575784,929262928
106599510,929323112
106573122,209148837
106573122,929062811
106605166,929090550
106611602,223673185
106611602,223647302
106611602,929112265
100194964,223648092
100194964,209154110
100194964,213511218
100195810,213510988
100195810,209732276
106560290,929121839
106560290,929121837
106608436,209732456
106608436,929056036
106608436,929056034
106585354,929299044
106585354,929299042
106587773,929308550
106586447,929303475
106586204,929302452
106586204,929302454
106586204,929302456
106586204,929302458
106563327,929195515
106563327,929195390
106608203,929100852
100195822,213513322
100195822,929108384
100195822,929108388
100195822,929108386
100195822,209732374
106575774,929262909
106575774,929262905
106575774,929262907
106574201,929257939
106575778,929262915
100194731,198285659
100194731,929096876
106560280,929121790
106560280,929121797
106560280,929121795
106560280,929121792
106586691,929304408
100195817,929334473
100195817,209732338
106608205,929100854
106608205,929100858
106608205,929100856
106584033,929294070
106584033,929294072
106584033,929294074
106584033,929294068
106560282,929121799
106560282,223648554
106562460,929130059
106586211,929302482
106561133,929125181
106561133,929125183
106586218,929302521
106586218,929302519
106586218,929302515
106586218,929302517
106565974,929225593
106565974,929225591
106565719,929224509
106572255,929251062
106572255,929251060
106610734,929108958
106610734,929108956
106610734,929108964
106610734,929108962
106610734,929108960
106574437,929258815
106574437,929258817
106561366,929126066
106588647,929068468
106588647,929068472
106588647,929068470
106561127,929125175
106598450,929328274
100194712,198285569
100194712,929066658
106604067,929086597
106581194,929065631
106581194,929065633
106582040,929286365
106590971,929321916
106584055,223672735
106584055,223646874
106584055,929294151
106584055,929294153
106588651,929311196
106588651,929311194
106588651,209156226
106584056,929294159
106584056,221219284
106584056,929294155
106584056,929294157
106587569,929307927
106594092,929324535
106574493,929063250
106574493,221221680
106573163,929254104
106574497,929258965
106574497,929258963
106574497,929258967
106572074,929250265
106599952,929334811
100196702,209153480
100196702,929227969
100196702,213512060
100194765,209148268
100194765,213511822
100136402,30314694
100136402,209152152
100136402,224587741
100136402,218931122
106565542,929059975
106565542,929059977
106562276,929129488
106596444,929070743
100136404,32400240
100136404,929314180
106584221,929066827
106584221,209155666
106584221,929066829
106584221,929066823
106584221,929066825
106564456,929219733
106564456,209154108
106587738,929308415
106584228,929294909
100194530,213510888
100194530,197631897
106574006,929257227
106574006,929257229
106608880,929102932
106608880,929102934
106608880,929102936
106608880,929102938
106598629,929321705
106606226,929094069
106606226,929094074
106606226,929094072
106579929,929278003
106609979,929106684
100136417,89143257
100136417,223672937
100136417,209738006
100136417,197632429
100136417,185133678
100136417,223647068
100136417,197632425
106606225,929094067
106587986,929308985
106587986,929308987
106585564,929299984
106585564,929299982
106594031,929323230
106564209,929219141
106584236,929294916
106576893,929266667
106573384,929255101
106573384,929255097
106573384,929255099
106572059,929250180
106579923,929065092
100194501,213515092
100194501,929058320
100194501,197631779
106578834,929273638
106578834,929273644
106578834,929273634
106578834,929273636
106578834,929273640
106578834,929273642
106598407,929323201
106565521,929059969
106565521,929059971
106565521,929059967
106596227,929323437
106595379,929320741
106596468,929332630
106579919,929065090
106608854,929102847
106606436,929094575
106563586,929214779
106563586,209156128
106563586,929214781
106587516,929068038
106589938,929316110
106589938,929316112
106589938,929316108
106566856,929228701
100194756,209147942
100194756,929249789
100194756,213514914
100194756,929249785
100194756,929249787
100194756,929249783
106574468,929258881
106610702,929108850
106577739,929064268
106577739,223648138
100194994,209154228
100194994,213511642
100194754,209147883
100194754,213514574
106608869,209154054
106608869,929056155
106608869,929056153
106608869,929056151
100194749,209738616
100194749,213513714
100194749,209147682
100194749,209733672
106562243,929129407
106562243,209155580
100194748,209147645
100194748,213513536
106562242,929129405
106562242,929129399
106562242,929129403
106562242,929129401
106562484,929130123
106562484,929130125
106594056,929331069
106565515,929223772
106566847,929228648
106566847,929228650
106585103,929298114
106585103,929298112
106585586,929300048
106595143,929320996
106586678,209738442
106586678,929304349
106565995,929225670
100196069,929069604
100196069,929069602
100196069,213511606
100196069,223634749
100196069,209734356
100196069,929069608
100196069,929069606
106610351,929107838
106610351,221221802
106610351,209736226
106561539,929126753
106562869,929149116
106585509,929299728
106585509,929299726
106585509,929299730
106585509,929299724
106585509,929299722
106610355,209738076
106610355,929107845
106610355,209732340
100196066,213511008
100196066,209734332
106575942,197632433
106575942,197632431
106575942,929063690
106575942,197632427
106575942,929063688
106575942,197632435
106611449,929111618
106570014,221222210
106570014,929242679
106570014,929242681
106609123,929103855
106609123,929103857
106609123,223648586
100380605,291190351
100380605,223649422
106573524,929255585
106573524,929255587
106573524,929255589
100380855,224613298
100380855,929263875
106595316,929327008
106573758,929256450
106601403,929077441
106601403,929077443
106569265,929240019
106596883,929324347
106595310,929328707
106564811,929220976
106564811,929220978
106563967,929218499
106560439,929058150
106562859,929147480
106560437,209155166
106560437,929122420
106560437,929122422
106560437,929122418
106580289,929279508
106580289,929279506
106580289,929279504
100286656,226443170
100286656,221221632
100286656,929075222
106571571,929248215
106571571,929248213
106611699,929112601
106612788,929116526
100286653,223646524
100286653,221221622
100286653,223672371
100286653,223672519
100286653,223646670
100286653,226443164
106571572,929248229
106571572,929248217
106571572,929248227
106571572,929248219
106571572,929248221
106571572,929248225
106571572,929248223
106573753,929256437
106612549,929115617
106612549,929115615
106573756,209154498
106573756,929256442
100380838,291190128
100380838,929231365
100380838,223649060
100380838,929231363
100380838,929231361
106607196,929096886
106609375,929104961
106609375,929104959
106594472,929327288
106583101,929290466
106583101,929290464
106583348,929291444
106579292,929275617
106579292,929275615
106603838,929085787
106603838,929085789
100196287,213514162
100196287,209736026
106607160,929096693
106561757,929127508
106561757,929127506
106561999,929128495
106580033,929278483
106610336,929107773
106569481,929240796
106572895,929253329
106598843,929326444
106610339,209736206
106610339,209738462
106610339,303662963
106610339,209732904
106610339,209730966
106610339,209735570
106610339,209734642
106610339,929107782
106572896,929253331
106609344,929056334
106569487,929240806
106569487,929240808
106569246,929239958
106569246,929239960
106583351,929066430
106583351,209738638
106569486,929240804
106568155,929235792
106568155,224587544
106568155,929235790
106596420,929329810
106583597,929292441
106596660,929070820
106579285,929064847
106579285,929064845
106563945,929218463
106583358,929291534
106560433,929122391
106560433,929122393
106560433,929122395
106562611,929131618
106579281,929275575
106584209,929294836
106584209,929294838
106561989,929058715
106599940,929332598
106606089,929055077
106571312,929247210
106597768,929326626
106594018,929333323
106567059,929060606
106567059,929060618
106567059,929060604
106567059,929060616
106567059,929060608
106567059,929060590
106567059,929060594
106567059,929060592
106567059,929060598
106567059,929060620
106567059,929060610
106567059,929060596
106567059,929060602
106567059,929060614
106567059,929060600
106567059,929060622
106567059,929060612
106598849,929071476
106573729,929063025
106573729,987437815
106573729,223649358
106601632,929053463
106583364,929291544
106560421,929122359
106560421,929122361
106560421,929122363
106578183,929052037
106560660,303659245
106560660,929123185
106560661,929123187
106588810,929311965
106604909,929089602
106582438,262189350
106582438,929287899
106582438,929287897
106562428,929129980
106611886,929113236
106611886,929113238
106611886,929113240
106611886,929113242
106570052,929051771
106570052,929051773
106570052,929051769
106570052,929051775
106609325,929104709
106569066,929239181
106569066,154795563
106570297,929243779
100194920,213513638
100194920,209153950
100380811,291190801
100380811,223648256
106600758,929075108
106564857,223672723
106564857,929221148
106564857,929221146
106564857,223646862
106601844,929078704
106585711,929300562
106585711,929300564
106561348,929125973
106561348,929125969
106561348,929125971
106561105,929125137
106561105,929125135
100286615,221221920
100286615,221219778
100286615,221219290
100286615,221221280
100286615,226443069
106609334,929104740
106580082,929278700
106609577,929105648
106609577,929105646
106609577,929105652
106609577,929105650
106574406,223648888
106574406,929258705
106589086,929312964
106593347,929328318
106591168,929069300
106591168,209152556
106561570,929058545
106561570,929058547
106595761,929320531
100194926,213514532
100194926,209153966
106584875,929297214
106564841,929059663
106563757,929217870
106583547,929292241
106583547,929292239
106583547,929292237
106574870,929260050
106574870,929260048
106568196,929235959
106572454,929251748
106572454,929251746
106592019,929323451
100380824,223648690
100380824,929098436
100380824,291190892
106596865,929323344
106560230,929121519
106560230,929121517
106584640,929296506
106583311,929291281
106561320,929125910
106562651,929132956
106560477,929122593
106565909,929225394
106582245,929287103
106582245,929287101
106565907,929225390
106565907,929225388
106569274,929240031
106570266,223647756
106570266,929243661
100380817,291190845
100380817,929064718
100380817,223648496
106580061,929278619
106580061,929278623
106580061,929278621
100194911,209153904
100194911,213512100
106571115,929246369
106571115,929246367
106574626,929063292
106575709,929262716
106592277,929069683
106608228,929051189
106608228,209154530
106594695,929326965
106560465,929122562
106560465,929122564
106560465,929122560
106584410,929295683
106564824,223648824
106564824,929221021
106584654,929296557
106584654,209154294
106584654,929296559
106584654,929296561
106584654,223648014
106600509,929053076
106560225,929121491
100196585,213512414
100196585,209738464
100196585,209738552
106580570,929280709
100195250,209730558
100195250,209155212
100195250,213511662
106594739,929319200
106571621,929248457
106571621,929248455
100195257,213513005
100195257,209155230
100195257,197632097
100195257,929220748
106569302,929240120
106572705,929252616
106572705,929252614
106572705,929252612
106571618,929062290
106590143,929316830
106590143,929316826
106590143,929316828
106590143,929316822
106590143,929316824
106572708,929252627
106572708,929252625
106572708,929252623
106599190,929331328
106560733,929058263
106613353,929118738
106613353,929118736
106579337,929275790
100195261,209155248
100195261,213513750
100196119,213514400
100196119,209734726
100196119,929221585
106570522,929244683
100195268,223647438
100195268,209155274
100195268,213514954
106593658,929335711
100196358,221220782
100196358,209732824
100196358,209736618
100196358,209738528
100196358,213511208
106603558,209155134
106603558,929084622
106594751,929052650
106594751,929052652
106594751,929052658
106594751,929052654
106594751,929052656
106606828,929095641
106577392,929268435
106577392,929268437
106613594,929119773
106576060,929263759
106576060,929263755
106576060,929263757
106576060,929263761
106577390,929268429
106577390,929268431
106606829,929095643
106580555,929280649
106576053,929263737
106576053,929263739
106582972,929289907
106582972,929289905
106577388,929268425
106577388,197631777
106577387,929268423
106577387,929268421
100195237,213514178
100195237,209155160
106593429,929330287
106593678,929319383
106566255,929226435
106566255,209155768
106604855,929089387
106604855,929089385
106603767,929054274
106603767,929054272
106594765,929332016
106567100,209734338
106567100,929229883
100380473,929260038
100380473,929260028
100380473,291190296
100380473,929260034
100380473,223648770
100380473,929260036
100380473,929260030
100380473,929260032
106584721,929296752
106576292,929264683
106586902,929305168
106586902,929305166
106583638,929292605
106583638,929292603
106583638,929292601
100195484,223648756
100195484,213512716
100195484,209156060
106560932,929124432
106560932,929124434
106582961,929289888
100195483,209156058
100195483,213512526
100195480,929094515
100195480,929094513
100195480,213511989
100195480,929094521
100195480,929094519
100195480,209156050
100195480,929094517
100196339,929074739
100196339,209736472
100196339,929074737
100196339,929074735
100196339,213514256
106601351,209155496
106601351,929077275
106601351,929077271
106601351,929077273
100196338,209736460
100196338,213514078
106565155,929222338
106568424,929236761
106568424,929236763
106601595,929078056
106601595,929078046
106601595,929078058
106601595,929078048
106601595,929078052
106601595,929078054
106601595,929078044
106601595,929078060
106601595,929078050
106602441,303666664
106602441,929080267
106602441,929080265
106602441,209732624
106602441,209731626
106602441,209735240
106565393,929223260
106565393,929223262
106604861,929054681
106604861,929054679
106593443,929331769
106592593,929322508
106569991,209737954
106569991,929242580
106583642,929292613
106576281,929264648
106576281,929264650
106610063,929106947
106610063,929106943
106610063,209734934
106610063,929106945
106579146,929274998
106591425,929319306
106592516,929322431
106571658,929248570
106592522,929326494
106569342,929240274
106569342,929240276
106569342,929240278
106569342,929240280
106569342,929240272
100380410,291190670
100380410,929072115
100380410,929072117
100380410,223648422
100380410,929072119
106610271,929056642
106610271,929056640
106613311,929118617
106613311,929118619
106613311,929118615
106581456,929284034
106583814,929293264
106561845,929058642
106561845,209155128
106561845,929058644
106611136,929110441
106611136,209151020
106612224,929114516
100196154,213510818
100196154,929122155
100196154,929122149
100196154,209735010
100196154,929122151
100196154,929122153
106590595,929318568
106590595,929318576
106590595,929318566
106590595,929318574
106590595,929318572
106590595,929318570
106603750,929085371
106568486,209154672
106568486,929237014
106579371,929275868
106579131,929274949
106579131,929274951
106568009,929235324
106568009,929235326
106612430,929057416
106598087,929335270
106581202,929283206
106581202,929283208
106560745,929123554
100195275,213511462
100195275,209155296
100195273,213511066
100195273,929123278
100195273,209737844
100195273,929123280
100195273,209155290
100195273,929123282
106580110,929278860
106580110,929278858
106580110,929278856
106580110,929278854
106580110,929278866
106580110,929278852
106580110,929278864
106580110,929278850
106580110,929278862
106580352,209154360
106580352,929279818
106580352,209154846
106612435,929057418
106613523,929057912
106613523,929057914
106613523,929057910
106611107,929110336
106570792,929245456
106570792,929245459
106572730,929252725
100217349,218505653
100217349,209155966
106570552,929061905
106570552,929061907
106591689,929320690
106568233,929236094
106568233,929236100
106568233,929236102
106568233,929236096
106568233,929236098
106589139,929313100
106599171,929326198
106611580,929112161
106608184,929100792
106582765,929289076
106582765,929289078
106582765,929289084
106582765,929289074
106582765,929289080
106582765,929289082
106613532,929119516
106613532,929119518
106613532,929119514
106613532,929119520
106580346,223648070
106580346,209153427
106580346,929279788
106578021,929270783
106612444,929115206
106580584,929280764
106580584,929280766
106580581,302201606
106580581,929280754
106580581,929280756
106580581,929280758
106610028,929106847
106610028,929106845
106612209,929114477
106612209,929114475
106591218,929319240
106571633,929248498
106596912,209155374
106596912,929332022
106601552,929077921
106590376,929317876
106590376,929317874
106590376,929317872
106590376,929317878
106589384,929313949
106589384,929313947
106589384,929313951
106572957,929253470
106588296,209156002
106588296,929309871
106588296,929309869
106565197,929222515
106565197,929222517
106602291,929079801
106578898,929273847
106578898,929273849
106578898,929273851
100195656,209731112
100195656,213513191
100195656,929240416
100195656,303657463
106579505,929276332
100195654,209731104
100195654,929109606
100195654,213512882
106569943,929061665
106566433,929227051
106588225,929068306
106588225,929068304
106588225,929068308
106606415,929094493
106588465,224613540
106588465,209735204
106588465,224493088
106588465,929310625
106588465,929310623
106569706,221221604
106569706,929241549
106581814,929285338
106581814,929285340
106581814,929285336
106564257,929059450
106565347,929223053
100195420,213511616
100195420,224587565
100195420,209155820
100195420,223648066
100194572,197632045
100194572,929293847
100194572,929293849
100194572,213512248
106576224,929264460
100194570,209147976
100194570,197632033
100194570,213511865
106574285,929258330
106574285,929258332
106605574,929054932
106604481,209155138
106604481,929087937
106604481,929087935
106590788,929319859
106562063,929128688
106603157,929082892
106603157,929082894
100195419,209155818
100195419,213511434
106589322,929313652
106589322,929313654
106589322,929313656
106573191,929254277
106573191,929254279
106573191,929254281
106573191,929254273
106573191,929254275
106575120,223647612
106575120,929260741
106576691,929265845
106576691,929265843
106574276,929063182
106592979,929052599
106607960,929099856
106607960,929099858
100136464,73915328
100136464,929119046
106568830,929238273
106568830,929238275
100196719,209154252
100196719,209732658
100196719,223647594
100196719,213514828
100196719,209738602
106605785,929092868
100196717,213514496
100196717,209154208
106580708,929281235
106580708,929281233
106580948,929282176
106589338,929068708
106564235,929219196
100194550,209738592
100194550,223648080
100194550,213514668
100194550,197631959
100194550,303658635
100194550,209731734
106602282,929079779
106602282,209738114
106606400,929094453
106602043,929053576
106602043,929053566
106602043,209153928
106602043,929053574
106602043,929053564
106602043,929053572
106602043,929053570
106602043,929053568
100194556,197631979
100194556,213510970
106604227,929087092
106604227,929087094
106606402,929094459
100195695,209731388
100195695,213514748
100195695,209731440
100195211,209155044
100195211,213514462
106598461,929333382
106576273,929264634
106578699,929273218
106578699,929273220
106578699,929273224
100196780,209155784
100196780,929315569
100196780,213515488
106578451,929272176
106578451,929272178
100196307,213513083
100196307,209736236
100196307,209738642
106579306,929064853
106579549,929276530
106579549,929276532
106591823,929327558
106568897,929238566
106585394,929299240
106569985,209734404
106569985,223672757
106569985,223646896
106569985,929242538
106569985,209734322
106589751,929315454
106589751,929315456
106589751,929315458
106585157,929298316
106585157,929298314
106569508,929240890
106569508,929240880
106569508,929240892
106569508,929240882
106569508,929240884
106569508,929240886
106569508,929240888
106588424,929310385
106588424,929310389
106588424,929310387
106589759,209736180
106589759,303664830
106589759,929315491
106574090,929257479
106574090,929257481
106574090,929257483
106574090,929257485
106574090,929257487
106596290,929330357
100195460,929128714
100195460,929128712
100195460,213513314
100195460,929128718
100195460,929128716
100195460,209155974
106579772,929277267
100196319,213515314
100196319,209736332
106598238,929330268
100195468,209156006
100195468,213514660
106570960,929245940
106563191,929178766
106602021,929079123
106602021,929079125
106602020,929079121
106590744,929322164
106570954,223648722
106570954,929245921
106570954,929245924
106605538,929092052
106586493,929303707
106585165,929298344
106585165,929298346
106588431,929310419
106588431,209730800
106589763,929315499
106585167,929298352
106585167,929298350
106585167,929298356
106585167,929298354
106585167,929298358
106588432,929310423
106588432,929310421
106568407,209149009
106568407,929236720
106568407,929236722
100195431,929123136
100195431,929123138
100195431,213513514
100195431,929123140
100195431,209155858
106576497,929265297
106576497,929265299
106605740,929092716
106577348,929268337
100196524,209738104
100196524,209738588
100196524,929126717
100196524,223647970
106600053,929333953
106600054,929073518
106600054,929073520
106600054,929073524
106600054,929073522
106600054,929073528
106600054,929073526
106585174,929298378
106589533,929314634
106565361,929223119
106565361,223646978
106565361,223672841
106568872,929238455
106568872,929238453
100380278,223647358
100380278,929277523
100380278,291190576
106581832,929285431
106581832,929285433
106568878,929238503
106599582,929072837
106599582,929072835
100194593,223646754
100194593,197632161
100194593,929090804
100194593,929090806
100194593,223672609
100194593,213511310
100195201,209154994
100195201,213512768
106575392,929261813
106575392,929261811
106599341,929072371
106612046,197631785
106612046,929113872
106612046,303661355
106612046,209737236
106612046,221220316
106612046,929113870
106612046,209732594
106575151,929063442
100194591,213510934
100194591,197632153
106599105,929050896
106592949,929329383
106579756,929277229
100194597,197632181
100194597,215272373
100194597,223647476
100195687,209731324
100195687,929119198
100195687,213513530
106566687,929227988
106566687,223649194
106586274,929302801
106586274,929302803
106586274,929302799
106602007,209152323
106602007,929079094
106568861,929061277
106606844,929095683
106589306,929313604
106597168,929324774
106589305,929313602
106613373,929118849
106581822,929285365
106581822,929285367
106575421,929261861
106609886,929106399
106609886,929106395
106609886,929106397
100195935,213512176
100195935,209733264
106608798,929102674
100306762,259155429
100306762,223647336
100306762,223673221
106573004,929253569
100194840,213514490
100194840,209151080
106587651,929308198
106587893,929308801
106561021,929124767
106561021,224587764
106562593,929130887
106583055,929290317
106562592,929130867
106596366,929328513
106566711,929228088
106566713,929228096
106566713,929228094
106601926,929078913
106565608,929224093
106566938,929229156
106566938,929229154
106576980,929064020
106608324,929101214
106608324,929101212
106608324,929101216
106610886,929109517
106610886,929109515
106610886,929109513
106610886,929109511
106576984,929266996
106599405,929331134
100195700,213515544
100195700,209731416
106605051,929090099
106612829,929116667
106565851,929225105
106585241,929298664
106585241,929298662
106595288,929052673
106595288,929052671
106595288,929052669
106595288,929052667
106583067,929290342
106562104,929128844
106562104,929128842
106586335,929303023
100500786,929274281
100500786,929274279
100500786,195964709
100500786,929274277
106596374,929330833
106561496,929126613
106561496,929126611
106561496,929126617
106561496,929126615
106561496,929126619
106561018,929124761
106571041,929246159
106571041,929246157
106581086,929282634
106606353,929094345
106610853,929056826
106598326,929331260
106607442,929097770
106607442,929097772
106607442,929097774
106610855,929109401
106574312,929258459
106574312,929258457
106574312,929258461
106574312,224613292
106574312,223649348
106574312,929258463
106603082,929082503
106611946,929113471
106611946,929113475
106611946,929113473
100194818,929291265
100194818,929291263
100194818,209150377
100194818,213515178
100194818,929291267
100195905,209732538
100195905,213512039
100195905,209733056
106607449,929097797
106606117,929093835
106587679,929308269
106589612,929314951
106589612,929314949
106589612,929314953
106589612,929314955
106598572,929321305
106599663,929327639
106612801,929116597
106576722,224613198
106576722,223648104
106576722,929265970
106571277,929247018
106569196,209734996
106569196,929239739
106569196,929239737
106573215,929062857
106573215,929062855
106605032,929090026
106572128,929250480
106572128,929250478
106590602,929318591
106583082,929290388
106583082,929290386
100306756,223673109
100306756,223647232
100306756,259155411
106587682,929308275
106576718,929265958
106576718,929265956
100195917,209733128
100195917,929289132
100195917,929289130
100195917,929289128
100195917,213513958
106608304,929101159
106607699,929098787
106607699,929098789
106585265,929298765
106569199,929239748
100136513,145320997
100136513,354542543
106584177,929294629
106584177,929294631
106587203,929306502
106587203,929306506
106587203,929306504
106595066,929319590
106565836,929225029
106596151,929332471
106563657,929059247
106561237,929125545
100194640,213514332
100194640,197632447
106573043,929253691
106574376,929258617
106574376,929258619
106607664,929098633
106603064,929082422
106603064,929082420
106603064,223648696
106603064,929082418
106579827,929277460
100194645,197632481
100194645,213515184
106576798,929266271
106576798,929266269
106576798,929266267
106597658,929334954
100194641,197632451
100194641,209731744
100194641,209734296
100194641,213514494
106608992,929103368
100194644,213515006
100194644,197632479
100136522,185136089
100136522,3172540
100136522,209734358
100136522,209738610
100136522,223672533
100136522,223646684
106564330,929219386
106565661,929224269
106565661,929224265
106565661,929224267
106565661,929224271
100194639,197632445
100194639,223672857
100194639,213514172
100194639,209733220
100194639,209730928
100194639,223646992
106593297,929323136
106608997,929056201
106562152,929129093
106562152,929129091
106562152,929129097
106562152,929129095
106562152,929129089
106564571,929220012
106562156,929129111
106562156,469832566
106566997,929229411
106566997,929229409
106564335,929219397
106568933,929238728
106568933,929238734
106568933,209154168
106568933,929238730
106568933,929238732
106597421,929334781
100195505,209156132
100195505,213511480
106575215,929261192
106575215,929261190
106575213,929261188
106576545,929063856
100195504,929072906
100195504,213511280
100195504,929072908
100195504,929072910
100195504,209156130
100195502,209156122
100195502,213510884
106578966,929274141
106578966,929274139
100196830,209733158
100196830,929086225
100196830,213515154
106603074,929082464
100136533,929273912
100136533,185136336
100136533,209147999
100136533,30314692
106605019,929054753
106605019,929054751
106605019,929054757
106605019,929054755
106594399,929326572
106585202,929298476
106585202,929298474
106563477,929208405
100136539,185132114
100136539,197631995
100136539,13491606
106566507,929051617
106589805,929315621
106589805,209152597
106589805,929315627
106589805,929315629
106589805,929315623
106589805,929315625
106585206,929298490
106585206,929298494
106585206,929298484
106585206,929298492
106585206,929298482
106585206,929298498
106585206,929298488
106585206,929298496
106585206,929298486
106585206,929298502
106585206,929298500
106575684,929262639
106599850,929333250
106597674,929322517
106607642,929098507
100306782,259155104
100306782,223647450
100194624,197632355
100194624,929275922
100194624,197632361
100194624,929275920
100194624,213511774
100194624,576011087
100194624,197632359
100194623,213511594
100194623,197632357
100194623,198285629
100194623,385145176
100194865,929253309
100194865,209152098
100194865,385145180
100194865,213514064
106607641,929098501
106607641,929098503
106607641,929098505
106576775,929266174
106576775,929266172
100194620,197632347
100194620,213511056
100194620,308191493
100194862,213513580
100194862,209152019
100194861,223648568
100194861,209152001
100194861,213513419
100194861,929109588
100194861,929109586
100194622,197632353
100194622,221219986
100194622,213511412
100194621,197632349
100194621,221219096
100194621,308191494
100194621,213511232
106610807,929109252
106610807,223647898
106610807,209155904
106610806,929109250
106610806,929109248
106610806,929109246
100136543,76885910
100136543,929276761
100136543,185132190
100136543,929276763
100136543,209155380
100194617,221222348
100194617,221222152
100194617,197632327
100194617,213515400
100136546,185132250
100136546,89477123
100194619,213510876
100194619,197632339
106561284,929125731
106561284,929125733
106561284,929125735
106583035,929290231
106583035,929290239
106583035,929290237
106583035,929290235
106583035,929290233
106586788,929304790
106586788,929304788
106562377,929129832
106564313,929219343
106564313,221219816
106593072,929052603
106593072,929052601
106589814,929315675
106588725,929311499
106584129,929294428
106584129,929294430
106584129,929294432
106573494,929062949
106573494,929062947
106573494,929062945
100306790,223647482
100306790,259155118
106605473,929091788
106605473,209155982
106598776,929071396
106572169,929250659
106572169,929250663
106572169,929250661
100195966,209733554
100195966,303663866
100195966,929176152
100195966,197632351
100195966,213512310
100194636,213513724
100194636,197632417
100194636,197632415
100194636,576011131
106597448,929335091
100194631,197632383
100194631,197632381
100194631,213512959
100194630,197632379
100194630,213512802
106576769,929266131
106605471,929091780
106583282,929291089
106583282,929291087
106583282,929291095
106583282,929291093
106583282,929291091
106607658,929098615
106607658,929098617
106607658,929098619
100194869,929240098
100194869,929240100
100194869,213514708
100194869,209152217
100194869,929240094
100194869,929240096
106566967,929229283
106587404,929307319
106587404,224587217
106594171,929321123
106587406,929307323
106613098,929117939
106584139,929294478
106584139,929294480
106589825,929315727
106589825,929315725
106566966,929229281
106609240,223648640
106609240,929104273
106609240,209733154
106609240,209738444
106612410,929115102
106612410,929115100
106561658,929127139
106572792,929252925
106569142,929061361
100380728,224613404
100380728,929245893
100380727,929253490
100380727,224613400
100286782,224747159
100286782,226442734
100286782,929284193
106600672,929074781
106600672,209154056
106569148,929239497
106600677,929074805
106600677,929074803
100196183,213510780
100196183,223673009
100196183,209735226
100196183,223647518
100196183,223647136
106584300,929295097
106584300,209155606
106562750,929058994
106560331,929122020
106560331,929122022
106584548,929296193
106584548,209154114
106611334,929111255
106611334,224587261
106613511,929119439
106613511,929119427
106613511,929119429
106613511,929119435
106613511,929119445
106613511,929119437
106613511,929119431
106613511,929119441
106613511,929119433
106613511,929119443
106573636,929256004
106573636,929256006
106573636,929256000
106573636,223648168
106573636,929256002
106573878,929256841
106607075,929096453
106607075,929096451
106594108,929333974
106600683,929050720
106603953,929086176
106561891,929127902
106584550,929296217
106584550,929296219
106584550,929296211
106584550,929296221
106584550,929296213
106584550,929296215
106562504,929130183
106562504,224613402
106607280,929097221
106607280,929097219
106607281,929097223
106607281,929097225
106607281,929097227
106607281,929097229
106578076,929270963
106578076,929270961
106579167,929275096
106579167,929275086
106579167,929275098
106579167,929275092
106579167,929275094
106579167,929275090
106579167,929275088
106579167,929275100
106579167,929275102
100195073,209154550
100195073,213515000
100195073,223648246
106580394,929280015
106573862,929256784
106573862,929256786
106609227,929104229
106609227,929104232
106611309,929111061
106571444,929247803
106571444,929247807
106571444,929247805
106571444,929247809
106600892,929075663
106603921,929086064
106603921,929086062
106601986,929079049
106595213,929324718
106609228,929104236
106609228,929104238
106609228,929104234
106609228,929104240
100196160,209732798
100196160,303666765
100196160,213511889
100196160,303664259
100196160,209735056
100196160,209732718
100196160,209735048
100196160,929061337
106593274,929069923
106600414,929073903
106600414,929073901
106600414,929073899
106561646,929127108
106561646,929127106
106561645,929127100
106561645,929127098
106561645,929127104
106561645,929127102
106600418,929073919
106585658,929300309
106585658,929300315
106585658,929300305
106585658,929300317
106585658,929300307
106585658,929300311
106585658,929300301
106585658,929300313
106585658,929300303
106582566,929288330
106562956,929158363
106613976,929121372
106613976,929121376
106613976,929121374
106611553,929112056
106611553,929112054
106561629,929127025
106568020,209738618
106568020,929235375
106568020,197631857
106568020,209734486
106569594,929241228
106598733,929325781
106599823,929333313
106608385,929101389
106608385,221220440
106608385,223647758
106572524,929251962
106567176,929230233
106600424,929073949
106600424,929073947
106600424,929073951
106600424,929073945
106568267,929236177
106583483,929291974
106583483,929291972
106609239,929104271
106609239,209737204
106593044,209154700
106593044,929334723
106596311,929070712
106586750,929304586
106586750,929304584
106585664,929300337
106585664,929300339
106602847,223647448
106602847,929081613
106587846,929308702
106585827,929301111
106582398,929287748
106582398,929287750
106573680,929256171
106573680,929256173
106573681,209732988
106573681,929256175
106577801,929269974
106577801,929269976
106613946,929121234
106613946,929121232
106608358,929101312
106609445,929105219
106595626,929320465
106609207,929104150
106609449,929105231
106562311,929129596
106564733,929220602
106582148,929286746
106582148,929286744
106582148,929286742
106609699,929105920
106609699,929105922
106568086,929235550
106568086,929235540
106568086,929235552
106568086,929235536
106568086,929235558
106568086,929235548
106568086,929235538
106568086,929235532
106568086,929235554
106568086,929235544
106568086,929235534
106568086,929235556
106568086,929235546
106570164,929243276
106570164,929243278
106570164,929243274
106571255,929246883
106571255,929246881
106609451,929105235
106609452,929105237
106600886,929075635
106600886,929075637
100194806,213514686
100194806,209150055
100194806,929260473
106585600,929300099
106585600,929300101
106603918,929086036
106562547,929130368
106565810,929060089
106561215,929125489
106561215,929125485
106561215,929125487
106563634,929215958
106582376,929287675
106582376,929287679
106582376,929287677
106572574,929252177
106572574,929252175
106574753,929259672
106612836,929057601
106612836,929057599
106612836,929057597
106561681,929127227
106584760,929296877
106585850,929067399
106585850,929067397
106585850,929067395
106585850,929067393
106585610,929300161
106601949,929078963
100286717,221220300
100286717,226442682
106570380,929244122
106580183,929279182
106612605,929057495
106612605,929057493
106612605,929057491
106613934,929121198
106576922,929266704
106605075,929054775
106605075,929054777
106561670,929127191
106561670,929127195
106561670,929127193
106561670,929127187
106561670,929127189
106583200,929290823
100286709,226442618
100286709,221219328
100286709,929277515
106585868,929067403
106585868,209737272
106585868,929067401
106585868,223647318
106585868,223673203
106601716,929078333
