1PPDCRp,0.0,1000.0
2AMADPTm,-1000.0,1000.0
2MCITt,-1000.0,1000.0
2OBUTtm,-1000.0,1000.0
2OXOADOXm,0.0,1000.0
2OXOADPTm,-1000.0,1000.0
34HPPOR,0.0,1000.0
3A2OA,-1000.0,1000.0
3AIBT2m,-1000.0,1000.0
3AIBtm,-1000.0,1000.0
3HAO,0.0,1000.0
3HBCOAHLm,0.0,1000.0
3HLYTCL,0.0,1000.0
3MOBtm,-1000.0,1000.0
3MOPtm,-1000.0,1000.0
3SALAOX,-1000.0,1000.0
3SALATAi,-1000.0,1000.0
3SPYRSP,0.0,1000.0
4ABUTtm,0.0,1000.0
4MOPtm,-1000.0,1000.0
5HLTDL,0.0,1000.0
5HPUDICDC_c,0.0,1000.0
AACOAT,0.0,1000.0
AADSACYCL,-1000.0,1000.0
AASAD3,0.0,1000.0
AASAD3m,-1000.0,1000.0
AASS_c,0.0,1000.0
AATA,-1000.0,1000.0
ABTArm,-1000.0,1000.0
ABUTD,-1000.0,1000.0
ACACT10m,0.0,1000.0
ACACT1m,-1000.0,1000.0
ACACtm,-1000.0,1000.0
ACCOAC,0.0,1000.0
ACCOACrm,0.0,1000.0
ACGAM2E,-1000.0,1000.0
ACGAM6PS,0.0,1000.0
ACGAMK,0.0,1000.0
ACGAMPM,-1000.0,1000.0
ACGAtex_1,0.0,1000.0
ACITL,0.0,1000.0
ACOAD10m,0.0,1000.0
ACOAD1fm,-1000.0,1000.0
ACOAD8m,0.0,1000.0
ACOAD9m,-1000.0,1000.0
ACOAH,-1000.0,0.0
ACONT,0.0,1000.0
ACONTm,0.0,1000.0
ACS,0.0,1000.0
ACYP,0.0,1000.0
ADA,0.0,1000.0
ADADir,0.0,1000.0
ADEt,-1000.0,1000.0
ADK1,-1000.0,1000.0
ADK1m,-1000.0,1000.0
ADMDC,-1000.0,1000.0
ADNK1,0.0,1000.0
ADNt4,0.0,1000.0
ADPT,0.0,1000.0
ADSK,0.0,1000.0
ADSL1r,0.0,1000.0
ADSL2r,-1000.0,1000.0
ADSS,0.0,1000.0
AGDC,0.0,1000.0
AGPATCOA_PALM_PALM_c,0.0,1000.0
AGTim,-1000.0,1000.0
AHCi,0.0,1000.0
AICART,-1000.0,1000.0
AIRCr,-1000.0,1000.0
AKGDm,0.0,1000.0
AKGMALtm,0.0,1000.0
ALAGLNexR,-1000.0,0.0
ALATA_L,-1000.0,1000.0
ALATA_Lm,-1000.0,1000.0
ALAt4,0.0,1000.0
ALAtmi,-1000.0,1000.0
ALCD2x,-1000.0,1000.0
ALCD2y,-1000.0,1000.0
ALDD19x_P,0.0,1000.0
ALDD19xr,-1000.0,1000.0
ALDD22x,0.0,1000.0
ALDD2x,-1000.0,1000.0
ALDH,0.0,1000.0
ALLTN,-1000.0,1000.0
AM6SAD,-1000.0,1000.0
AMCOXO,0.0,1000.0
AMPD2,0.0,1000.0
AMPDA,0.0,1000.0
ANTHte,-1000.0,1000.0
APAT2rm,-1000.0,1000.0
ARGN,0.0,1000.0
ARGNm,0.0,1000.0
ARGt2m,-1000.0,1000.0
ARGt4,0.0,1000.0
ASCBt,-1000.0,1000.0
ASNN,0.0,1000.0
ASNS1,0.0,1000.0
ASNt4,0.0,1000.0
ASP1DC,0.0,1000.0
ASPCT,0.0,1000.0
ASPGLUm,0.0,1000.0
ASPO1,0.0,1000.0
ASPTA,-1000.0,1000.0
ASPTAm,-1000.0,1000.0
ASPt2m,-1000.0,1000.0
ASPt6,0.0,1000.0
ATAH_1,-1000.0,1000.0
ATPM,0.0,1000.0
ATPS1,0.0,1000.0
ATPS4mi,0.0,1000.0
ATPtm_H,0.0,1000.0
BALAtmr,-1000.0,1000.0
BETALDHxm,-1000.0,1000.0
BPNT2,0.0,1000.0
BUP,0.0,1000.0
BUPN,0.0,1000.0
BUTt,0.0,1000.0
BUTt2m,-1000.0,1000.0
Biomass,1.0,1000.0
CARNS1,-1000.0,1000.0
CAT,0.0,1000.0
CATm,0.0,1000.0
CATp,0.0,1000.0
CBPS,0.0,1000.0
CDPPH,0.0,1000.0
CHLPCTD,0.0,1000.0
CHLtm,0.0,1000.0
CHOLD2m,0.0,1000.0
CHOLK,0.0,1000.0
CHOLtu,0.0,1000.0
CHOPT_PALM_PALM_c,0.0,1000.0
CITtbm,-1000.0,1000.0
CK,0.0,1000.0
CKc,0.0,1000.0
CO2t,-1000.0,1000.0
CO2tm,-1000.0,1000.0
CPS_m,0.0,1000.0
CREATtmdiffir,0.0,1000.0
CRTNsyn,0.0,1000.0
CRTNtr,-1000.0,1000.0
CSND,0.0,1000.0
CSNt,-1000.0,1000.0
CSm,0.0,1000.0
CTPS1_2,0.0,1000.0
CTPS2,0.0,1000.0
CYOOm2i,-1000.0,1000.0
CYOR_u10mi,0.0,1000.0
CYSDSm,0.0,1000.0
CYSGLTH,-1000.0,1000.0
CYSGLUexR,-1000.0,0.0
CYSO,0.0,1000.0
CYSTGL,0.0,1000.0
CYSTGLUex,0.0,1000.0
CYSTS,0.0,1000.0
CYSTSERex,0.0,1000.0
CYSt4,0.0,1000.0
CYSt_m,-1000.0,0.0
CYTD,0.0,1000.0
CYTDK1_1,0.0,1000.0
CYTDt4,0.0,1000.0
CYTK1,-1000.0,1000.0
CYTK2,-1000.0,1000.0
Carbohydrates_biomass,0.0,1000.0
DADA,0.0,1000.0
DADK,-1000.0,1000.0
DATPtn,-1000.0,1000.0
DCMPDA_1,0.0,1000.0
DCTPtn,-1000.0,1000.0
DCYTD,0.0,1000.0
DDPGAm,-1000.0,1000.0
DGK1,0.0,1000.0
DGTPtn,-1000.0,1000.0
DHAAt1r,-1000.0,1000.0
DHFOR,-1000.0,1000.0
DHFR,0.0,1000.0
DHLTAm,-1000.0,1000.0
DHORD9,-1000.0,1000.0
DHORTS,-1000.0,1000.0
DHPD,-1000.0,1000.0
DHPM1,0.0,1000.0
DHPM2,-1000.0,1000.0
DHPR,0.0,1000.0
DHPR2,0.0,1000.0
DHRT_ibcoa,-1000.0,1000.0
DHRT_ivcoa,-1000.0,1000.0
DM_adrnl_c,0.0,1000.0
DM_fol_c,0.0,1000.0
DM_hista_c,0.0,1000.0
DM_kynate_c,0.0,1000.0
DM_na1_c,0.0,1000.0
DM_paps_c,0.0,1000.0
DM_srtn_c,0.0,1000.0
DM_taur_c,0.0,1000.0
DNA_biomass,0.0,1000.0
DNAt,-1000.0,1000.0
DOPABMO,0.0,1000.0
DPCOAK,0.0,1000.0
DRPA,-1000.0,1000.0
DTMPK,-1000.0,1000.0
DTTPtn,-1000.0,1000.0
DURAD,-1000.0,1000.0
DURAD2,-1000.0,1000.0
DURIK1,0.0,1000.0
DURIPP,-1000.0,1000.0
DUTPDP,0.0,1000.0
ECOAH12m,-1000.0,1000.0
ECOAH1m,-1000.0,1000.0
ECOAH9m,-1000.0,1000.0
EHGLATm,-1000.0,1000.0
ENO,-1000.0,1000.0
ENOm,-1000.0,1000.0
ETOHt,-1000.0,1000.0
EX_2mcit_e,0.0,1000.0
EX_2mcit_e_rev,0.0,1000.0
EX_acgam_e,0.0,1000.0
EX_acgam_e_rev,0.0,1000.0
EX_ade_e,0.0,1000.0
EX_ade_e_rev,0.0,1000.0
EX_adn_e,0.0,1000.0
EX_adn_e_rev,0.0,1000.0
EX_ala__L_e,0.0,1000.0
EX_ala__L_e_rev,0.0,1000.0
EX_anth_e,0.0,1000.0
EX_anth_e_rev,0.0,1000.0
EX_arg__L_e_rev,0.001,1000.0
EX_ascb__L_e,0.0,1000.0
EX_ascb__L_e_rev,0.0,1000.0
EX_asn__L_e,0.0,1000.0
EX_asn__L_e_rev,0.0,1000.0
EX_asp__L_e,0.0,1000.0
EX_asp__L_e_rev,0.0,1000.0
EX_but_e,0.0,1000.0
EX_but_e_rev,0.0,1000.0
EX_chol_e,0.0,1000.0
EX_chol_e_rev,0.0,1000.0
EX_co2_e,0.0,1000.0
EX_co2_e_rev,0.0,1000.0
EX_creat_e,0.0,1000.0
EX_creat_e_rev,0.0,1000.0
EX_crtn_e,0.0,1000.0
EX_crtn_e_rev,0.0,1000.0
EX_csn_e,0.0,1000.0
EX_csn_e_rev,0.0,1000.0
EX_cys__L_e,0.0,1000.0
EX_cys__L_e_rev,0.0,1000.0
EX_cysi__L_e,0.0,1000.0
EX_cysi__L_e_rev,0.0,1000.0
EX_cytd_e,0.0,1000.0
EX_cytd_e_rev,0.0,1000.0
EX_dad_2_e,0.0,1000.0
EX_dad_2_e_rev,0.0,1000.0
EX_dcyt_e,0.0,1000.0
EX_dcyt_e_rev,0.0,1000.0
EX_dgsn_e,0.0,1000.0
EX_dgsn_e_rev,0.0,1000.0
EX_dhdascb_e,0.0,1000.0
EX_dhdascb_e_rev,0.0,1000.0
EX_etoh_e,0.0,1000.0
EX_etoh_e_rev,0.0,1000.0
EX_fol_e,0.0,1000.0
EX_fol_e_rev,0.0,1000.0
EX_fru_e,0.0,1000.0
EX_fru_e_rev,0.0,1000.0
EX_gal_e,0.0,1000.0
EX_gal_e_rev,0.0,1000.0
EX_glc__D_e,0.0,1000.0
EX_glc__D_e_rev,0.0,1000.0
EX_gln__L_e,0.0,1000.0
EX_gln__L_e_rev,0.0,1000.0
EX_glu__L_e,0.0,1000.0
EX_glu__L_e_rev,0.0,1000.0
EX_gly_e,0.0,1000.0
EX_gly_e_rev,0.0,1000.0
EX_glyb_e,0.0,1000.0
EX_glyb_e_rev,0.0,1000.0
EX_glyc_e,0.0,1000.0
EX_glyc_e_rev,0.0,1000.0
EX_gsn_e,0.0,1000.0
EX_gsn_e_rev,0.0,1000.0
EX_gthrd_e,0.0,1000.0
EX_gthrd_e_rev,0.0,1000.0
EX_h2o_e,0.0,1000.0
EX_h2o_e_rev,0.0,1000.0
EX_h_e,0.0,1000.0
EX_h_e_rev,0.0,1000.0
EX_hco3_e,0.0,1000.0
EX_hco3_e_rev,0.0,1000.0
EX_his__L_e_rev,0.001,1000.0
EX_ile__L_e_rev,0.001,1000.0
EX_leu__L_e_rev,0.001,1000.0
EX_lys__L_e_rev,0.001,1000.0
EX_man_e,0.0,1000.0
EX_man_e_rev,0.0,1000.0
EX_met__L_e_rev,0.001,1000.0
EX_na1_e,0.0,1000.0
EX_na1_e_rev,0.0,1000.0
EX_ncam_e,0.0,1000.0
EX_ncam_e_rev,0.0,1000.0
EX_nh4_e,0.0,1000.0
EX_nh4_e_rev,0.0,1000.0
EX_no_e,0.0,1000.0
EX_no_e_rev,0.0,1000.0
EX_o2_e_rev,0.001,1000.0
EX_orn_e,0.0,1000.0
EX_orn_e_rev,0.0,1000.0
EX_phe__L_e_rev,0.001,1000.0
EX_pheacgln_e,0.0,1000.0
EX_pheacgln_e_rev,0.0,1000.0
EX_pi_e,0.0,1000.0
EX_pi_e_rev,0.0,1000.0
EX_pnto__R_e,0.0,1000.0
EX_pnto__R_e_rev,0.0,1000.0
EX_pro__L_e,0.0,1000.0
EX_pro__L_e_rev,0.0,1000.0
EX_quln_e,0.0,1000.0
EX_quln_e_rev,0.0,1000.0
EX_rib__D_e,0.0,1000.0
EX_rib__D_e_rev,0.0,1000.0
EX_ribflv_e,0.0,1000.0
EX_ribflv_e_rev,0.0,1000.0
EX_sarcs_e,0.0,1000.0
EX_sarcs_e_rev,0.0,1000.0
EX_ser__L_e,0.0,1000.0
EX_ser__L_e_rev,0.0,1000.0
EX_so4_e,0.0,1000.0
EX_so4_e_rev,0.0,1000.0
EX_spmd_e,0.0,1000.0
EX_spmd_e_rev,0.0,1000.0
EX_thr__L_e_rev,0.001,1000.0
EX_thym_e,0.0,1000.0
EX_thym_e_rev,0.0,1000.0
EX_thymd_e,0.0,1000.0
EX_thymd_e_rev,0.0,1000.0
EX_trp__L_e_rev,0.001,1000.0
EX_tyr__L_e,0.0,1000.0
EX_tyr__L_e_rev,0.0,1000.0
EX_ura_e,0.0,1000.0
EX_ura_e_rev,0.0,1000.0
EX_urea_e,0.0,1000.0
EX_urea_e_rev,0.0,1000.0
EX_uri_e,0.0,1000.0
EX_uri_e_rev,0.0,1000.0
EX_val__L_e_rev,0.001,1000.0
EX_xyl__D_e,0.0,1000.0
EX_xyl__D_e_rev,0.0,1000.0
FACOAL40im,0.0,1000.0
FADH2ETC,-1000.0,1000.0
FAS,0.0,1000.0
FBA,-1000.0,1000.0
FBP,0.0,1000.0
FDH,0.0,1000.0
FKYNH,0.0,1000.0
FMNAT,0.0,1000.0
FOLR2_1,0.0,1000.0
FOLt,0.0,1000.0
FORtm,-1000.0,1000.0
FRUt2,0.0,1000.0
FTCD,0.0,1000.0
FTHFDH,0.0,1000.0
FTHFDHm,-1000.0,1000.0
FTHFLi,-1000.0,1000.0
FTHFLmi,-1000.0,1000.0
FUM,0.0,1000.0
FUMAC,0.0,1000.0
FUMm,-1000.0,1000.0
FUMtm,-1000.0,0.0
G3PAT160_1,0.0,1000.0
G3PD1ir,0.0,1000.0
G3PD2m,0.0,1000.0
G5SADrm,-1000.0,1000.0
G5SDym,0.0,1000.0
G6PDA,-1000.0,1000.0
G6PDH2r,0.0,1000.0
G6PP,0.0,1000.0
GACMTRc,0.0,1000.0
GALKr,0.0,1000.0
GALUi,0.0,1000.0
GALm,0.0,1000.0
GALt2,0.0,1000.0
GAPD,-1000.0,1000.0
GARFT,0.0,1000.0
GCC2am,-1000.0,1000.0
GCC2bim,0.0,1000.0
GCC2cm,-1000.0,1000.0
GCCam,-1000.0,1000.0
GCCbim,0.0,1000.0
GCCcm,-1000.0,1000.0
GDHm,-1000.0,1000.0
GF6PTA,0.0,1000.0
GHMT2r,-1000.0,1000.0
GHMT2rm,-1000.0,1000.0
GK1,0.0,1000.0
GLCS2,-1000.0,1000.0
GLCt2,0.0,1000.0
GLNS_1,0.0,1000.0
GLNt4,0.0,1000.0
GLNtm_1,0.0,1000.0
GLU5Km,0.0,1000.0
GLUCYS,0.0,1000.0
GLUDC,0.0,1000.0
GLUDy,-1000.0,1000.0
GLUNm,0.0,1000.0
GLUPRT,0.0,1000.0
GLUTCOADHm,-1000.0,1000.0
GLUt2m,-1000.0,1000.0
GLUt6,0.0,1000.0
GLYAMDTRc,0.0,1000.0
GLYBt4_2_r,-1000.0,1000.0
GLYBtm,0.0,1000.0
GLYCDH_1,-1000.0,1000.0
GLYCK2m,0.0,1000.0
GLYCLm,0.0,1000.0
GLYCt,-1000.0,1000.0
GLYK,0.0,1000.0
GLYt4,0.0,1000.0
GLYtm,-1000.0,1000.0
GMP5N,0.0,1000.0
GMPR,-1000.0,1000.0
GMPS2,0.0,1000.0
GND,0.0,1000.0
GNMT,0.0,1000.0
GSNt4,0.0,1000.0
GTHOr,0.0,1000.0
GTHRDt2,-1000.0,1000.0
GTHS,0.0,1000.0
GTPt2m,0.0,1000.0
GUAD,0.0,1000.0
GUAPRT,0.0,1000.0
GluForTx,0.0,1000.0
H2O2tp,-1000.0,1000.0
H2Ot,-1000.0,1000.0
H2Otm,-1000.0,1000.0
H2Otp,-1000.0,1000.0
HACD1m,-1000.0,1000.0
HACD9m,0.0,1000.0
HCGALm,0.0,1000.0
HCO3E,-1000.0,1000.0
HCO3Em,-1000.0,1000.0
HCO3t,-1000.0,1000.0
HEX1,0.0,1000.0
HEX4,0.0,1000.0
HEX7,0.0,1000.0
HGNTOR,0.0,1000.0
HIBDm,-1000.0,1000.0
HIBH,0.0,1000.0
HISDC,0.0,1000.0
HISDr,0.0,1000.0
HISt4,0.0,1000.0
HIUH_c,0.0,1000.0
HKYNH,0.0,1000.0
HKt,0.0,1000.0
HMGCOAS,-1000.0,1000.0
HMGCOASm,-1000.0,0.0
HMGL,0.0,1000.0
HMGLm,0.0,1000.0
HMNO,0.0,1000.0
HMR_4777,0.0,1000.0
HMR_4964,-1000.0,0.0
HPROxm,0.0,1000.0
HTHBDH_m,0.0,1000.0
HTHBPt_m,0.0,1000.0
HXAND,0.0,1000.0
HXANtx,-1000.0,1000.0
HXPRT,0.0,1000.0
Ht,-1000.0,1000.0
Htm,0.0,1000.0
Htx,-1000.0,1000.0
ICDHxm,0.0,1000.0
ICDHym,-1000.0,1000.0
ICITRED,-1000.0,1000.0
IDPh_1,0.0,1000.0
IDPm,0.0,1000.0
ILETA,-1000.0,1000.0
ILEt4,0.0,1000.0
IMPC,-1000.0,1000.0
IMPD,0.0,1000.0
ITPOXAL,-1000.0,1000.0
IZPN,0.0,1000.0
KYN,0.0,1000.0
KYN3OX,0.0,1000.0
KYNAKGAT,0.0,1000.0
KYNATESYN,-1000.0,1000.0
LCYSTCBOXL,-1000.0,1000.0
LDH_L,-1000.0,1000.0
LDH_Lm,-1000.0,1000.0
LEUTA,-1000.0,1000.0
LEUTAm,-1000.0,1000.0
LEUt4,0.0,1000.0
LEUt5m,-1000.0,1000.0
LFORKYNHYD,-1000.0,1000.0
LPCOXp,0.0,1000.0
LYSOXp,0.0,1000.0
LYSt4,0.0,1000.0
LYStip,0.0,1000.0
LYStm,-1000.0,1000.0
L_LACtm,0.0,1000.0
Lipids_biomass,0.0,1000.0
MACACI,0.0,1000.0
MALtm,0.0,1000.0
MAN6PI,-1000.0,1000.0
MANt2,0.0,1000.0
MCCCrm,0.0,1000.0
MCDm,0.0,1000.0
MCITS,0.0,1000.0
MC_mal_pep,-1000.0,1000.0
MDH,-1000.0,1000.0
MDHm,-1000.0,1000.0
ME1m,0.0,1000.0
ME2,0.0,1000.0
ME2m,0.0,1000.0
METAT,0.0,1000.0
METS_1,0.0,1000.0
METt4,0.0,1000.0
MGCHrm,-1000.0,1000.0
MMCSm,0.0,1000.0
MMEm,-1000.0,1000.0
MMMm,-1000.0,1000.0
MMSAD3,0.0,1000.0
MMSAD3m,0.0,1000.0
MMSDH,0.0,1000.0
MMTSADm,0.0,1000.0
MOD,0.0,1000.0
MOD_2hop,0.0,1000.0
MOD_2mbdhl,0.0,1000.0
MOD_2mhop,0.0,1000.0
MOD_3mhtpp,0.0,1000.0
MOD_3mop,0.0,1000.0
MOD_4mop,0.0,1000.0
MOD_dhlam,-1000.0,1000.0
MOD_pdhlam,0.0,1000.0
MTHFC,-1000.0,1000.0
MTHFCm,-1000.0,1000.0
MTHFD,-1000.0,1000.0
MTHFD2m,-1000.0,1000.0
MTHFR2_1,0.0,1000.0
NADH2_u10mi,0.0,1000.0
NADHtpu,-1000.0,1000.0
NADtx,-1000.0,1000.0
NAt,-1000.0,1000.0
NBAHH_ir,0.0,1000.0
NCAMUP,0.0,1000.0
NDP1,0.0,1000.0
NDP3,0.0,1000.0
NDP7,0.0,1000.0
NDPK1,-1000.0,1000.0
NDPK2,-1000.0,1000.0
NDPK3,-1000.0,1000.0
NDPK4,-1000.0,1000.0
NDPK5,-1000.0,1000.0
NDPK6,-1000.0,1000.0
NDPK7,-1000.0,1000.0
NDPK8,-1000.0,1000.0
NDPK9,-1000.0,1000.0
NH3c,-1000.0,1000.0
NH4t,-1000.0,1000.0
NH4tm,0.0,1000.0
NH4tp,-1000.0,1000.0
NMNAT,-1000.0,1000.0
NMNS,0.0,1000.0
NNOR,-1000.0,1000.0
NORANMT,0.0,1000.0
NOS1,0.0,1000.0
NOS2,0.0,1000.0
NOt,-1000.0,1000.0
NTD10,0.0,1000.0
NTD11,0.0,1000.0
NTD2,0.0,1000.0
NTD4,0.0,1000.0
NTD6,-1000.0,1000.0
NTD7,0.0,1000.0
NTD8,-1000.0,1000.0
NTP3,0.0,1000.0
NTP5,0.0,1000.0
NTP7,0.0,1000.0
NaKt,0.0,1000.0
O2t,-1000.0,1000.0
O2tm,0.0,1000.0
O2tp,-1000.0,1000.0
OBDHc,0.0,1000.0
OCBTm,-1000.0,1000.0
OCOAT1m,-1000.0,1000.0
OIVD1m,0.0,1000.0
OIVD2m,0.0,1000.0
OMPDC,0.0,1000.0
ORNDC,0.0,1000.0
ORNTArm,-1000.0,1000.0
ORNt,0.0,1000.0
ORNt4m,-1000.0,1000.0
ORPT,-1000.0,1000.0
OSUCCL,0.0,1000.0
P5CDm,0.0,1000.0
P5CRm,0.0,1000.0
PACCOAL,0.0,1000.0
PAPA160,0.0,1000.0
PC,0.0,1000.0
PCLAD,0.0,1000.0
PCREATtmdiffir,0.0,1000.0
PCm,0.0,1000.0
PDHam1mi,0.0,1000.0
PDHam2mi,-1000.0,1000.0
PDHe2r,-1000.0,1000.0
PDHm,0.0,1000.0
PEAMNO,0.0,1000.0
PEPCK_re,0.0,1000.0
PEPCKm,0.0,1000.0
PFK,0.0,1000.0
PGCD,0.0,1000.0
PGI,-1000.0,1000.0
PGK,-1000.0,1000.0
PGL,0.0,1000.0
PGM,-1000.0,1000.0
PGMT,-1000.0,1000.0
PHACCOAGLNAC,0.0,1000.0
PHCDm,0.0,1000.0
PHEACGLNt,0.0,1000.0
PHEH_c,0.0,1000.0
PHETHPTOX2,0.0,1000.0
PHEt4,0.0,1000.0
PHYCBOXL,0.0,1000.0
PIt2m,0.0,1000.0
PIt2r,0.0,1000.0
PNTK,0.0,1000.0
PNTOte,-1000.0,1000.0
POLYAO3,0.0,1000.0
PPCDC,0.0,1000.0
PPCOACm,0.0,1000.0
PPD2CSPp,0.0,1000.0
PPM,-1000.0,1000.0
PPM2,-1000.0,1000.0
PPNCL3,0.0,1000.0
PRAGSr,-1000.0,1000.0
PRAIS,0.0,1000.0
PRASCSi,-1000.0,1000.0
PRFGCL,0.0,1000.0
PRFGS,0.0,1000.0
PROD2m,-1000.0,1000.0
PROt4,0.0,1000.0
PRPPS,-1000.0,1000.0
PSDOm,0.0,1000.0
PSERT,0.0,1000.0
PSP_L,0.0,1000.0
PTPATi,0.0,1000.0
PTRCOX1,0.0,1000.0
PUNP1,-1000.0,1000.0
PUNP2,-1000.0,1000.0
PUNP3,-1000.0,1000.0
PUNP4,-1000.0,1000.0
PUNP5,-1000.0,1000.0
PUNP6,-1000.0,1000.0
PUNP7,-1000.0,1000.0
PYK,0.0,1000.0
PYK5,0.0,1000.0
PYKm,0.0,1000.0
PYNP2r,-1000.0,1000.0
PYRt2m,0.0,1000.0
Protein_biomass,0.0,1000.0
QUILSYN,0.0,1000.0
QULNtr,-1000.0,1000.0
RBFK,0.0,1000.0
RBK,0.0,1000.0
RIBFLVt3,0.0,1000.0
RIBFLVt3o,0.0,1000.0
RIBt2,0.0,1000.0
RNA_biomass,0.0,1000.0
RNDR1,0.0,1000.0
RNDR2,0.0,1000.0
RNDR3,0.0,1000.0
RNDR4,0.0,1000.0
RPE,-1000.0,1000.0
RPI,-1000.0,1000.0
SACCD3m,0.0,1000.0
SACCD4m,0.0,1000.0
SACCD_c,0.0,1000.0
SADT,0.0,1000.0
SARCStex,-1000.0,1000.0
SARCStm,-1000.0,1000.0
SARDHm,0.0,1000.0
SERD_L,0.0,1000.0
SERGLNexR,-1000.0,0.0
SERt4,0.0,1000.0
SGAT,-1000.0,1000.0
SK_5mta_c,0.0,1000.0
SK_citr__L_c,0.0,1000.0
SK_coa_c,0.0,1000.0
SK_fad_c,0.0,1000.0
SK_nad_c,0.0,1000.0
SK_urdglyc_c,0.0,1000.0
SO3t_m,-1000.0,1000.0
SO4t_m,-1000.0,1000.0
SO4ti,-1000.0,1000.0
SPMDtex2,-1000.0,1000.0
SPMS,0.0,1000.0
SPRMS,0.0,1000.0
SQORm,0.0,1000.0
SSALxm,0.0,1000.0
SUCD1m,0.0,1000.0
SUCOAS1m,-1000.0,1000.0
SUCOASm,-1000.0,1000.0
TALA,-1000.0,1000.0
THBPOX_m,-1000.0,1000.0
THBPT4ACAMDASE,0.0,1000.0
THBPt_m,-1000.0,1000.0
THMDt4,0.0,1000.0
THP2Ctp,-1000.0,1000.0
THRA,0.0,1000.0
THRD_L,0.0,1000.0
THRt4,0.0,1000.0
THYMt,-1000.0,1000.0
TKT1,-1000.0,1000.0
TKT2,-1000.0,1000.0
TMDK1,0.0,1000.0
TMDPP,-1000.0,1000.0
TMDS,0.0,1000.0
TPI,-1000.0,1000.0
TRDR,0.0,1000.0
TRPHYDRO2,0.0,1000.0
TRPO2,0.0,1000.0
TRPt4,0.0,1000.0
TYRDOPO,0.0,1000.0
TYRTA,0.0,1000.0
TYRt4,0.0,1000.0
UAG2EMA,0.0,1000.0
UAGDP,0.0,1000.0
UDPG4E,-1000.0,1000.0
UGLT,-1000.0,1000.0
UMPK,-1000.0,1000.0
UPPN,0.0,1000.0
URATEtx,0.0,1000.0
URAt,-1000.0,1000.0
URCN,0.0,1000.0
UREAt,-1000.0,0.0
UREAtm,-1000.0,1000.0
URIDK2r,-1000.0,1000.0
URIK1,0.0,1000.0
URIt4,0.0,1000.0
URO_c,0.0,1000.0
VALTA,-1000.0,1000.0
VALTAim,-1000.0,1000.0
VALt4,0.0,1000.0
VALt5m,-1000.0,1000.0
XANDp,-1000.0,1000.0
XANtx,0.0,1000.0
XAO2x,0.0,1000.0
XAOx,0.0,1000.0
XPPT,0.0,1000.0
XYLK,0.0,1000.0
XYLR,-1000.0,1000.0
XYLTD_D,-1000.0,1000.0
XYLt2,0.0,1000.0
r0074,0.0,1000.0
r0142,0.0,1000.0
r0239,-1000.0,1000.0
r0450,-1000.0,1000.0
r0911,-1000.0,1000.0
r0941,-1000.0,1000.0
r0942,-1000.0,1000.0
r1043,0.0,1000.0
r1044,0.0,1000.0
r1045,0.0,1000.0
r1435,-1000.0,1000.0
r1459,-1000.0,1000.0
r1544,-1000.0,0.0
r1553,-1000.0,0.0
r1567,-1000.0,0.0
r1576,0.0,1000.0
r1592,-1000.0,0.0
r1630,-1000.0,0.0
r1637,-1000.0,0.0
r1992,0.0,1000.0
r1993,0.0,1000.0
r1995,0.0,1000.0
r1999,0.0,1000.0
r2000,0.0,1000.0
r2008,0.0,1000.0
r2009,0.0,1000.0
r2011,0.0,1000.0
r2015,0.0,1000.0
r2016,0.0,1000.0
r2539,-1000.0,1000.0
