2OXOADOXmm,2OXOADOXm
34HPPOR,34HPPOR
AACOAT,AACOAT
ABTArmm,ABTArm
ABUTD,ABUTD
ACACT10mm,ACACT10m
ACCOAC,ACCOAC
ACGAMK,ACGAMK
ACITL,ACITL
ACOAD1fmm,ACOAD1fm
ACOAD8mm,ACOAD8m
ACOAH,ACOAH
ACONT,ACONT
ACONTmm,ACONTm
ACS,ACS
ADA,ADA
ADADir,ADADir
ADK1,ADK1
ADK1mm,ADK1m
ADMDC,ADMDC
ADNK1,ADNK1
ADPT,ADPT
ADSL1r,ADSL1r
ADSL2r,ADSL2r
ADSS,ADSS
AGDC,AGDC
AGTimm,AGTim
AHCi,AHCi
AICART,AICART
ALATA_L,ALATA_L
ALATA_Lmm,ALATA_Lm
ALCD2ir,ALCD2x
ALCD2y,ALCD2y
ALDD22x,ALDD22x
ALDD2x,ALDD2x
ALDHm,ALDH
ALLTAHr,ATAH_1
AMPDA,AMPD2
ARGN,ARGN
ARGNmm,ARGNm
ARGSL,ARGSL
ARGSS,ARGSS
ASNS1,ASNS1
ASP1DC,ASP1DC
ASPCT,ASPCT
ASPO1,ASPO1
ASPTA,ASPTA
ASPTAmm,ASPTAm
ATPM,ATPM
ATP_synthase,ATPS4mi
BETALDHxmm,BETALDHxm
BFBP,FBP
BHMT,BHMT
BUPN,BUPN
Biomass_pol,Biomass
CAT,CAT
CATmm,CATm
CBPS,CBPS
CDPPH,CDPPH
CHLPCTD,CHLPCTD
CHOLK,CHOLK
CO2t,CO2t
CSmm,CSm
CTPS1,CTPS1_2
CTPS2,CTPS2
CYSO,CYSO
CYSTGL,CYSTGL
CYSTS,CYSTS
CYTD,CYTD
CYTDK1,CYTDK1_1
CYTK1,CYTK1
CYTK2,CYTK2
Carbohydrates,Carbohydrates
DADA,DADA
DADK,DADK
DCMPDA,DCMPDA_1
DCYTD,DCYTD
DDPGAmm,DDPGAm
DGK1,DGK1
DHFR,DHFR
DHORTS,DHORTS
DHPD,DHPD
DNAMTnn,DMT
DNA_pol,DNA_pol
DRPA,DRPA
DTMPK,DTMPK
DURAD,DURAD
DURIK1,DURIK1
DURIPP,DURIPP
ECOAH12mm,ECOAH12m
ECOAH9mm,ECOAH9m
ENO,ENO
ENOmm,ENOm
EX_Glc_aD_e,EX_glc__D_e
EX_acgam_e,EX_acgam_e
EX_adn_e,EX_adn_e
EX_ala__L_e,EX_ala__L_e
EX_arg__L_e,EX_arg__L_e
EX_asn__L_e,EX_asn__L_e
EX_asp__L_e,EX_asp__L_e
EX_but_e,EX_but_e
EX_chol_e,EX_chol_e
EX_co2_e,EX_co2_e
EX_creat_e,EX_creat_e
EX_cys__L_e,EX_cys__L_e
EX_cytd_e,EX_cytd_e
EX_dad_2_e,EX_dad_2_e
EX_dcyt_e,EX_dcyt_e
EX_dgsn_e,EX_dgsn_e
EX_etoh_e,EX_etoh_e
EX_fol_e,EX_fol_e
EX_fru_B_e,EX_fru_e
EX_gal_e,EX_gal_e
EX_gln__L_e,EX_gln__L_e
EX_glu__L_e,EX_glu__L_e
EX_gly_e,EX_gly_e
EX_glyc_e,EX_glyc_e
EX_gsn_e,EX_gsn_e
EX_h2o_e,EX_h2o_e
EX_h_e,EX_h_e
EX_hco3_e,EX_hco3_e
EX_his__L_e,EX_his__L_e
EX_ile__L_e,EX_ile__L_e
EX_k_e,EX_k_e
EX_leu__L_e,EX_leu__L_e
EX_lys__L_e,EX_lys__L_e
EX_man_e,EX_man_e
EX_met__L_e,EX_met__L_e
EX_na1_e,EX_na1_e
EX_nh3_e,EX_nh3_e
EX_o2_e,EX_o2_e
EX_orn_e,EX_orn_e
EX_phe__L_e,EX_phe__L_e
EX_pi_e,EX_pi_e
EX_pro__L_e,EX_pro__L_e
EX_rib__D_e,EX_rib__D_e
EX_ser__L_e,EX_ser__L_e
EX_so4_e,EX_so4_e
EX_thr__L_e,EX_thr__L_e
EX_thymd_e,EX_thymd_e
EX_trp__L_e,EX_trp__L_e
EX_tyr__L_e,EX_tyr__L_e
EX_urea_e,EX_urea_e
EX_uri_e,EX_uri_e
EX_val__L_e,EX_val__L_e
EX_xyl__D_e,EX_xyl__D_e
FBA,FBA
FTAL,FTCD
FTHFDH,FTHFDH
FTHFLi,FTHFLi
FTHFLmim,FTHFLmi
FUM,FUM
FUMAC,FUMAC
FUMmm,FUMm
G3PD1ir,G3PD1ir
G5SADrmm,G5SADrm
G5SDymm,G5SDym
G6PBDH,G6PBDH
G6PDA,G6PDA
G6PI2,G6PI3
GALKr,GALKr
GALUi,GALUi
GALmm,GALm
GAPD,GAPD
GARFT,GARFT
GCCamm,GCCam
GCCbimm,GCCbim
GDHmm,GDHm
GK1,GK1
GLNS,GLNS_1
GLU5Kmm,GLU5Km
GLUDC,GLUDC
GLUDy,GLUDy
GLUNmm,GLUNm
GLUPRT,GLUPRT
GLUTCOADHmm,GLUTCOADHm
GLYCLmm,GLYCLm
GLYK,GLYK
GMP5N,GMP5N
GMPR,GMPR
GMPS2,GMPS2
GND,GND
GPAR,GUAPRT
GUAD,GUAD
Glycogen_pol,GLCS2
HACD9mm,HACD9m
HCGALmm,HCGALm
HCO3E,HCO3E
HCO3Emm,HCO3Em
HEX4,HEX4
HGNTOR,HGNTOR
HIBHm,HIBH
HISDr,HISDr
HMNOm,HMNO
HURH,HIUH_c
HXAND,HXAND
HXPRT,HXPRT
ICDHxmm,ICDHxm
ICDHymm,ICDHym
IDPmm,IDPm
IMPD,IMPD
IZPN,IZPN
LDH_L,LDH_L
LDH_Lmm,LDH_Lm
LEUTA,LEUTA
Lipid_pol,Lipid_pol
MACACI,MACACI
MAN6PI,MAN6PI
MCCCrmm,MCCCrm
MCDmm,MCDm
MDH,MDH
MDHmm,MDHm
ME1mm,ME1m
ME2,ME2
ME2mm,ME2m
METAT,METAT
METS,METS_1
MMEmm,MMEm
MMMmm,MMMm
MMSAD3,MMSAD3
MMSDHm,MMSDH
MOD_3mopm,MOD_3mop
MOD_4mopm,MOD_4mop
MODm,MOD
MTHFC,MTHFC
MTHFCmm,MTHFCm
MTHFD,MTHFD
MTHFD2mm,MTHFD2m
MTHFR2,MTHFR2_1
NAt,NAt
NDP1,NDP1
NDP3,NDP3
NDPK1,NDPK1
NDPK2,NDPK2
NDPK3,NDPK3
NDPK4,NDPK4
NDPK5,NDPK5
NDPK7,NDPK7
NDPK8,NDPK8
NDPK9,NDPK9
NTD10,NTD10
NTD11,NTD11
NTD2,NTD2
NTD4,NTD4
NTD6,NTD6
NTD7,NTD7
NTD8,NTD8
NTP3,NTP3
NTP5,NTP5
NTP7,NTP7
OCBTmm,OCBTm
OCOAT1mm,OCOAT1m
OMPDC,OMPDC
ORNDC,ORNDC
ORNTArmm,ORNTArm
ORPT,ORPT
P5CDmm,P5CDm
P5CRmm,P5CRm
PC,PC
PCmm,PCm
PDHam1mim,PDHam1mi
PEPCK_re,PEPCK_re
PEPCKmm,PEPCKm
PGCD,PGCD
PGCM,PGCM
PGIA,PGI1c
PGK,PGK
PGL,PGL
PGM,PGM
PHCDmm,PHCDm
POLYAO3,POLYAO3
PPA,IDPh_1
PPCOACmm,PPCOACm
PPCOAOmm,PPCOAOm
PPM2,PPM2
PPRGL,PRAGSr
PRASCSi,PRASCSi
PROD2mm,PROD2m
PSERT,PSERT
PSP_L,PSP_L
PTRCOX1,PTRCOX1
PUNP1,PUNP1
PUNP2,PUNP2
PUNP3,PUNP3
PUNP4,PUNP4
PUNP5,PUNP5
PUNP6,PUNP6
PUNP7,PUNP7
PYK,PYK
PYK5,PYK5
PYKmm,PYKm
PYNP2r,PYNP2r
Protein_pol,Protein_pol
RNA_pol,RNA_pol
RNDR1,RNDR1
RNDR2,RNDR2
RNDR3,RNDR3
RNDR4,RNDR4
RPE,RPE
RXN_2881,FldActm
SERD_L,SERD_L
SGATm,SGAT
SK_S_Ureidoglycolate_c,SK_urdglyc_c
SPMS,SPMS
SPRMS,SPRMS
SSALxmm,SSALxm
SUCLmm,SUCOASm
SUCOAS1mm,SUCOAS1m
SULOmm,r0142
TALA,TALA
THRA,THRA
THRD_L,THRD_L
TKT2,TKT2
TMDK1,TMDK1
TMDPP,TMDPP
TMDS,TMDS
TPI,TPI
TRDR,TRDR
TYRTA,TYRTA
T_2_Oxobutyrate_mit,2OBUTtm
T_3_Aminoisobutyrate_mit,3AIBtm
T_3_Methyl_2_oxobutanoate_mit,3MOBtm
T_4_Methyl_2Oxopentanoate_mit,4MOPtm
T_AAC_mit,ATPtm_H
T_AGC_mit,ASPGLUm
T_Acetoacetate,ACACtm
T_Adenosine,ADNt4
T_Ala_cyt,ALAt4
T_Ala_mit,ALAtmi
T_Aminoadipate_6_semialdehyde_mit,L2AADP6SAt_m
T_Arg1_cyt,ARGt4
T_Arg2_cyt,r2009
T_Arg3_cyt,r2008
T_Arg4_cyt,r2011
T_Arg5_cyt,r2015
T_Arg6_cyt,r2016
T_Arg_mit,ARGt2m
T_Asn1_cyt,ASNt4
T_Asn2_cyt,r1567
T_Asn3_cyt,r1553
T_Asn4_cyt,r1592
T_Asn5_cyt,r1630
T_Asn6_cyt,r1637
T_Asp_cyt,ASPt6
T_Asp_mit,ASPt2m
T_Betaine_mit,GLYBtm
T_Butanoate_cyt,BUTt
T_Butyrate_mit,BUTt2m
T_CIC_mit,HMR_4964
T_CIC_pep__mit,MC_mal_pep
T_Chitin,ACGAtex_1
T_Choline,CHOLtu
T_Choline_mit,CHLtm
T_Cr_mit,CREATtmdiffir
T_Creatinine,r0942
T_Cys_cyt,CYSt4
T_Cys_mit,CYSt_m
T_Cytidine,CYTDt4
T_DIC_fum__mit,FUMtm
T_DIC_mal__mit,MALtm
T_DNA_nuc,DNAt
T_Dimethylglycine_mit,DMGtm
T_Etoh,ETOHt
T_Folate,r0963
T_Formate_mit,FORtm
T_Fruc,FRUt2
T_GABA_mit,4ABUTtm
T_GC_mit,GLUt2m
T_GGC_mit,GTPt2m
T_GPD_mit,G3PD2m
T_Gal,GALt2
T_Gln1_cyt,GLNt4
T_Gln2_cyt,ALAGLNexR
T_Gln3_cyt,r1544
T_Gln4_cyt,SERGLNexR
T_Gln5_cyt,r1576
T_Gln6_cyt,CYSGLUexR
T_Gln_mit,GLNtm_1
T_Glu_cyt,GLUt6
T_Gly_cyt,GLYt4
T_Gly_mit,GLYtm
T_Glycerol,GLYCt
T_Guanosine,GSNt4
T_H2O,H2Ot
T_H2O_mit,H2Otm
T_HCO3,HCO3t
T_HCO3_mit,r0941
T_His_cyt,HISt4
T_Ile_cyt,ILEt4
T_Ketoisoleucine_mit,3MOPtm
T_Leu_cyt,LEUt4
T_Lys1_cyt,LYSt4
T_Lys2_cyt,r1993
T_Lys3_cyt,r1992
T_Lys4_cyt,r1995
T_Lys5_cyt,r1999
T_Lys6_cyt,r2000
T_MCP_lac__mit,L_LACtm
T_MCP_pyr__mit,PYRt2m
T_Man,MANt2
T_Met_cyt,METt4
T_NH4,NH4t
T_NH4_mit,NH4tm
T_O2,O2t
T_O2_mit,O2tm
T_OGC_mit,AKGMALtm
T_Ornt_mit,ORNt4m
T_PCr_mit,PCREATtmdiffir
T_PIC_mit,PIt2m
T_PPi_nuc,r1459
T_Phe_cyt,PHEt4
T_Pi2,PIt2r
T_Pro_cyt,PROt4
T_Pro_mit,r0911
T_Rib,RIBt2
T_SAH_nuc,AHCYStn
T_SAM_nuc,AMETtn
T_SO3_mit,SO3t_m
T_SO4,SO4ti
T_SO4_mit,SO4t_m
T_Ser_cyt,SERt4
T_Ser_mit,r1435
T_Thr_cyt,THRt4
T_Thymidine,THMDt4
T_Trp_cyt,TRPt4
T_Tyr_cyt,TYRt4
T_UCP_mit,Htm
T_Urea,UREAt
T_Urea_mit,UREAtm
T_Uridine,URIt4
T_Val_cyt,VALt4
T_Xyl,XYLt2
T_aGlc,GLCt2
T_dATP_nuc,DATPtn
T_dAdenosine,r1043
T_dCTP_nuc,DCTPtn
T_dCytidine,r1044
T_dGTP_nuc,DGTPtn
T_dGuanosine,r1045
T_dTTP_nuc,DTTPtn
T_h,Ht
T_h_nuc,HMR_1095
UDPG4E,UDPG4E
UGLT,UGLT
UMPK,UMPK
URCN,URCN
URIDK2r,URIDK2r
URIK1,URIK1
XAND,XAND
XAO,XAO
XAO2,XAO2
XPPT,XPPT
XYLK,XYLK
XYLR,XYLR
XYLTD_D,XYLTD_D
aadat1,r0450
aass1,SACCD_c
aass2,AASS_c
aatc,EHGLATm
acat2,ACACT1m
acs3,FACOAL40im
acsf3,MMCSm
agxt2,3AIBT2m
al7a1,AASAD3m
alln,ALLTN
atna1,NaKt
atp4b,HKt
auh1,MGCHrm
bcat2,VALTA
bcat3,ILETA
bcdh1,ACOAD10m
bckdha1,MOD_2hop
bckdha2,MOD_pdhlam
bckdha6,MOD_3mhtpp
bckdha7,MOD_2mhop
bckdha8,MOD_2mbdhl
bup1,BUP
can1b,ORNt
cbc1,CYORm
cco1,CYOOmi
cept1,CHOPT_PALM_PALM_c
chdh1,CHOLD
ckm1,CKc
ckm2,CK
cps1,CPS_m
dbt1,DHLTAm
dbt2,DHRT_ivcoa
dbt3,DHRT_ibcoa
dbt4,MOD_dhlam
dhfr3,FOLR2_1
dhpr,DHPR
dlat,r0555
dldh,GCC2cm
dmgdh1,DMGDHm
dpyd2,DURAD2
dpys2,DHPM2
echp1,HACD1m
echs1,ECOAH1m
echs2,PRPNCOAHYDm
enp6,NDP7
ethe1,PSDOm
fas1,FAS
fnor1,FADR_m
ftcd1,GluForTx
ftfdh2,FTHFDHm
g6pase,G6PP
g6pi_3,G6PI_1
gabt,3A2OA
gamt2,GACMTRc
gatm1,GLYAMDTRc
glyctk,GLYCK2m
got1,3SALATAi
got2,3SPYRSP
grhpr,GLYCDH_1
hmgcl1,HMGLm
hmgcl2,HMGL
hmgs1,HMGCOAS
hxk1,GLUKA
hxk2,HEX1
hxk4,ABFPT2
kat3,CYSDSm
mta_deg,SK_5mta_c
ndh1,NADHORm
ogdh_b,r0620
ogdh_c,r0556
ohcudc1,5HPUDICDC_c
p4ha1,HMR_4777
pah1,PHEH_c
pcbd,4HTHBPNDH
pck2,ITPOXAL
pcrd1,CRTNsyn
pdh_b,PDHam2mi
pfas,PRFGS
pfk1,PFK
pgm3,PPM
plcc1,AGPATCOA_PALM_PALM_c
plcf1,G3PAT160_1
pmp1,ATPS1
ppc1b1,PAPA160
prodh2,HPROxm
prps,PRPPS
pur2_3,PRFGCL
pur6,AIRCr
pur9_2,IMPC
pyr7,DHORDm
r0074m,r0074
r0082,r0082
r0085,OXOGAH
r0163m,r0163
r0422,r0422
r102,NNOR
rbk1,RBK
rpe1,RPE
rpi,RPI
sardh1,SARDHm
scacd2,ACOAD9m
sdh,SUCD1m
shmt2,GHMT2r
shmt2_mit,GHMT2rm
sqo1,SQORm
tkl1,TKT1
uricase,URO_c
